%!PS-Adobe-2.0 EPSF-2.0
%%Title: /u/d/dsuchod/Bilder/PAM/suff-optional.dia
%%Creator: Dia v0.91
%%CreationDate: Sun Feb 29 14:56:22 2004
%%For: dsuchod
%%Orientation: Portrait
%%Magnification: 1.0000
%%BoundingBox: 0 0 314 570
%%BeginSetup
%%EndSetup
%%EndComments
%%BeginProlog
[ /.notdef /.notdef /.notdef /.notdef /.notdef /.notdef /.notdef /.notdef /.notdef /.notdef
/.notdef /.notdef /.notdef /.notdef /.notdef /.notdef /.notdef /.notdef /.notdef /.notdef
/.notdef /.notdef /.notdef /.notdef /.notdef /.notdef /.notdef /.notdef /.notdef /.notdef
/.notdef /.notdef /space /exclam /quotedbl /numbersign /dollar /percent /ampersand /quoteright
/parenleft /parenright /asterisk /plus /comma /hyphen /period /slash /zero /one
/two /three /four /five /six /seven /eight /nine /colon /semicolon
/less /equal /greater /question /at /A /B /C /D /E
/F /G /H /I /J /K /L /M /N /O
/P /Q /R /S /T /U /V /W /X /Y
/Z /bracketleft /backslash /bracketright /asciicircum /underscore /quoteleft /a /b /c
/d /e /f /g /h /i /j /k /l /m
/n /o /p /q /r /s /t /u /v /w
/x /y /z /braceleft /bar /braceright /asciitilde /.notdef /.notdef /.notdef
/.notdef /.notdef /.notdef /.notdef /.notdef /.notdef /.notdef /.notdef /.notdef /.notdef
/.notdef /.notdef /.notdef /.notdef /.notdef /.notdef /.notdef /.notdef /.notdef /.notdef
/.notdef /.notdef /.notdef /.notdef /.notdef /.notdef /.notdef /.notdef /.notdef /.notdef
/space /exclamdown /cent /sterling /currency /yen /brokenbar /section /dieresis /copyright
/ordfeminine /guillemotleft /logicalnot /hyphen /registered /macron /degree /plusminus /twosuperior /threesuperior
/acute /mu /paragraph /periodcentered /cedilla /onesuperior /ordmasculine /guillemotright /onequarter /onehalf
/threequarters /questiondown /Agrave /Aacute /Acircumflex /Atilde /Adieresis /Aring /AE /Ccedilla
/Egrave /Eacute /Ecircumflex /Edieresis /Igrave /Iacute /Icircumflex /Idieresis /Eth /Ntilde
/Ograve /Oacute /Ocircumflex /Otilde /Odieresis /multiply /Oslash /Ugrave /Uacute /Ucircumflex
/Udieresis /Yacute /Thorn /germandbls /agrave /aacute /acircumflex /atilde /adieresis /aring
/ae /ccedilla /egrave /eacute /ecircumflex /edieresis /igrave /iacute /icircumflex /idieresis
/eth /ntilde /ograve /oacute /ocircumflex /otilde /odieresis /divide /oslash /ugrave
/uacute /ucircumflex /udieresis /yacute /thorn /ydieresis] /isolatin1encoding exch def
/cp {closepath} bind def
/c {curveto} bind def
/f {fill} bind def
/a {arc} bind def
/ef {eofill} bind def
/ex {exch} bind def
/gr {grestore} bind def
/gs {gsave} bind def
/sa {save} bind def
/rs {restore} bind def
/l {lineto} bind def
/m {moveto} bind def
/rm {rmoveto} bind def
/n {newpath} bind def
/s {stroke} bind def
/sh {show} bind def
/slc {setlinecap} bind def
/slj {setlinejoin} bind def
/slw {setlinewidth} bind def
/srgb {setrgbcolor} bind def
/rot {rotate} bind def
/sc {scale} bind def
/sd {setdash} bind def
/ff {findfont} bind def
/sf {setfont} bind def
/scf {scalefont} bind def
/sw {stringwidth pop} bind def
/tr {translate} bind def

/ellipsedict 8 dict def
ellipsedict /mtrx matrix put
/ellipse
{ ellipsedict begin
   /endangle exch def
   /startangle exch def
   /yrad exch def
   /xrad exch def
   /y exch def
   /x exch def   /savematrix mtrx currentmatrix def
   x y tr xrad yrad sc
   0 0 1 startangle endangle arc
   savematrix setmatrix
   end
} def

/mergeprocs {
dup length
3 -1 roll
dup
length
dup
5 1 roll
3 -1 roll
add
array cvx
dup
3 -1 roll
0 exch
putinterval
dup
4 2 roll
putinterval
} bind def
/dpi_x 300 def
/dpi_y 300 def
/conicto {
    /to_y exch def
    /to_x exch def
    /conic_cntrl_y exch def
    /conic_cntrl_x exch def
    currentpoint
    /p0_y exch def
    /p0_x exch def
    /p1_x p0_x conic_cntrl_x p0_x sub 2 3 div mul add def
    /p1_y p0_y conic_cntrl_y p0_y sub 2 3 div mul add def
    /p2_x p1_x to_x p0_x sub 1 3 div mul add def
    /p2_y p1_y to_y p0_y sub 1 3 div mul add def
    p1_x p1_y p2_x p2_y to_x to_y curveto
} bind def
/start_ol { gsave 1.1 dpi_x div dup scale} bind def
/end_ol { closepath fill grestore } bind def
28.346000 -28.346000 scale
-4.975000 -25.050000 translate
%%EndProlog


1.000000 1.000000 1.000000 srgb
n 11.000000 5.934337 m 15.000000 7.424958 l 11.000000 8.915579 l 7.000000 7.424958 l f
0.100000 slw
[] 0 sd
[] 0 sd
0 slj
0.000000 0.000000 0.000000 srgb
n 11.000000 5.934337 m 15.000000 7.424958 l 11.000000 8.915579 l 7.000000 7.424958 l cp s
gsave 9.751167 7.674958 translate 0.035278 -0.035278 scale
start_ol
1920 2112 moveto
1848 2178 1764 2209 conicto
1680 2240 1578 2240 conicto
1218 2240 1025 2001 conicto
832 1763 832 1317 conicto
832 0 lineto
448 0 lineto
448 2496 lineto
832 2496 lineto
832 2112 lineto
965 2339 1180 2449 conicto
1396 2560 1702 2560 conicto
1747 2560 1799 2560 conicto
1852 2560 1917 2560 conicto
1920 2112 lineto
end_ol grestore 
gsave 9.988233 7.674958 translate 0.035278 -0.035278 scale
start_ol
2624 1352 moveto
2624 1152 lineto
704 1152 lineto
731 715 960 485 conicto
1189 256 1597 256 conicto
1834 256 2056 320 conicto
2278 384 2496 512 conicto
2496 128 lineto
2273 34 2039 -15 conicto
1805 -64 1565 -64 conicto
961 -64 608 284 conicto
256 632 256 1225 conicto
256 1839 595 2199 conicto
934 2560 1509 2560 conicto
2024 2560 2324 2235 conicto
2624 1910 2624 1352 conicto
2240 1472 moveto
2235 1822 2043 2031 conicto
1852 2240 1537 2240 conicto
1180 2240 965 2038 conicto
750 1836 718 1470 conicto
2240 1472 lineto
end_ol grestore 
gsave 10.360767 7.674958 translate 0.035278 -0.035278 scale
start_ol
704 1249 moveto
704 784 891 520 conicto
1079 256 1407 256 conicto
1735 256 1923 520 conicto
2112 784 2112 1249 conicto
2112 1713 1923 1976 conicto
1735 2240 1407 2240 conicto
1079 2240 891 1976 conicto
704 1713 704 1249 conicto
2112 384 moveto
1980 156 1779 46 conicto
1578 -64 1297 -64 conicto
835 -64 545 297 conicto
256 659 256 1248 conicto
256 1837 545 2198 conicto
835 2560 1297 2560 conicto
1578 2560 1779 2450 conicto
1980 2340 2112 2112 conicto
2112 2496 lineto
2496 2496 lineto
2496 -960 lineto
2112 -960 lineto
2112 384 lineto
end_ol grestore 
gsave 10.750233 7.674958 translate 0.035278 -0.035278 scale
start_ol
448 986 moveto
448 2496 lineto
832 2496 lineto
832 1001 lineto
832 629 978 442 conicto
1124 256 1417 256 conicto
1768 256 1972 477 conicto
2176 699 2176 1081 conicto
2176 2496 lineto
2560 2496 lineto
2560 0 lineto
2176 0 lineto
2176 384 lineto
2022 157 1819 46 conicto
1617 -64 1349 -64 conicto
906 -64 677 203 conicto
448 471 448 986 conicto
end_ol grestore 
gsave 11.139700 7.674958 translate 0.035278 -0.035278 scale
start_ol
448 2496 moveto
832 2496 lineto
832 0 lineto
448 0 lineto
448 2496 lineto
448 3520 moveto
832 3520 lineto
832 3008 lineto
448 3008 lineto
448 3520 lineto
end_ol grestore 
gsave 11.309033 7.674958 translate 0.035278 -0.035278 scale
start_ol
1920 2112 moveto
1848 2178 1764 2209 conicto
1680 2240 1578 2240 conicto
1218 2240 1025 2001 conicto
832 1763 832 1317 conicto
832 0 lineto
448 0 lineto
448 2496 lineto
832 2496 lineto
832 2112 lineto
965 2339 1180 2449 conicto
1396 2560 1702 2560 conicto
1747 2560 1799 2560 conicto
1852 2560 1917 2560 conicto
1920 2112 lineto
end_ol grestore 
gsave 11.546100 7.674958 translate 0.035278 -0.035278 scale
start_ol
2624 1352 moveto
2624 1152 lineto
704 1152 lineto
731 715 960 485 conicto
1189 256 1597 256 conicto
1834 256 2056 320 conicto
2278 384 2496 512 conicto
2496 128 lineto
2273 34 2039 -15 conicto
1805 -64 1565 -64 conicto
961 -64 608 284 conicto
256 632 256 1225 conicto
256 1839 595 2199 conicto
934 2560 1509 2560 conicto
2024 2560 2324 2235 conicto
2624 1910 2624 1352 conicto
2240 1472 moveto
2235 1822 2043 2031 conicto
1852 2240 1537 2240 conicto
1180 2240 965 2038 conicto
750 1836 718 1470 conicto
2240 1472 lineto
end_ol grestore 
gsave 11.918633 7.674958 translate 0.035278 -0.035278 scale
start_ol
2112 2112 moveto
2112 3520 lineto
2496 3520 lineto
2496 0 lineto
2112 0 lineto
2112 384 lineto
1980 156 1779 46 conicto
1578 -64 1297 -64 conicto
835 -64 545 297 conicto
256 659 256 1248 conicto
256 1837 545 2198 conicto
835 2560 1297 2560 conicto
1578 2560 1779 2450 conicto
1980 2340 2112 2112 conicto
704 1249 moveto
704 784 891 520 conicto
1079 256 1407 256 conicto
1735 256 1923 520 conicto
2112 784 2112 1249 conicto
2112 1713 1923 1976 conicto
1735 2240 1407 2240 conicto
1079 2240 891 1976 conicto
704 1713 704 1249 conicto
end_ol grestore 
1.000000 1.000000 1.000000 srgb
n 11.000000 9.973037 m 15.000000 11.486518 l 11.000000 13.000000 l 7.000000 11.486518 l f
0.100000 slw
[] 0 sd
[] 0 sd
0 slj
0.000000 0.000000 0.000000 srgb
n 11.000000 9.973037 m 15.000000 11.486518 l 11.000000 13.000000 l 7.000000 11.486518 l cp s
gsave 9.603000 11.736518 translate 0.035278 -0.035278 scale
start_ol
2048 2432 moveto
2048 2048 lineto
1868 2144 1674 2192 conicto
1480 2240 1273 2240 conicto
957 2240 798 2144 conicto
640 2048 640 1856 conicto
640 1709 757 1625 conicto
875 1542 1229 1467 conicto
1380 1435 lineto
1812 1341 1994 1170 conicto
2176 999 2176 692 conicto
2176 343 1899 139 conicto
1622 -64 1137 -64 conicto
936 -64 717 -32 conicto
498 0 256 64 conicto
256 512 lineto
490 385 718 320 conicto
947 256 1170 256 conicto
1470 256 1631 358 conicto
1792 461 1792 647 conicto
1792 820 1670 912 conicto
1549 1004 1141 1089 conicto
988 1123 lineto
600 1203 428 1369 conicto
256 1535 256 1824 conicto
256 2177 510 2368 conicto
765 2560 1233 2560 conicto
1466 2560 1670 2528 conicto
1875 2496 2048 2432 conicto
end_ol grestore 
gsave 9.924733 11.736518 translate 0.035278 -0.035278 scale
start_ol
448 986 moveto
448 2496 lineto
832 2496 lineto
832 1001 lineto
832 629 978 442 conicto
1124 256 1417 256 conicto
1768 256 1972 477 conicto
2176 699 2176 1081 conicto
2176 2496 lineto
2560 2496 lineto
2560 0 lineto
2176 0 lineto
2176 384 lineto
2022 157 1819 46 conicto
1617 -64 1349 -64 conicto
906 -64 677 203 conicto
448 471 448 986 conicto
end_ol grestore 
gsave 10.314200 11.736518 translate 0.035278 -0.035278 scale
start_ol
1664 3520 moveto
1664 3200 lineto
1305 3200 lineto
1075 3200 985 3100 conicto
896 3001 896 2742 conicto
896 2496 lineto
1600 2496 lineto
1600 2176 lineto
896 2176 lineto
896 0 lineto
512 0 lineto
512 2176 lineto
128 2176 lineto
128 2496 lineto
512 2496 lineto
512 2691 lineto
512 3124 703 3322 conicto
894 3520 1310 3520 conicto
1664 3520 lineto
end_ol grestore 
gsave 10.525867 11.736518 translate 0.035278 -0.035278 scale
start_ol
1664 3520 moveto
1664 3200 lineto
1305 3200 lineto
1075 3200 985 3100 conicto
896 3001 896 2742 conicto
896 2496 lineto
1600 2496 lineto
1600 2176 lineto
896 2176 lineto
896 0 lineto
512 0 lineto
512 2176 lineto
128 2176 lineto
128 2496 lineto
512 2496 lineto
512 2691 lineto
512 3124 703 3322 conicto
894 3520 1310 3520 conicto
1664 3520 lineto
end_ol grestore 
gsave 10.737533 11.736518 translate 0.035278 -0.035278 scale
start_ol
448 2496 moveto
832 2496 lineto
832 0 lineto
448 0 lineto
448 2496 lineto
448 3520 moveto
832 3520 lineto
832 3008 lineto
448 3008 lineto
448 3520 lineto
end_ol grestore 
gsave 10.906867 11.736518 translate 0.035278 -0.035278 scale
start_ol
2240 2432 moveto
2240 2048 lineto
2066 2144 1892 2192 conicto
1718 2240 1541 2240 conicto
1143 2240 923 1979 conicto
704 1718 704 1248 conicto
704 778 923 517 conicto
1143 256 1541 256 conicto
1718 256 1892 304 conicto
2066 352 2240 448 conicto
2240 64 lineto
2068 0 1883 -32 conicto
1698 -64 1490 -64 conicto
924 -64 590 290 conicto
256 645 256 1248 conicto
256 1859 593 2209 conicto
931 2560 1517 2560 conicto
1707 2560 1888 2528 conicto
2070 2496 2240 2432 conicto
end_ol grestore 
gsave 11.245533 11.736518 translate 0.035278 -0.035278 scale
start_ol
448 2496 moveto
832 2496 lineto
832 0 lineto
448 0 lineto
448 2496 lineto
448 3520 moveto
832 3520 lineto
832 3008 lineto
448 3008 lineto
448 3520 lineto
end_ol grestore 
gsave 11.414867 11.736518 translate 0.035278 -0.035278 scale
start_ol
2624 1352 moveto
2624 1152 lineto
704 1152 lineto
731 715 960 485 conicto
1189 256 1597 256 conicto
1834 256 2056 320 conicto
2278 384 2496 512 conicto
2496 128 lineto
2273 34 2039 -15 conicto
1805 -64 1565 -64 conicto
961 -64 608 284 conicto
256 632 256 1225 conicto
256 1839 595 2199 conicto
934 2560 1509 2560 conicto
2024 2560 2324 2235 conicto
2624 1910 2624 1352 conicto
2240 1472 moveto
2235 1822 2043 2031 conicto
1852 2240 1537 2240 conicto
1180 2240 965 2038 conicto
750 1836 718 1470 conicto
2240 1472 lineto
end_ol grestore 
gsave 11.787400 11.736518 translate 0.035278 -0.035278 scale
start_ol
2560 1509 moveto
2560 0 lineto
2176 0 lineto
2176 1496 lineto
2176 1869 2029 2054 conicto
1883 2240 1590 2240 conicto
1238 2240 1035 2018 conicto
832 1796 832 1413 conicto
832 0 lineto
448 0 lineto
448 2496 lineto
832 2496 lineto
832 2112 lineto
983 2337 1188 2448 conicto
1394 2560 1662 2560 conicto
2106 2560 2333 2293 conicto
2560 2027 2560 1509 conicto
end_ol grestore 
gsave 12.176867 11.736518 translate 0.035278 -0.035278 scale
start_ol
832 3200 moveto
832 2496 lineto
1664 2496 lineto
1664 2176 lineto
832 2176 lineto
832 804 lineto
832 495 914 407 conicto
997 320 1248 320 conicto
1664 320 lineto
1664 0 lineto
1248 0 lineto
793 0 620 173 conicto
448 347 448 804 conicto
448 2176 lineto
128 2176 lineto
128 2496 lineto
448 2496 lineto
448 3200 lineto
832 3200 lineto
end_ol grestore 
1.000000 1.000000 1.000000 srgb
n 11.000000 14.000000 m 15.000000 15.500000 l 11.000000 17.000000 l 7.000000 15.500000 l f
0.100000 slw
[] 0 sd
[] 0 sd
0 slj
0.000000 0.000000 0.000000 srgb
n 11.000000 14.000000 m 15.000000 15.500000 l 11.000000 17.000000 l 7.000000 15.500000 l cp s
gsave 9.751167 15.750000 translate 0.035278 -0.035278 scale
start_ol
1920 2112 moveto
1848 2178 1764 2209 conicto
1680 2240 1578 2240 conicto
1218 2240 1025 2001 conicto
832 1763 832 1317 conicto
832 0 lineto
448 0 lineto
448 2496 lineto
832 2496 lineto
832 2112 lineto
965 2339 1180 2449 conicto
1396 2560 1702 2560 conicto
1747 2560 1799 2560 conicto
1852 2560 1917 2560 conicto
1920 2112 lineto
end_ol grestore 
gsave 9.988233 15.750000 translate 0.035278 -0.035278 scale
start_ol
2624 1352 moveto
2624 1152 lineto
704 1152 lineto
731 715 960 485 conicto
1189 256 1597 256 conicto
1834 256 2056 320 conicto
2278 384 2496 512 conicto
2496 128 lineto
2273 34 2039 -15 conicto
1805 -64 1565 -64 conicto
961 -64 608 284 conicto
256 632 256 1225 conicto
256 1839 595 2199 conicto
934 2560 1509 2560 conicto
2024 2560 2324 2235 conicto
2624 1910 2624 1352 conicto
2240 1472 moveto
2235 1822 2043 2031 conicto
1852 2240 1537 2240 conicto
1180 2240 965 2038 conicto
750 1836 718 1470 conicto
2240 1472 lineto
end_ol grestore 
gsave 10.360767 15.750000 translate 0.035278 -0.035278 scale
start_ol
704 1249 moveto
704 784 891 520 conicto
1079 256 1407 256 conicto
1735 256 1923 520 conicto
2112 784 2112 1249 conicto
2112 1713 1923 1976 conicto
1735 2240 1407 2240 conicto
1079 2240 891 1976 conicto
704 1713 704 1249 conicto
2112 384 moveto
1980 156 1779 46 conicto
1578 -64 1297 -64 conicto
835 -64 545 297 conicto
256 659 256 1248 conicto
256 1837 545 2198 conicto
835 2560 1297 2560 conicto
1578 2560 1779 2450 conicto
1980 2340 2112 2112 conicto
2112 2496 lineto
2496 2496 lineto
2496 -960 lineto
2112 -960 lineto
2112 384 lineto
end_ol grestore 
gsave 10.750233 15.750000 translate 0.035278 -0.035278 scale
start_ol
448 986 moveto
448 2496 lineto
832 2496 lineto
832 1001 lineto
832 629 978 442 conicto
1124 256 1417 256 conicto
1768 256 1972 477 conicto
2176 699 2176 1081 conicto
2176 2496 lineto
2560 2496 lineto
2560 0 lineto
2176 0 lineto
2176 384 lineto
2022 157 1819 46 conicto
1617 -64 1349 -64 conicto
906 -64 677 203 conicto
448 471 448 986 conicto
end_ol grestore 
gsave 11.139700 15.750000 translate 0.035278 -0.035278 scale
start_ol
448 2496 moveto
832 2496 lineto
832 0 lineto
448 0 lineto
448 2496 lineto
448 3520 moveto
832 3520 lineto
832 3008 lineto
448 3008 lineto
448 3520 lineto
end_ol grestore 
gsave 11.309033 15.750000 translate 0.035278 -0.035278 scale
start_ol
1920 2112 moveto
1848 2178 1764 2209 conicto
1680 2240 1578 2240 conicto
1218 2240 1025 2001 conicto
832 1763 832 1317 conicto
832 0 lineto
448 0 lineto
448 2496 lineto
832 2496 lineto
832 2112 lineto
965 2339 1180 2449 conicto
1396 2560 1702 2560 conicto
1747 2560 1799 2560 conicto
1852 2560 1917 2560 conicto
1920 2112 lineto
end_ol grestore 
gsave 11.546100 15.750000 translate 0.035278 -0.035278 scale
start_ol
2624 1352 moveto
2624 1152 lineto
704 1152 lineto
731 715 960 485 conicto
1189 256 1597 256 conicto
1834 256 2056 320 conicto
2278 384 2496 512 conicto
2496 128 lineto
2273 34 2039 -15 conicto
1805 -64 1565 -64 conicto
961 -64 608 284 conicto
256 632 256 1225 conicto
256 1839 595 2199 conicto
934 2560 1509 2560 conicto
2024 2560 2324 2235 conicto
2624 1910 2624 1352 conicto
2240 1472 moveto
2235 1822 2043 2031 conicto
1852 2240 1537 2240 conicto
1180 2240 965 2038 conicto
750 1836 718 1470 conicto
2240 1472 lineto
end_ol grestore 
gsave 11.918633 15.750000 translate 0.035278 -0.035278 scale
start_ol
2112 2112 moveto
2112 3520 lineto
2496 3520 lineto
2496 0 lineto
2112 0 lineto
2112 384 lineto
1980 156 1779 46 conicto
1578 -64 1297 -64 conicto
835 -64 545 297 conicto
256 659 256 1248 conicto
256 1837 545 2198 conicto
835 2560 1297 2560 conicto
1578 2560 1779 2450 conicto
1980 2340 2112 2112 conicto
704 1249 moveto
704 784 891 520 conicto
1079 256 1407 256 conicto
1735 256 1923 520 conicto
2112 784 2112 1249 conicto
2112 1713 1923 1976 conicto
1735 2240 1407 2240 conicto
1079 2240 891 1976 conicto
704 1713 704 1249 conicto
end_ol grestore 
1.000000 1.000000 1.000000 srgb
n 11.000000 18.000000 m 15.000000 19.425042 l 11.000000 20.850085 l 7.000000 19.425042 l f
0.100000 slw
[] 0 sd
[] 0 sd
0 slj
0.000000 0.000000 0.000000 srgb
n 11.000000 18.000000 m 15.000000 19.425042 l 11.000000 20.850085 l 7.000000 19.425042 l cp s
gsave 9.793500 19.675042 translate 0.035278 -0.035278 scale
start_ol
1409 2240 moveto
1083 2240 893 1974 conicto
704 1709 704 1248 conicto
704 787 892 521 conicto
1081 256 1409 256 conicto
1733 256 1922 522 conicto
2112 789 2112 1248 conicto
2112 1705 1922 1972 conicto
1733 2240 1409 2240 conicto
1408 2560 moveto
1946 2560 2253 2212 conicto
2560 1864 2560 1248 conicto
2560 634 2253 285 conicto
1946 -64 1408 -64 conicto
869 -64 562 285 conicto
256 634 256 1248 conicto
256 1864 562 2212 conicto
869 2560 1408 2560 conicto
end_ol grestore 
gsave 10.166033 19.675042 translate 0.035278 -0.035278 scale
start_ol
832 384 moveto
832 -960 lineto
448 -960 lineto
448 2496 lineto
832 2496 lineto
832 2112 lineto
963 2340 1164 2450 conicto
1366 2560 1645 2560 conicto
2108 2560 2398 2198 conicto
2688 1837 2688 1248 conicto
2688 659 2398 297 conicto
2108 -64 1645 -64 conicto
1366 -64 1164 46 conicto
963 156 832 384 conicto
2240 1249 moveto
2240 1713 2052 1976 conicto
1865 2240 1536 2240 conicto
1208 2240 1020 1976 conicto
832 1713 832 1249 conicto
832 784 1020 520 conicto
1208 256 1536 256 conicto
1865 256 2052 520 conicto
2240 784 2240 1249 conicto
end_ol grestore 
gsave 10.555500 19.675042 translate 0.035278 -0.035278 scale
start_ol
832 3200 moveto
832 2496 lineto
1664 2496 lineto
1664 2176 lineto
832 2176 lineto
832 804 lineto
832 495 914 407 conicto
997 320 1248 320 conicto
1664 320 lineto
1664 0 lineto
1248 0 lineto
793 0 620 173 conicto
448 347 448 804 conicto
448 2176 lineto
128 2176 lineto
128 2496 lineto
448 2496 lineto
448 3200 lineto
832 3200 lineto
end_ol grestore 
gsave 10.792567 19.675042 translate 0.035278 -0.035278 scale
start_ol
448 2496 moveto
832 2496 lineto
832 0 lineto
448 0 lineto
448 2496 lineto
448 3520 moveto
832 3520 lineto
832 3008 lineto
448 3008 lineto
448 3520 lineto
end_ol grestore 
gsave 10.961900 19.675042 translate 0.035278 -0.035278 scale
start_ol
1409 2240 moveto
1083 2240 893 1974 conicto
704 1709 704 1248 conicto
704 787 892 521 conicto
1081 256 1409 256 conicto
1733 256 1922 522 conicto
2112 789 2112 1248 conicto
2112 1705 1922 1972 conicto
1733 2240 1409 2240 conicto
1408 2560 moveto
1946 2560 2253 2212 conicto
2560 1864 2560 1248 conicto
2560 634 2253 285 conicto
1946 -64 1408 -64 conicto
869 -64 562 285 conicto
256 634 256 1248 conicto
256 1864 562 2212 conicto
869 2560 1408 2560 conicto
end_ol grestore 
gsave 11.334433 19.675042 translate 0.035278 -0.035278 scale
start_ol
2560 1509 moveto
2560 0 lineto
2176 0 lineto
2176 1496 lineto
2176 1869 2029 2054 conicto
1883 2240 1590 2240 conicto
1238 2240 1035 2018 conicto
832 1796 832 1413 conicto
832 0 lineto
448 0 lineto
448 2496 lineto
832 2496 lineto
832 2112 lineto
983 2337 1188 2448 conicto
1394 2560 1662 2560 conicto
2106 2560 2333 2293 conicto
2560 2027 2560 1509 conicto
end_ol grestore 
gsave 11.723900 19.675042 translate 0.035278 -0.035278 scale
start_ol
1559 1280 moveto
1040 1280 840 1160 conicto
640 1041 640 754 conicto
640 525 790 390 conicto
940 256 1198 256 conicto
1554 256 1769 510 conicto
1984 765 1984 1187 conicto
1984 1280 lineto
1559 1280 lineto
2368 1449 moveto
2368 0 lineto
1984 0 lineto
1984 384 lineto
1842 154 1628 45 conicto
1415 -64 1107 -64 conicto
717 -64 486 154 conicto
256 372 256 739 conicto
256 1166 539 1383 conicto
822 1600 1384 1600 conicto
1984 1600 lineto
1984 1641 lineto
1984 1927 1796 2083 conicto
1608 2240 1266 2240 conicto
1049 2240 843 2192 conicto
638 2144 448 2048 conicto
448 2432 lineto
673 2496 884 2528 conicto
1095 2560 1295 2560 conicto
1835 2560 2101 2284 conicto
2368 2009 2368 1449 conicto
end_ol grestore 
gsave 12.096433 19.675042 translate 0.035278 -0.035278 scale
start_ol
448 3520 moveto
832 3520 lineto
832 0 lineto
448 0 lineto
448 3520 lineto
end_ol grestore 
0.100000 slw
[] 0 sd
[] 0 sd
0 slc
n 11.000000 9.486233 m 11.000000 8.915579 l s
[] 0 sd
0 slj
0 slc
n 11.000000 9.861233 m 10.750000 9.361233 l 11.000000 9.486233 l 11.250000 9.361233 l f
n 11.000000 9.861233 m 10.750000 9.361233 l 11.000000 9.486233 l 11.250000 9.361233 l cp s
0.100000 slw
[] 0 sd
[] 0 sd
0 slc
n 11.000000 17.513197 m 11.000000 17.000000 l s
[] 0 sd
0 slj
0 slc
n 11.000000 17.888197 m 10.750000 17.388197 l 11.000000 17.513197 l 11.250000 17.388197 l f
n 11.000000 17.888197 m 10.750000 17.388197 l 11.000000 17.513197 l 11.250000 17.388197 l cp s
0.100000 slw
[] 0 sd
[] 0 sd
0 slc
n 11.000000 5.447533 m 11.000000 5.000000 l s
[] 0 sd
0 slj
0 slc
n 11.000000 5.822533 m 10.750000 5.322533 l 11.000000 5.447533 l 11.250000 5.322533 l f
n 11.000000 5.822533 m 10.750000 5.322533 l 11.000000 5.447533 l 11.250000 5.322533 l cp s
gsave 5.975067 23.575010 translate 0.035278 -0.035278 scale
start_ol
2112 3520 moveto
2112 3008 lineto
1657 3008 lineto
1482 3008 1413 2938 conicto
1344 2869 1344 2695 conicto
1344 2496 lineto
2048 2496 lineto
2048 1920 lineto
1344 1920 lineto
1344 0 lineto
512 0 lineto
512 1920 lineto
128 1920 lineto
128 2496 lineto
512 2496 lineto
512 2695 lineto
512 3116 748 3318 conicto
985 3520 1482 3520 conicto
2112 3520 lineto
end_ol grestore 
gsave 6.237533 23.575010 translate 0.035278 -0.035278 scale
start_ol
1515 1152 moveto
1271 1152 1147 1061 conicto
1024 971 1024 795 conicto
1024 632 1123 540 conicto
1223 448 1399 448 conicto
1620 448 1770 621 conicto
1920 794 1920 1054 conicto
1920 1152 lineto
1515 1152 lineto
2752 1436 moveto
2752 0 lineto
1920 0 lineto
1920 384 lineto
1759 149 1557 42 conicto
1356 -64 1067 -64 conicto
677 -64 434 162 conicto
192 389 192 750 conicto
192 1189 498 1394 conicto
805 1600 1460 1600 conicto
1920 1600 lineto
1920 1672 lineto
1920 1868 1767 1958 conicto
1615 2048 1291 2048 conicto
1028 2048 803 2000 conicto
578 1952 384 1856 conicto
384 2496 lineto
651 2528 920 2544 conicto
1190 2560 1460 2560 conicto
2145 2560 2448 2295 conicto
2752 2031 2752 1436 conicto
end_ol grestore 
gsave 6.652400 23.575010 translate 0.035278 -0.035278 scale
start_ol
384 2496 moveto
1216 2496 lineto
1216 0 lineto
384 0 lineto
384 2496 lineto
384 3520 moveto
1216 3520 lineto
1216 2816 lineto
384 2816 lineto
384 3520 lineto
end_ol grestore 
gsave 6.864067 23.575010 translate 0.035278 -0.035278 scale
start_ol
384 3520 moveto
1216 3520 lineto
1216 0 lineto
384 0 lineto
384 3520 lineto
end_ol grestore 
gsave 7.929200 22.125010 translate 0.035278 -0.035278 scale
start_ol
2368 2496 moveto
2368 1856 lineto
2120 1952 1890 2000 conicto
1661 2048 1456 2048 conicto
1236 2048 1130 1993 conicto
1024 1938 1024 1823 conicto
1024 1731 1103 1681 conicto
1183 1631 1391 1607 conicto
1525 1587 lineto
2137 1507 2348 1325 conicto
2560 1143 2560 754 conicto
2560 346 2264 141 conicto
1968 -64 1380 -64 conicto
1131 -64 865 -32 conicto
600 0 320 64 conicto
320 704 lineto
559 576 810 512 conicto
1061 448 1321 448 conicto
1555 448 1673 517 conicto
1792 586 1792 721 conicto
1792 835 1713 891 conicto
1635 947 1403 978 conicto
1269 997 lineto
708 1064 482 1242 conicto
256 1421 256 1786 conicto
256 2180 530 2370 conicto
804 2560 1369 2560 conicto
1591 2560 1836 2544 conicto
2081 2529 2368 2496 conicto
end_ol grestore 
gsave 8.293267 22.125010 translate 0.035278 -0.035278 scale
start_ol
384 1000 moveto
384 2496 lineto
1216 2496 lineto
1216 2251 lineto
1216 2052 1214 1751 conicto
1212 1451 1212 1350 conicto
1212 1054 1227 924 conicto
1242 795 1279 735 conicto
1328 659 1406 617 conicto
1484 576 1585 576 conicto
1831 576 1971 764 conicto
2112 952 2112 1287 conicto
2112 2496 lineto
2944 2496 lineto
2944 0 lineto
2112 0 lineto
2112 384 lineto
1930 154 1726 45 conicto
1523 -64 1277 -64 conicto
841 -64 612 208 conicto
384 480 384 1000 conicto
end_ol grestore 
gsave 8.725067 22.125010 translate 0.035278 -0.035278 scale
start_ol
2432 2432 moveto
2432 1792 lineto
2265 1890 2097 1937 conicto
1929 1984 1749 1984 conicto
1406 1984 1215 1790 conicto
1024 1596 1024 1248 conicto
1024 900 1215 706 conicto
1406 512 1749 512 conicto
1941 512 2113 560 conicto
2286 608 2432 704 conicto
2432 64 lineto
2242 0 2046 -32 conicto
1850 -64 1653 -64 conicto
967 -64 579 283 conicto
192 630 192 1248 conicto
192 1866 579 2213 conicto
967 2560 1653 2560 conicto
1852 2560 2046 2528 conicto
2240 2496 2432 2432 conicto
end_ol grestore 
gsave 9.089133 22.125010 translate 0.035278 -0.035278 scale
start_ol
2432 2432 moveto
2432 1792 lineto
2265 1890 2097 1937 conicto
1929 1984 1749 1984 conicto
1406 1984 1215 1790 conicto
1024 1596 1024 1248 conicto
1024 900 1215 706 conicto
1406 512 1749 512 conicto
1941 512 2113 560 conicto
2286 608 2432 704 conicto
2432 64 lineto
2242 0 2046 -32 conicto
1850 -64 1653 -64 conicto
967 -64 579 283 conicto
192 630 192 1248 conicto
192 1866 579 2213 conicto
967 2560 1653 2560 conicto
1852 2560 2046 2528 conicto
2240 2496 2432 2432 conicto
end_ol grestore 
gsave 9.453200 22.125010 translate 0.035278 -0.035278 scale
start_ol
2880 1260 moveto
2880 1024 lineto
1024 1024 lineto
1053 737 1225 592 conicto
1397 448 1706 448 conicto
1955 448 2216 527 conicto
2477 607 2752 768 conicto
2752 128 lineto
2470 33 2186 -15 conicto
1903 -64 1620 -64 conicto
943 -64 567 280 conicto
192 625 192 1248 conicto
192 1859 562 2209 conicto
932 2560 1580 2560 conicto
2170 2560 2525 2206 conicto
2880 1852 2880 1260 conicto
2048 1536 moveto
2048 1766 1918 1907 conicto
1788 2048 1579 2048 conicto
1352 2048 1210 1916 conicto
1068 1784 1033 1536 conicto
2048 1536 lineto
end_ol grestore 
gsave 9.868067 22.125010 translate 0.035278 -0.035278 scale
start_ol
2368 2496 moveto
2368 1856 lineto
2120 1952 1890 2000 conicto
1661 2048 1456 2048 conicto
1236 2048 1130 1993 conicto
1024 1938 1024 1823 conicto
1024 1731 1103 1681 conicto
1183 1631 1391 1607 conicto
1525 1587 lineto
2137 1507 2348 1325 conicto
2560 1143 2560 754 conicto
2560 346 2264 141 conicto
1968 -64 1380 -64 conicto
1131 -64 865 -32 conicto
600 0 320 64 conicto
320 704 lineto
559 576 810 512 conicto
1061 448 1321 448 conicto
1555 448 1673 517 conicto
1792 586 1792 721 conicto
1792 835 1713 891 conicto
1635 947 1403 978 conicto
1269 997 lineto
708 1064 482 1242 conicto
256 1421 256 1786 conicto
256 2180 530 2370 conicto
804 2560 1369 2560 conicto
1591 2560 1836 2544 conicto
2081 2529 2368 2496 conicto
end_ol grestore 
gsave 10.232133 22.125010 translate 0.035278 -0.035278 scale
start_ol
2368 2496 moveto
2368 1856 lineto
2120 1952 1890 2000 conicto
1661 2048 1456 2048 conicto
1236 2048 1130 1993 conicto
1024 1938 1024 1823 conicto
1024 1731 1103 1681 conicto
1183 1631 1391 1607 conicto
1525 1587 lineto
2137 1507 2348 1325 conicto
2560 1143 2560 754 conicto
2560 346 2264 141 conicto
1968 -64 1380 -64 conicto
1131 -64 865 -32 conicto
600 0 320 64 conicto
320 704 lineto
559 576 810 512 conicto
1061 448 1321 448 conicto
1555 448 1673 517 conicto
1792 586 1792 721 conicto
1792 835 1713 891 conicto
1635 947 1403 978 conicto
1269 997 lineto
708 1064 482 1242 conicto
256 1421 256 1786 conicto
256 2180 530 2370 conicto
804 2560 1369 2560 conicto
1591 2560 1836 2544 conicto
2081 2529 2368 2496 conicto
end_ol grestore 
0.100000 slw
[] 0 sd
[] 0 sd
0 slc
n 11.000000 22.513197 m 11.000000 20.850085 l s
[] 0 sd
0 slj
0 slc
n 11.000000 22.888197 m 10.750000 22.388197 l 11.000000 22.513197 l 11.250000 22.388197 l f
n 11.000000 22.888197 m 10.750000 22.388197 l 11.000000 22.513197 l 11.250000 22.388197 l cp s
0.050000 slw
[] 0 sd
[] 0 sd
0 slj
0 slc
n 7.569098 24.000000 m 5.000000 24.000000 l 5.000000 7.424958 l 7.000000 7.424958 l s
[] 0 sd
0 slj
0 slc
n 7.944098 24.000000 m 7.444098 24.250000 l 7.569098 24.000000 l 7.444098 23.750000 l f
n 7.944098 24.000000 m 7.444098 24.250000 l 7.569098 24.000000 l 7.444098 23.750000 l cp s
1.000000 1.000000 1.000000 srgb
n 8.000000 23.000000 m 8.000000 25.000000 l 14.000000 25.000000 l 14.000000 23.000000 l f
0.100000 slw
[] 0 sd
[] 0 sd
0 slj
0.000000 0.000000 0.000000 srgb
n 8.000000 23.000000 m 8.000000 25.000000 l 14.000000 25.000000 l 14.000000 23.000000 l cp s
gsave 9.319367 24.250000 translate 0.035278 -0.035278 scale
start_ol
1600 2882 moveto
985 1216 lineto
2218 1216 lineto
1600 2882 lineto
1344 3328 moveto
1858 3328 lineto
3136 0 lineto
2665 0 lineto
2360 832 lineto
847 832 lineto
542 0 lineto
64 0 lineto
1344 3328 lineto
end_ol grestore 
gsave 9.734233 24.250000 translate 0.035278 -0.035278 scale
start_ol
832 384 moveto
832 -960 lineto
448 -960 lineto
448 2496 lineto
832 2496 lineto
832 2112 lineto
963 2340 1164 2450 conicto
1366 2560 1645 2560 conicto
2108 2560 2398 2198 conicto
2688 1837 2688 1248 conicto
2688 659 2398 297 conicto
2108 -64 1645 -64 conicto
1366 -64 1164 46 conicto
963 156 832 384 conicto
2240 1249 moveto
2240 1713 2052 1976 conicto
1865 2240 1536 2240 conicto
1208 2240 1020 1976 conicto
832 1713 832 1249 conicto
832 784 1020 520 conicto
1208 256 1536 256 conicto
1865 256 2052 520 conicto
2240 784 2240 1249 conicto
end_ol grestore 
gsave 10.123700 24.250000 translate 0.035278 -0.035278 scale
start_ol
832 384 moveto
832 -960 lineto
448 -960 lineto
448 2496 lineto
832 2496 lineto
832 2112 lineto
963 2340 1164 2450 conicto
1366 2560 1645 2560 conicto
2108 2560 2398 2198 conicto
2688 1837 2688 1248 conicto
2688 659 2398 297 conicto
2108 -64 1645 -64 conicto
1366 -64 1164 46 conicto
963 156 832 384 conicto
2240 1249 moveto
2240 1713 2052 1976 conicto
1865 2240 1536 2240 conicto
1208 2240 1020 1976 conicto
832 1713 832 1249 conicto
832 784 1020 520 conicto
1208 256 1536 256 conicto
1865 256 2052 520 conicto
2240 784 2240 1249 conicto
end_ol grestore 
gsave 10.513167 24.250000 translate 0.035278 -0.035278 scale
start_ol
448 3520 moveto
832 3520 lineto
832 0 lineto
448 0 lineto
448 3520 lineto
end_ol grestore 
gsave 10.682500 24.250000 translate 0.035278 -0.035278 scale
start_ol
448 2496 moveto
832 2496 lineto
832 0 lineto
448 0 lineto
448 2496 lineto
448 3520 moveto
832 3520 lineto
832 3008 lineto
448 3008 lineto
448 3520 lineto
end_ol grestore 
gsave 10.851833 24.250000 translate 0.035278 -0.035278 scale
start_ol
2240 2432 moveto
2240 2048 lineto
2066 2144 1892 2192 conicto
1718 2240 1541 2240 conicto
1143 2240 923 1979 conicto
704 1718 704 1248 conicto
704 778 923 517 conicto
1143 256 1541 256 conicto
1718 256 1892 304 conicto
2066 352 2240 448 conicto
2240 64 lineto
2068 0 1883 -32 conicto
1698 -64 1490 -64 conicto
924 -64 590 290 conicto
256 645 256 1248 conicto
256 1859 593 2209 conicto
931 2560 1517 2560 conicto
1707 2560 1888 2528 conicto
2070 2496 2240 2432 conicto
end_ol grestore 
gsave 11.190500 24.250000 translate 0.035278 -0.035278 scale
start_ol
1559 1280 moveto
1040 1280 840 1160 conicto
640 1041 640 754 conicto
640 525 790 390 conicto
940 256 1198 256 conicto
1554 256 1769 510 conicto
1984 765 1984 1187 conicto
1984 1280 lineto
1559 1280 lineto
2368 1449 moveto
2368 0 lineto
1984 0 lineto
1984 384 lineto
1842 154 1628 45 conicto
1415 -64 1107 -64 conicto
717 -64 486 154 conicto
256 372 256 739 conicto
256 1166 539 1383 conicto
822 1600 1384 1600 conicto
1984 1600 lineto
1984 1641 lineto
1984 1927 1796 2083 conicto
1608 2240 1266 2240 conicto
1049 2240 843 2192 conicto
638 2144 448 2048 conicto
448 2432 lineto
673 2496 884 2528 conicto
1095 2560 1295 2560 conicto
1835 2560 2101 2284 conicto
2368 2009 2368 1449 conicto
end_ol grestore 
gsave 11.563033 24.250000 translate 0.035278 -0.035278 scale
start_ol
832 3200 moveto
832 2496 lineto
1664 2496 lineto
1664 2176 lineto
832 2176 lineto
832 804 lineto
832 495 914 407 conicto
997 320 1248 320 conicto
1664 320 lineto
1664 0 lineto
1248 0 lineto
793 0 620 173 conicto
448 347 448 804 conicto
448 2176 lineto
128 2176 lineto
128 2496 lineto
448 2496 lineto
448 3200 lineto
832 3200 lineto
end_ol grestore 
gsave 11.800100 24.250000 translate 0.035278 -0.035278 scale
start_ol
448 2496 moveto
832 2496 lineto
832 0 lineto
448 0 lineto
448 2496 lineto
448 3520 moveto
832 3520 lineto
832 3008 lineto
448 3008 lineto
448 3520 lineto
end_ol grestore 
gsave 11.969433 24.250000 translate 0.035278 -0.035278 scale
start_ol
1409 2240 moveto
1083 2240 893 1974 conicto
704 1709 704 1248 conicto
704 787 892 521 conicto
1081 256 1409 256 conicto
1733 256 1922 522 conicto
2112 789 2112 1248 conicto
2112 1705 1922 1972 conicto
1733 2240 1409 2240 conicto
1408 2560 moveto
1946 2560 2253 2212 conicto
2560 1864 2560 1248 conicto
2560 634 2253 285 conicto
1946 -64 1408 -64 conicto
869 -64 562 285 conicto
256 634 256 1248 conicto
256 1864 562 2212 conicto
869 2560 1408 2560 conicto
end_ol grestore 
gsave 12.341967 24.250000 translate 0.035278 -0.035278 scale
start_ol
2560 1509 moveto
2560 0 lineto
2176 0 lineto
2176 1496 lineto
2176 1869 2029 2054 conicto
1883 2240 1590 2240 conicto
1238 2240 1035 2018 conicto
832 1796 832 1413 conicto
832 0 lineto
448 0 lineto
448 2496 lineto
832 2496 lineto
832 2112 lineto
983 2337 1188 2448 conicto
1394 2560 1662 2560 conicto
2106 2560 2333 2293 conicto
2560 2027 2560 1509 conicto
end_ol grestore 
gsave 5.568200 15.000000 translate 0.035278 -0.035278 scale
start_ol
1664 3520 moveto
1664 3200 lineto
1305 3200 lineto
1075 3200 985 3100 conicto
896 3001 896 2742 conicto
896 2496 lineto
1600 2496 lineto
1600 2176 lineto
896 2176 lineto
896 0 lineto
512 0 lineto
512 2176 lineto
128 2176 lineto
128 2496 lineto
512 2496 lineto
512 2691 lineto
512 3124 703 3322 conicto
894 3520 1310 3520 conicto
1664 3520 lineto
end_ol grestore 
gsave 5.779867 15.000000 translate 0.035278 -0.035278 scale
start_ol
1559 1280 moveto
1040 1280 840 1160 conicto
640 1041 640 754 conicto
640 525 790 390 conicto
940 256 1198 256 conicto
1554 256 1769 510 conicto
1984 765 1984 1187 conicto
1984 1280 lineto
1559 1280 lineto
2368 1449 moveto
2368 0 lineto
1984 0 lineto
1984 384 lineto
1842 154 1628 45 conicto
1415 -64 1107 -64 conicto
717 -64 486 154 conicto
256 372 256 739 conicto
256 1166 539 1383 conicto
822 1600 1384 1600 conicto
1984 1600 lineto
1984 1641 lineto
1984 1927 1796 2083 conicto
1608 2240 1266 2240 conicto
1049 2240 843 2192 conicto
638 2144 448 2048 conicto
448 2432 lineto
673 2496 884 2528 conicto
1095 2560 1295 2560 conicto
1835 2560 2101 2284 conicto
2368 2009 2368 1449 conicto
end_ol grestore 
gsave 6.152400 15.000000 translate 0.035278 -0.035278 scale
start_ol
448 2496 moveto
832 2496 lineto
832 0 lineto
448 0 lineto
448 2496 lineto
448 3520 moveto
832 3520 lineto
832 3008 lineto
448 3008 lineto
448 3520 lineto
end_ol grestore 
gsave 6.321733 15.000000 translate 0.035278 -0.035278 scale
start_ol
448 3520 moveto
832 3520 lineto
832 0 lineto
448 0 lineto
448 3520 lineto
end_ol grestore 
gsave 11.718200 13.775010 translate 0.035278 -0.035278 scale
start_ol
1664 3520 moveto
1664 3200 lineto
1305 3200 lineto
1075 3200 985 3100 conicto
896 3001 896 2742 conicto
896 2496 lineto
1600 2496 lineto
1600 2176 lineto
896 2176 lineto
896 0 lineto
512 0 lineto
512 2176 lineto
128 2176 lineto
128 2496 lineto
512 2496 lineto
512 2691 lineto
512 3124 703 3322 conicto
894 3520 1310 3520 conicto
1664 3520 lineto
end_ol grestore 
gsave 11.929867 13.775010 translate 0.035278 -0.035278 scale
start_ol
1559 1280 moveto
1040 1280 840 1160 conicto
640 1041 640 754 conicto
640 525 790 390 conicto
940 256 1198 256 conicto
1554 256 1769 510 conicto
1984 765 1984 1187 conicto
1984 1280 lineto
1559 1280 lineto
2368 1449 moveto
2368 0 lineto
1984 0 lineto
1984 384 lineto
1842 154 1628 45 conicto
1415 -64 1107 -64 conicto
717 -64 486 154 conicto
256 372 256 739 conicto
256 1166 539 1383 conicto
822 1600 1384 1600 conicto
1984 1600 lineto
1984 1641 lineto
1984 1927 1796 2083 conicto
1608 2240 1266 2240 conicto
1049 2240 843 2192 conicto
638 2144 448 2048 conicto
448 2432 lineto
673 2496 884 2528 conicto
1095 2560 1295 2560 conicto
1835 2560 2101 2284 conicto
2368 2009 2368 1449 conicto
end_ol grestore 
gsave 12.302400 13.775010 translate 0.035278 -0.035278 scale
start_ol
448 2496 moveto
832 2496 lineto
832 0 lineto
448 0 lineto
448 2496 lineto
448 3520 moveto
832 3520 lineto
832 3008 lineto
448 3008 lineto
448 3520 lineto
end_ol grestore 
gsave 12.471733 13.775010 translate 0.035278 -0.035278 scale
start_ol
448 3520 moveto
832 3520 lineto
832 0 lineto
448 0 lineto
448 3520 lineto
end_ol grestore 
gsave 5.568200 7.000000 translate 0.035278 -0.035278 scale
start_ol
1664 3520 moveto
1664 3200 lineto
1305 3200 lineto
1075 3200 985 3100 conicto
896 3001 896 2742 conicto
896 2496 lineto
1600 2496 lineto
1600 2176 lineto
896 2176 lineto
896 0 lineto
512 0 lineto
512 2176 lineto
128 2176 lineto
128 2496 lineto
512 2496 lineto
512 2691 lineto
512 3124 703 3322 conicto
894 3520 1310 3520 conicto
1664 3520 lineto
end_ol grestore 
gsave 5.779867 7.000000 translate 0.035278 -0.035278 scale
start_ol
1559 1280 moveto
1040 1280 840 1160 conicto
640 1041 640 754 conicto
640 525 790 390 conicto
940 256 1198 256 conicto
1554 256 1769 510 conicto
1984 765 1984 1187 conicto
1984 1280 lineto
1559 1280 lineto
2368 1449 moveto
2368 0 lineto
1984 0 lineto
1984 384 lineto
1842 154 1628 45 conicto
1415 -64 1107 -64 conicto
717 -64 486 154 conicto
256 372 256 739 conicto
256 1166 539 1383 conicto
822 1600 1384 1600 conicto
1984 1600 lineto
1984 1641 lineto
1984 1927 1796 2083 conicto
1608 2240 1266 2240 conicto
1049 2240 843 2192 conicto
638 2144 448 2048 conicto
448 2432 lineto
673 2496 884 2528 conicto
1095 2560 1295 2560 conicto
1835 2560 2101 2284 conicto
2368 2009 2368 1449 conicto
end_ol grestore 
gsave 6.152400 7.000000 translate 0.035278 -0.035278 scale
start_ol
448 2496 moveto
832 2496 lineto
832 0 lineto
448 0 lineto
448 2496 lineto
448 3520 moveto
832 3520 lineto
832 3008 lineto
448 3008 lineto
448 3520 lineto
end_ol grestore 
gsave 6.321733 7.000000 translate 0.035278 -0.035278 scale
start_ol
448 3520 moveto
832 3520 lineto
832 0 lineto
448 0 lineto
448 3520 lineto
end_ol grestore 
0.050000 slw
[] 0 sd
[] 0 sd
0 slc
n 5.480866 15.480532 m 7.000000 15.500000 l s
[] 0 sd
0 slj
0 slc
n 5.105897 15.475726 m 5.609060 15.232154 l 5.480866 15.480532 l 5.602652 15.732113 l f
n 5.105897 15.475726 m 5.609060 15.232154 l 5.480866 15.480532 l 5.602652 15.732113 l cp s
gsave 11.664667 9.675010 translate 0.035278 -0.035278 scale
start_ol
2048 2432 moveto
2048 2048 lineto
1868 2144 1674 2192 conicto
1480 2240 1273 2240 conicto
957 2240 798 2144 conicto
640 2048 640 1856 conicto
640 1709 757 1625 conicto
875 1542 1229 1467 conicto
1380 1435 lineto
1812 1341 1994 1170 conicto
2176 999 2176 692 conicto
2176 343 1899 139 conicto
1622 -64 1137 -64 conicto
936 -64 717 -32 conicto
498 0 256 64 conicto
256 512 lineto
490 385 718 320 conicto
947 256 1170 256 conicto
1470 256 1631 358 conicto
1792 461 1792 647 conicto
1792 820 1670 912 conicto
1549 1004 1141 1089 conicto
988 1123 lineto
600 1203 428 1369 conicto
256 1535 256 1824 conicto
256 2177 510 2368 conicto
765 2560 1233 2560 conicto
1466 2560 1670 2528 conicto
1875 2496 2048 2432 conicto
end_ol grestore 
gsave 11.986400 9.675010 translate 0.035278 -0.035278 scale
start_ol
448 986 moveto
448 2496 lineto
832 2496 lineto
832 1001 lineto
832 629 978 442 conicto
1124 256 1417 256 conicto
1768 256 1972 477 conicto
2176 699 2176 1081 conicto
2176 2496 lineto
2560 2496 lineto
2560 0 lineto
2176 0 lineto
2176 384 lineto
2022 157 1819 46 conicto
1617 -64 1349 -64 conicto
906 -64 677 203 conicto
448 471 448 986 conicto
end_ol grestore 
gsave 12.375867 9.675010 translate 0.035278 -0.035278 scale
start_ol
2240 2432 moveto
2240 2048 lineto
2066 2144 1892 2192 conicto
1718 2240 1541 2240 conicto
1143 2240 923 1979 conicto
704 1718 704 1248 conicto
704 778 923 517 conicto
1143 256 1541 256 conicto
1718 256 1892 304 conicto
2066 352 2240 448 conicto
2240 64 lineto
2068 0 1883 -32 conicto
1698 -64 1490 -64 conicto
924 -64 590 290 conicto
256 645 256 1248 conicto
256 1859 593 2209 conicto
931 2560 1517 2560 conicto
1707 2560 1888 2528 conicto
2070 2496 2240 2432 conicto
end_ol grestore 
gsave 12.714533 9.675010 translate 0.035278 -0.035278 scale
start_ol
2240 2432 moveto
2240 2048 lineto
2066 2144 1892 2192 conicto
1718 2240 1541 2240 conicto
1143 2240 923 1979 conicto
704 1718 704 1248 conicto
704 778 923 517 conicto
1143 256 1541 256 conicto
1718 256 1892 304 conicto
2066 352 2240 448 conicto
2240 64 lineto
2068 0 1883 -32 conicto
1698 -64 1490 -64 conicto
924 -64 590 290 conicto
256 645 256 1248 conicto
256 1859 593 2209 conicto
931 2560 1517 2560 conicto
1707 2560 1888 2528 conicto
2070 2496 2240 2432 conicto
end_ol grestore 
gsave 13.053200 9.675010 translate 0.035278 -0.035278 scale
start_ol
2624 1352 moveto
2624 1152 lineto
704 1152 lineto
731 715 960 485 conicto
1189 256 1597 256 conicto
1834 256 2056 320 conicto
2278 384 2496 512 conicto
2496 128 lineto
2273 34 2039 -15 conicto
1805 -64 1565 -64 conicto
961 -64 608 284 conicto
256 632 256 1225 conicto
256 1839 595 2199 conicto
934 2560 1509 2560 conicto
2024 2560 2324 2235 conicto
2624 1910 2624 1352 conicto
2240 1472 moveto
2235 1822 2043 2031 conicto
1852 2240 1537 2240 conicto
1180 2240 965 2038 conicto
750 1836 718 1470 conicto
2240 1472 lineto
end_ol grestore 
gsave 13.425733 9.675010 translate 0.035278 -0.035278 scale
start_ol
2048 2432 moveto
2048 2048 lineto
1868 2144 1674 2192 conicto
1480 2240 1273 2240 conicto
957 2240 798 2144 conicto
640 2048 640 1856 conicto
640 1709 757 1625 conicto
875 1542 1229 1467 conicto
1380 1435 lineto
1812 1341 1994 1170 conicto
2176 999 2176 692 conicto
2176 343 1899 139 conicto
1622 -64 1137 -64 conicto
936 -64 717 -32 conicto
498 0 256 64 conicto
256 512 lineto
490 385 718 320 conicto
947 256 1170 256 conicto
1470 256 1631 358 conicto
1792 461 1792 647 conicto
1792 820 1670 912 conicto
1549 1004 1141 1089 conicto
988 1123 lineto
600 1203 428 1369 conicto
256 1535 256 1824 conicto
256 2177 510 2368 conicto
765 2560 1233 2560 conicto
1466 2560 1670 2528 conicto
1875 2496 2048 2432 conicto
end_ol grestore 
gsave 13.747467 9.675010 translate 0.035278 -0.035278 scale
start_ol
2048 2432 moveto
2048 2048 lineto
1868 2144 1674 2192 conicto
1480 2240 1273 2240 conicto
957 2240 798 2144 conicto
640 2048 640 1856 conicto
640 1709 757 1625 conicto
875 1542 1229 1467 conicto
1380 1435 lineto
1812 1341 1994 1170 conicto
2176 999 2176 692 conicto
2176 343 1899 139 conicto
1622 -64 1137 -64 conicto
936 -64 717 -32 conicto
498 0 256 64 conicto
256 512 lineto
490 385 718 320 conicto
947 256 1170 256 conicto
1470 256 1631 358 conicto
1792 461 1792 647 conicto
1792 820 1670 912 conicto
1549 1004 1141 1089 conicto
988 1123 lineto
600 1203 428 1369 conicto
256 1535 256 1824 conicto
256 2177 510 2368 conicto
765 2560 1233 2560 conicto
1466 2560 1670 2528 conicto
1875 2496 2048 2432 conicto
end_ol grestore 
gsave 13.364667 12.825010 translate 0.035278 -0.035278 scale
start_ol
2048 2432 moveto
2048 2048 lineto
1868 2144 1674 2192 conicto
1480 2240 1273 2240 conicto
957 2240 798 2144 conicto
640 2048 640 1856 conicto
640 1709 757 1625 conicto
875 1542 1229 1467 conicto
1380 1435 lineto
1812 1341 1994 1170 conicto
2176 999 2176 692 conicto
2176 343 1899 139 conicto
1622 -64 1137 -64 conicto
936 -64 717 -32 conicto
498 0 256 64 conicto
256 512 lineto
490 385 718 320 conicto
947 256 1170 256 conicto
1470 256 1631 358 conicto
1792 461 1792 647 conicto
1792 820 1670 912 conicto
1549 1004 1141 1089 conicto
988 1123 lineto
600 1203 428 1369 conicto
256 1535 256 1824 conicto
256 2177 510 2368 conicto
765 2560 1233 2560 conicto
1466 2560 1670 2528 conicto
1875 2496 2048 2432 conicto
end_ol grestore 
gsave 13.686400 12.825010 translate 0.035278 -0.035278 scale
start_ol
448 986 moveto
448 2496 lineto
832 2496 lineto
832 1001 lineto
832 629 978 442 conicto
1124 256 1417 256 conicto
1768 256 1972 477 conicto
2176 699 2176 1081 conicto
2176 2496 lineto
2560 2496 lineto
2560 0 lineto
2176 0 lineto
2176 384 lineto
2022 157 1819 46 conicto
1617 -64 1349 -64 conicto
906 -64 677 203 conicto
448 471 448 986 conicto
end_ol grestore 
gsave 14.075867 12.825010 translate 0.035278 -0.035278 scale
start_ol
2240 2432 moveto
2240 2048 lineto
2066 2144 1892 2192 conicto
1718 2240 1541 2240 conicto
1143 2240 923 1979 conicto
704 1718 704 1248 conicto
704 778 923 517 conicto
1143 256 1541 256 conicto
1718 256 1892 304 conicto
2066 352 2240 448 conicto
2240 64 lineto
2068 0 1883 -32 conicto
1698 -64 1490 -64 conicto
924 -64 590 290 conicto
256 645 256 1248 conicto
256 1859 593 2209 conicto
931 2560 1517 2560 conicto
1707 2560 1888 2528 conicto
2070 2496 2240 2432 conicto
end_ol grestore 
gsave 14.414533 12.825010 translate 0.035278 -0.035278 scale
start_ol
2240 2432 moveto
2240 2048 lineto
2066 2144 1892 2192 conicto
1718 2240 1541 2240 conicto
1143 2240 923 1979 conicto
704 1718 704 1248 conicto
704 778 923 517 conicto
1143 256 1541 256 conicto
1718 256 1892 304 conicto
2066 352 2240 448 conicto
2240 64 lineto
2068 0 1883 -32 conicto
1698 -64 1490 -64 conicto
924 -64 590 290 conicto
256 645 256 1248 conicto
256 1859 593 2209 conicto
931 2560 1517 2560 conicto
1707 2560 1888 2528 conicto
2070 2496 2240 2432 conicto
end_ol grestore 
gsave 14.753200 12.825010 translate 0.035278 -0.035278 scale
start_ol
2624 1352 moveto
2624 1152 lineto
704 1152 lineto
731 715 960 485 conicto
1189 256 1597 256 conicto
1834 256 2056 320 conicto
2278 384 2496 512 conicto
2496 128 lineto
2273 34 2039 -15 conicto
1805 -64 1565 -64 conicto
961 -64 608 284 conicto
256 632 256 1225 conicto
256 1839 595 2199 conicto
934 2560 1509 2560 conicto
2024 2560 2324 2235 conicto
2624 1910 2624 1352 conicto
2240 1472 moveto
2235 1822 2043 2031 conicto
1852 2240 1537 2240 conicto
1180 2240 965 2038 conicto
750 1836 718 1470 conicto
2240 1472 lineto
end_ol grestore 
gsave 15.125733 12.825010 translate 0.035278 -0.035278 scale
start_ol
2048 2432 moveto
2048 2048 lineto
1868 2144 1674 2192 conicto
1480 2240 1273 2240 conicto
957 2240 798 2144 conicto
640 2048 640 1856 conicto
640 1709 757 1625 conicto
875 1542 1229 1467 conicto
1380 1435 lineto
1812 1341 1994 1170 conicto
2176 999 2176 692 conicto
2176 343 1899 139 conicto
1622 -64 1137 -64 conicto
936 -64 717 -32 conicto
498 0 256 64 conicto
256 512 lineto
490 385 718 320 conicto
947 256 1170 256 conicto
1470 256 1631 358 conicto
1792 461 1792 647 conicto
1792 820 1670 912 conicto
1549 1004 1141 1089 conicto
988 1123 lineto
600 1203 428 1369 conicto
256 1535 256 1824 conicto
256 2177 510 2368 conicto
765 2560 1233 2560 conicto
1466 2560 1670 2528 conicto
1875 2496 2048 2432 conicto
end_ol grestore 
gsave 15.447467 12.825010 translate 0.035278 -0.035278 scale
start_ol
2048 2432 moveto
2048 2048 lineto
1868 2144 1674 2192 conicto
1480 2240 1273 2240 conicto
957 2240 798 2144 conicto
640 2048 640 1856 conicto
640 1709 757 1625 conicto
875 1542 1229 1467 conicto
1380 1435 lineto
1812 1341 1994 1170 conicto
2176 999 2176 692 conicto
2176 343 1899 139 conicto
1622 -64 1137 -64 conicto
936 -64 717 -32 conicto
498 0 256 64 conicto
256 512 lineto
490 385 718 320 conicto
947 256 1170 256 conicto
1470 256 1631 358 conicto
1792 461 1792 647 conicto
1792 820 1670 912 conicto
1549 1004 1141 1089 conicto
988 1123 lineto
600 1203 428 1369 conicto
256 1535 256 1824 conicto
256 2177 510 2368 conicto
765 2560 1233 2560 conicto
1466 2560 1670 2528 conicto
1875 2496 2048 2432 conicto
end_ol grestore 
gsave 11.764667 17.675010 translate 0.035278 -0.035278 scale
start_ol
2048 2432 moveto
2048 2048 lineto
1868 2144 1674 2192 conicto
1480 2240 1273 2240 conicto
957 2240 798 2144 conicto
640 2048 640 1856 conicto
640 1709 757 1625 conicto
875 1542 1229 1467 conicto
1380 1435 lineto
1812 1341 1994 1170 conicto
2176 999 2176 692 conicto
2176 343 1899 139 conicto
1622 -64 1137 -64 conicto
936 -64 717 -32 conicto
498 0 256 64 conicto
256 512 lineto
490 385 718 320 conicto
947 256 1170 256 conicto
1470 256 1631 358 conicto
1792 461 1792 647 conicto
1792 820 1670 912 conicto
1549 1004 1141 1089 conicto
988 1123 lineto
600 1203 428 1369 conicto
256 1535 256 1824 conicto
256 2177 510 2368 conicto
765 2560 1233 2560 conicto
1466 2560 1670 2528 conicto
1875 2496 2048 2432 conicto
end_ol grestore 
gsave 12.086400 17.675010 translate 0.035278 -0.035278 scale
start_ol
448 986 moveto
448 2496 lineto
832 2496 lineto
832 1001 lineto
832 629 978 442 conicto
1124 256 1417 256 conicto
1768 256 1972 477 conicto
2176 699 2176 1081 conicto
2176 2496 lineto
2560 2496 lineto
2560 0 lineto
2176 0 lineto
2176 384 lineto
2022 157 1819 46 conicto
1617 -64 1349 -64 conicto
906 -64 677 203 conicto
448 471 448 986 conicto
end_ol grestore 
gsave 12.475867 17.675010 translate 0.035278 -0.035278 scale
start_ol
2240 2432 moveto
2240 2048 lineto
2066 2144 1892 2192 conicto
1718 2240 1541 2240 conicto
1143 2240 923 1979 conicto
704 1718 704 1248 conicto
704 778 923 517 conicto
1143 256 1541 256 conicto
1718 256 1892 304 conicto
2066 352 2240 448 conicto
2240 64 lineto
2068 0 1883 -32 conicto
1698 -64 1490 -64 conicto
924 -64 590 290 conicto
256 645 256 1248 conicto
256 1859 593 2209 conicto
931 2560 1517 2560 conicto
1707 2560 1888 2528 conicto
2070 2496 2240 2432 conicto
end_ol grestore 
gsave 12.814533 17.675010 translate 0.035278 -0.035278 scale
start_ol
2240 2432 moveto
2240 2048 lineto
2066 2144 1892 2192 conicto
1718 2240 1541 2240 conicto
1143 2240 923 1979 conicto
704 1718 704 1248 conicto
704 778 923 517 conicto
1143 256 1541 256 conicto
1718 256 1892 304 conicto
2066 352 2240 448 conicto
2240 64 lineto
2068 0 1883 -32 conicto
1698 -64 1490 -64 conicto
924 -64 590 290 conicto
256 645 256 1248 conicto
256 1859 593 2209 conicto
931 2560 1517 2560 conicto
1707 2560 1888 2528 conicto
2070 2496 2240 2432 conicto
end_ol grestore 
gsave 13.153200 17.675010 translate 0.035278 -0.035278 scale
start_ol
2624 1352 moveto
2624 1152 lineto
704 1152 lineto
731 715 960 485 conicto
1189 256 1597 256 conicto
1834 256 2056 320 conicto
2278 384 2496 512 conicto
2496 128 lineto
2273 34 2039 -15 conicto
1805 -64 1565 -64 conicto
961 -64 608 284 conicto
256 632 256 1225 conicto
256 1839 595 2199 conicto
934 2560 1509 2560 conicto
2024 2560 2324 2235 conicto
2624 1910 2624 1352 conicto
2240 1472 moveto
2235 1822 2043 2031 conicto
1852 2240 1537 2240 conicto
1180 2240 965 2038 conicto
750 1836 718 1470 conicto
2240 1472 lineto
end_ol grestore 
gsave 13.525733 17.675010 translate 0.035278 -0.035278 scale
start_ol
2048 2432 moveto
2048 2048 lineto
1868 2144 1674 2192 conicto
1480 2240 1273 2240 conicto
957 2240 798 2144 conicto
640 2048 640 1856 conicto
640 1709 757 1625 conicto
875 1542 1229 1467 conicto
1380 1435 lineto
1812 1341 1994 1170 conicto
2176 999 2176 692 conicto
2176 343 1899 139 conicto
1622 -64 1137 -64 conicto
936 -64 717 -32 conicto
498 0 256 64 conicto
256 512 lineto
490 385 718 320 conicto
947 256 1170 256 conicto
1470 256 1631 358 conicto
1792 461 1792 647 conicto
1792 820 1670 912 conicto
1549 1004 1141 1089 conicto
988 1123 lineto
600 1203 428 1369 conicto
256 1535 256 1824 conicto
256 2177 510 2368 conicto
765 2560 1233 2560 conicto
1466 2560 1670 2528 conicto
1875 2496 2048 2432 conicto
end_ol grestore 
gsave 13.847467 17.675010 translate 0.035278 -0.035278 scale
start_ol
2048 2432 moveto
2048 2048 lineto
1868 2144 1674 2192 conicto
1480 2240 1273 2240 conicto
957 2240 798 2144 conicto
640 2048 640 1856 conicto
640 1709 757 1625 conicto
875 1542 1229 1467 conicto
1380 1435 lineto
1812 1341 1994 1170 conicto
2176 999 2176 692 conicto
2176 343 1899 139 conicto
1622 -64 1137 -64 conicto
936 -64 717 -32 conicto
498 0 256 64 conicto
256 512 lineto
490 385 718 320 conicto
947 256 1170 256 conicto
1470 256 1631 358 conicto
1792 461 1792 647 conicto
1792 820 1670 912 conicto
1549 1004 1141 1089 conicto
988 1123 lineto
600 1203 428 1369 conicto
256 1535 256 1824 conicto
256 2177 510 2368 conicto
765 2560 1233 2560 conicto
1466 2560 1670 2528 conicto
1875 2496 2048 2432 conicto
end_ol grestore 
0.050000 slw
[] 0 sd
[] 0 sd
0 slj
0 slc
n 11.430902 21.925042 m 16.000000 21.925042 l 16.000000 11.486518 l 15.000000 11.486518 l s
[] 0 sd
0 slj
0 slc
n 11.055902 21.925042 m 11.555902 21.675042 l 11.430902 21.925042 l 11.555902 22.175042 l f
n 11.055902 21.925042 m 11.555902 21.675042 l 11.430902 21.925042 l 11.555902 22.175042 l cp s
0.100000 slw
[] 0 sd
[] 0 sd
0 slc
n 11.000000 13.513197 m 11.000000 13.000000 l s
[] 0 sd
0 slj
0 slc
n 11.000000 13.888197 m 10.750000 13.388197 l 11.000000 13.513197 l 11.250000 13.388197 l f
n 11.000000 13.888197 m 10.750000 13.388197 l 11.000000 13.513197 l 11.250000 13.388197 l cp s
showpage
