%!PS-Adobe-2.0 EPSF-2.0
%%Title: /home/dirk/SharedFiles/skripten/linuxskript_module/Linux_im_Netzwerk/bilder/2-GW.dia
%%Creator: Dia v0.93
%%CreationDate: Wed Apr  6 13:58:59 2005
%%For: dirk
%%Orientation: Portrait
%%Magnification: 1.0000
%%BoundingBox: 0 0 616 477
%%BeginSetup
%%EndSetup
%%EndComments
%%BeginProlog
[ /.notdef /.notdef /.notdef /.notdef /.notdef /.notdef /.notdef /.notdef /.notdef /.notdef
/.notdef /.notdef /.notdef /.notdef /.notdef /.notdef /.notdef /.notdef /.notdef /.notdef
/.notdef /.notdef /.notdef /.notdef /.notdef /.notdef /.notdef /.notdef /.notdef /.notdef
/.notdef /.notdef /space /exclam /quotedbl /numbersign /dollar /percent /ampersand /quoteright
/parenleft /parenright /asterisk /plus /comma /hyphen /period /slash /zero /one
/two /three /four /five /six /seven /eight /nine /colon /semicolon
/less /equal /greater /question /at /A /B /C /D /E
/F /G /H /I /J /K /L /M /N /O
/P /Q /R /S /T /U /V /W /X /Y
/Z /bracketleft /backslash /bracketright /asciicircum /underscore /quoteleft /a /b /c
/d /e /f /g /h /i /j /k /l /m
/n /o /p /q /r /s /t /u /v /w
/x /y /z /braceleft /bar /braceright /asciitilde /.notdef /.notdef /.notdef
/.notdef /.notdef /.notdef /.notdef /.notdef /.notdef /.notdef /.notdef /.notdef /.notdef
/.notdef /.notdef /.notdef /.notdef /.notdef /.notdef /.notdef /.notdef /.notdef /.notdef
/.notdef /.notdef /.notdef /.notdef /.notdef /.notdef /.notdef /.notdef /.notdef /.notdef
/space /exclamdown /cent /sterling /currency /yen /brokenbar /section /dieresis /copyright
/ordfeminine /guillemotleft /logicalnot /hyphen /registered /macron /degree /plusminus /twosuperior /threesuperior
/acute /mu /paragraph /periodcentered /cedilla /onesuperior /ordmasculine /guillemotright /onequarter /onehalf
/threequarters /questiondown /Agrave /Aacute /Acircumflex /Atilde /Adieresis /Aring /AE /Ccedilla
/Egrave /Eacute /Ecircumflex /Edieresis /Igrave /Iacute /Icircumflex /Idieresis /Eth /Ntilde
/Ograve /Oacute /Ocircumflex /Otilde /Odieresis /multiply /Oslash /Ugrave /Uacute /Ucircumflex
/Udieresis /Yacute /Thorn /germandbls /agrave /aacute /acircumflex /atilde /adieresis /aring
/ae /ccedilla /egrave /eacute /ecircumflex /edieresis /igrave /iacute /icircumflex /idieresis
/eth /ntilde /ograve /oacute /ocircumflex /otilde /odieresis /divide /oslash /ugrave
/uacute /ucircumflex /udieresis /yacute /thorn /ydieresis] /isolatin1encoding exch def
/cp {closepath} bind def
/c {curveto} bind def
/f {fill} bind def
/a {arc} bind def
/ef {eofill} bind def
/ex {exch} bind def
/gr {grestore} bind def
/gs {gsave} bind def
/sa {save} bind def
/rs {restore} bind def
/l {lineto} bind def
/m {moveto} bind def
/rm {rmoveto} bind def
/n {newpath} bind def
/s {stroke} bind def
/sh {show} bind def
/slc {setlinecap} bind def
/slj {setlinejoin} bind def
/slw {setlinewidth} bind def
/srgb {setrgbcolor} bind def
/rot {rotate} bind def
/sc {scale} bind def
/sd {setdash} bind def
/ff {findfont} bind def
/sf {setfont} bind def
/scf {scalefont} bind def
/sw {stringwidth pop} bind def
/tr {translate} bind def

/ellipsedict 8 dict def
ellipsedict /mtrx matrix put
/ellipse
{ ellipsedict begin
   /endangle exch def
   /startangle exch def
   /yrad exch def
   /xrad exch def
   /y exch def
   /x exch def   /savematrix mtrx currentmatrix def
   x y tr xrad yrad sc
   0 0 1 startangle endangle arc
   savematrix setmatrix
   end
} def

/mergeprocs {
dup length
3 -1 roll
dup
length
dup
5 1 roll
3 -1 roll
add
array cvx
dup
3 -1 roll
0 exch
putinterval
dup
4 2 roll
putinterval
} bind def
/dpi_x 300 def
/dpi_y 300 def
/conicto {
    /to_y exch def
    /to_x exch def
    /conic_cntrl_y exch def
    /conic_cntrl_x exch def
    currentpoint
    /p0_y exch def
    /p0_x exch def
    /p1_x p0_x conic_cntrl_x p0_x sub 2 3 div mul add def
    /p1_y p0_y conic_cntrl_y p0_y sub 2 3 div mul add def
    /p2_x p1_x to_x p0_x sub 1 3 div mul add def
    /p2_y p1_y to_y p0_y sub 1 3 div mul add def
    p1_x p1_y p2_x p2_y to_x to_y curveto
} bind def
/start_ol { gsave 1.1 dpi_x div dup scale} bind def
/end_ol { closepath fill grestore } bind def
28.346000 -28.346000 scale
-1.128220 -19.452582 translate
%%EndProlog


0.100000 slw
[] 0 sd
[] 0 sd
0 slc
0 slj
0 slc
0 slj
[] 0 sd
1.000000 1.000000 1.000000 srgb
n 13.821170 16.004482 m 12.916831 15.988062 11.162963 16.332873 11.409601 17.071753 c 11.656237 17.810633 12.834618 17.974822 13.327894 17.761374 c 13.821170 17.547920 12.560576 18.795799 14.972147 19.124191 c 17.383697 19.452582 18.616887 18.927156 18.260632 18.549506 c 17.904377 18.171856 20.370757 19.436162 21.521734 18.713702 c 22.672711 17.991241 20.343353 17.301627 20.836629 17.400144 c 21.329905 17.498661 22.837137 17.367305 22.343861 16.135838 c 21.850585 14.904371 17.411101 15.856706 17.904377 15.676091 c 18.397653 15.495475 17.164463 14.592398 15.629849 14.773013 c 14.095212 14.953630 13.986363 15.281381 13.821937 16.003841 c 13.821170 16.004482 l f
0.000000 0.000000 0.000000 srgb
n 13.821170 16.004482 m 12.916831 15.988062 11.162963 16.332873 11.409601 17.071753 c 11.656237 17.810633 12.834618 17.974822 13.327894 17.761374 c 13.821170 17.547920 12.560576 18.795799 14.972147 19.124191 c 17.383697 19.452582 18.616887 18.927156 18.260632 18.549506 c 17.904377 18.171856 20.370757 19.436162 21.521734 18.713702 c 22.672711 17.991241 20.343353 17.301627 20.836629 17.400144 c 21.329905 17.498661 22.837137 17.367305 22.343861 16.135838 c 21.850585 14.904371 17.411101 15.856706 17.904377 15.676091 c 18.397653 15.495475 17.164463 14.592398 15.629849 14.773013 c 14.095212 14.953630 13.986363 15.281381 13.821937 16.003841 c 13.821170 16.004482 l s
gsave 15.551927 16.908165 translate 0.035278 -0.035278 scale
start_ol
448 3328 moveto
2368 3328 lineto
2368 2944 lineto
896 2944 lineto
896 1984 lineto
2240 1984 lineto
2240 1600 lineto
896 1600 lineto
896 0 lineto
448 0 lineto
448 3328 lineto
end_ol grestore 
gsave 15.856727 16.908165 translate 0.035278 -0.035278 scale
start_ol
448 2496 moveto
832 2496 lineto
832 0 lineto
448 0 lineto
448 2496 lineto
448 3520 moveto
832 3520 lineto
832 3008 lineto
448 3008 lineto
448 3520 lineto
end_ol grestore 
gsave 16.026061 16.908165 translate 0.035278 -0.035278 scale
start_ol
1920 2112 moveto
1848 2178 1764 2209 conicto
1680 2240 1578 2240 conicto
1218 2240 1025 2001 conicto
832 1763 832 1317 conicto
832 0 lineto
448 0 lineto
448 2496 lineto
832 2496 lineto
832 2112 lineto
965 2339 1180 2449 conicto
1396 2560 1702 2560 conicto
1747 2560 1799 2560 conicto
1852 2560 1917 2560 conicto
1920 2112 lineto
end_ol grestore 
gsave 16.271594 16.908165 translate 0.035278 -0.035278 scale
start_ol
2431 2020 moveto
2590 2296 2809 2428 conicto
3029 2560 3325 2560 conicto
3726 2560 3943 2287 conicto
4160 2014 4160 1509 conicto
4160 0 lineto
3776 0 lineto
3776 1496 lineto
3776 1874 3641 2057 conicto
3506 2240 3228 2240 conicto
2890 2240 2693 2018 conicto
2496 1796 2496 1413 conicto
2496 0 lineto
2112 0 lineto
2112 1496 lineto
2112 1876 1976 2058 conicto
1841 2240 1560 2240 conicto
1225 2240 1028 2017 conicto
832 1794 832 1413 conicto
832 0 lineto
448 0 lineto
448 2496 lineto
832 2496 lineto
832 2112 lineto
977 2341 1180 2450 conicto
1383 2560 1662 2560 conicto
1942 2560 2139 2422 conicto
2337 2284 2431 2020 conicto
end_ol grestore 
gsave 16.864261 16.908165 translate 0.035278 -0.035278 scale
start_ol
2624 1352 moveto
2624 1152 lineto
704 1152 lineto
731 715 960 485 conicto
1189 256 1597 256 conicto
1834 256 2056 320 conicto
2278 384 2496 512 conicto
2496 128 lineto
2273 34 2039 -15 conicto
1805 -64 1565 -64 conicto
961 -64 608 284 conicto
256 632 256 1225 conicto
256 1839 595 2199 conicto
934 2560 1509 2560 conicto
2024 2560 2324 2235 conicto
2624 1910 2624 1352 conicto
2240 1472 moveto
2235 1822 2043 2031 conicto
1852 2240 1537 2240 conicto
1180 2240 965 2038 conicto
750 1836 718 1470 conicto
2240 1472 lineto
end_ol grestore 
gsave 17.236794 16.908165 translate 0.035278 -0.035278 scale
start_ol
2560 1509 moveto
2560 0 lineto
2176 0 lineto
2176 1496 lineto
2176 1869 2029 2054 conicto
1883 2240 1590 2240 conicto
1238 2240 1035 2018 conicto
832 1796 832 1413 conicto
832 0 lineto
448 0 lineto
448 2496 lineto
832 2496 lineto
832 2112 lineto
983 2337 1188 2448 conicto
1394 2560 1662 2560 conicto
2106 2560 2333 2293 conicto
2560 2027 2560 1509 conicto
end_ol grestore 
gsave 17.626261 16.908165 translate 0.035278 -0.035278 scale
start_ol
2560 1509 moveto
2560 0 lineto
2176 0 lineto
2176 1496 lineto
2176 1869 2029 2054 conicto
1883 2240 1590 2240 conicto
1238 2240 1035 2018 conicto
832 1796 832 1413 conicto
832 0 lineto
448 0 lineto
448 2496 lineto
832 2496 lineto
832 2112 lineto
983 2337 1188 2448 conicto
1394 2560 1662 2560 conicto
2106 2560 2333 2293 conicto
2560 2027 2560 1509 conicto
end_ol grestore 
gsave 18.015727 16.908165 translate 0.035278 -0.035278 scale
start_ol
2624 1352 moveto
2624 1152 lineto
704 1152 lineto
731 715 960 485 conicto
1189 256 1597 256 conicto
1834 256 2056 320 conicto
2278 384 2496 512 conicto
2496 128 lineto
2273 34 2039 -15 conicto
1805 -64 1565 -64 conicto
961 -64 608 284 conicto
256 632 256 1225 conicto
256 1839 595 2199 conicto
934 2560 1509 2560 conicto
2024 2560 2324 2235 conicto
2624 1910 2624 1352 conicto
2240 1472 moveto
2235 1822 2043 2031 conicto
1852 2240 1537 2240 conicto
1180 2240 965 2038 conicto
750 1836 718 1470 conicto
2240 1472 lineto
end_ol grestore 
gsave 18.388261 16.908165 translate 0.035278 -0.035278 scale
start_ol
832 3200 moveto
832 2496 lineto
1664 2496 lineto
1664 2176 lineto
832 2176 lineto
832 804 lineto
832 495 914 407 conicto
997 320 1248 320 conicto
1664 320 lineto
1664 0 lineto
1248 0 lineto
793 0 620 173 conicto
448 347 448 804 conicto
448 2176 lineto
128 2176 lineto
128 2496 lineto
448 2496 lineto
448 3200 lineto
832 3200 lineto
end_ol grestore 
gsave 18.625327 16.908165 translate 0.035278 -0.035278 scale
start_ol
256 2496 moveto
2240 2496 lineto
2240 2120 lineto
670 320 lineto
2240 320 lineto
2240 0 lineto
192 0 lineto
192 376 lineto
1770 2176 lineto
256 2176 lineto
256 2496 lineto
end_ol grestore 
gsave 18.947061 16.908165 translate 0.035278 -0.035278 scale
start_ol
512 576 moveto
960 576 lineto
960 0 lineto
512 0 lineto
512 576 lineto
512 2368 moveto
960 2368 lineto
960 1792 lineto
512 1792 lineto
512 2368 lineto
end_ol grestore 
gsave 14.599427 17.708165 translate 0.035278 -0.035278 scale
start_ol
576 384 moveto
1344 384 lineto
1344 2944 lineto
512 2752 lineto
512 3136 lineto
1330 3328 lineto
1792 3328 lineto
1792 384 lineto
2560 384 lineto
2560 0 lineto
576 0 lineto
576 384 lineto
end_ol grestore 
gsave 14.988894 17.708165 translate 0.035278 -0.035278 scale
start_ol
512 64 moveto
512 448 lineto
684 386 861 353 conicto
1038 320 1209 320 conicto
1663 320 1902 632 conicto
2142 944 2176 1578 conicto
2046 1372 1847 1262 conicto
1648 1152 1406 1152 conicto
905 1152 612 1451 conicto
320 1750 320 2270 conicto
320 2778 624 3085 conicto
928 3392 1434 3392 conicto
2014 3392 2319 2949 conicto
2624 2506 2624 1663 conicto
2624 875 2245 405 conicto
1866 -64 1226 -64 conicto
1055 -64 878 -32 conicto
702 0 512 64 conicto
1440 1536 moveto
1750 1536 1931 1733 conicto
2112 1930 2112 2272 conicto
2112 2612 1931 2810 conicto
1750 3008 1440 3008 conicto
1130 3008 949 2810 conicto
768 2612 768 2272 conicto
768 1930 949 1733 conicto
1130 1536 1440 1536 conicto
end_ol grestore 
gsave 15.378361 17.708165 translate 0.035278 -0.035278 scale
start_ol
853 384 moveto
2450 384 lineto
2450 0 lineto
320 0 lineto
320 384 lineto
579 648 1027 1094 conicto
1476 1540 1591 1669 conicto
1810 1911 1897 2079 conicto
1984 2247 1984 2409 conicto
1984 2674 1793 2841 conicto
1602 3008 1295 3008 conicto
1078 3008 836 2944 conicto
595 2881 320 2752 conicto
320 3200 lineto
597 3296 838 3344 conicto
1079 3392 1279 3392 conicto
1805 3392 2118 3133 conicto
2432 2875 2432 2443 conicto
2432 2238 2353 2054 conicto
2275 1870 2070 1620 conicto
2012 1556 1708 1247 conicto
1405 939 853 384 conicto
end_ol grestore 
gsave 15.767827 17.708165 translate 0.035278 -0.035278 scale
start_ol
512 576 moveto
960 576 lineto
960 0 lineto
512 0 lineto
512 576 lineto
end_ol grestore 
gsave 15.962561 17.708165 translate 0.035278 -0.035278 scale
start_ol
576 384 moveto
1344 384 lineto
1344 2944 lineto
512 2752 lineto
512 3136 lineto
1330 3328 lineto
1792 3328 lineto
1792 384 lineto
2560 384 lineto
2560 0 lineto
576 0 lineto
576 384 lineto
end_ol grestore 
gsave 16.352027 17.708165 translate 0.035278 -0.035278 scale
start_ol
1504 1792 moveto
1194 1792 1013 1595 conicto
832 1398 832 1056 conicto
832 716 1013 518 conicto
1194 320 1504 320 conicto
1814 320 1995 518 conicto
2176 716 2176 1056 conicto
2176 1398 1995 1595 conicto
1814 1792 1504 1792 conicto
2432 3264 moveto
2432 2880 lineto
2259 2942 2083 2975 conicto
1908 3008 1736 3008 conicto
1282 3008 1042 2695 conicto
802 2382 768 1750 conicto
900 1956 1099 2066 conicto
1298 2176 1537 2176 conicto
2040 2176 2332 1875 conicto
2624 1574 2624 1056 conicto
2624 548 2320 242 conicto
2016 -64 1511 -64 conicto
932 -64 626 379 conicto
320 822 320 1663 conicto
320 2453 700 2922 conicto
1080 3392 1720 3392 conicto
1892 3392 2067 3360 conicto
2242 3328 2432 3264 conicto
end_ol grestore 
gsave 16.741494 17.708165 translate 0.035278 -0.035278 scale
start_ol
1471 1600 moveto
1143 1600 955 1429 conicto
768 1259 768 960 conicto
768 661 955 490 conicto
1143 320 1471 320 conicto
1799 320 1987 492 conicto
2176 664 2176 960 conicto
2176 1259 1988 1429 conicto
1801 1600 1471 1600 conicto
1003 1808 moveto
711 1878 547 2072 conicto
384 2266 384 2546 conicto
384 2937 674 3164 conicto
965 3392 1472 3392 conicto
1981 3392 2270 3164 conicto
2560 2937 2560 2546 conicto
2560 2266 2396 2072 conicto
2232 1878 1941 1808 conicto
2263 1730 2443 1505 conicto
2624 1281 2624 956 conicto
2624 463 2326 199 conicto
2028 -64 1472 -64 conicto
916 -64 618 199 conicto
320 463 320 956 conicto
320 1281 501 1505 conicto
682 1730 1003 1808 conicto
832 2496 moveto
832 2255 999 2119 conicto
1167 1984 1471 1984 conicto
1771 1984 1941 2119 conicto
2112 2255 2112 2496 conicto
2112 2738 1941 2873 conicto
1771 3008 1471 3008 conicto
1167 3008 999 2873 conicto
832 2738 832 2496 conicto
end_ol grestore 
gsave 17.130961 17.708165 translate 0.035278 -0.035278 scale
start_ol
512 576 moveto
960 576 lineto
960 0 lineto
512 0 lineto
512 576 lineto
end_ol grestore 
gsave 17.325694 17.708165 translate 0.035278 -0.035278 scale
start_ol
576 384 moveto
1344 384 lineto
1344 2944 lineto
512 2752 lineto
512 3136 lineto
1330 3328 lineto
1792 3328 lineto
1792 384 lineto
2560 384 lineto
2560 0 lineto
576 0 lineto
576 384 lineto
end_ol grestore 
gsave 17.715161 17.708165 translate 0.035278 -0.035278 scale
start_ol
1471 3008 moveto
1120 3008 944 2672 conicto
768 2336 768 1663 conicto
768 992 944 656 conicto
1120 320 1471 320 conicto
1824 320 2000 656 conicto
2176 992 2176 1663 conicto
2176 2336 2000 2672 conicto
1824 3008 1471 3008 conicto
1472 3392 moveto
2033 3392 2328 2949 conicto
2624 2506 2624 1663 conicto
2624 822 2328 379 conicto
2033 -64 1472 -64 conicto
911 -64 615 379 conicto
320 822 320 1663 conicto
320 2506 615 2949 conicto
911 3392 1472 3392 conicto
end_ol grestore 
gsave 18.104627 17.708165 translate 0.035278 -0.035278 scale
start_ol
1471 3008 moveto
1120 3008 944 2672 conicto
768 2336 768 1663 conicto
768 992 944 656 conicto
1120 320 1471 320 conicto
1824 320 2000 656 conicto
2176 992 2176 1663 conicto
2176 2336 2000 2672 conicto
1824 3008 1471 3008 conicto
1472 3392 moveto
2033 3392 2328 2949 conicto
2624 2506 2624 1663 conicto
2624 822 2328 379 conicto
2033 -64 1472 -64 conicto
911 -64 615 379 conicto
320 822 320 1663 conicto
320 2506 615 2949 conicto
911 3392 1472 3392 conicto
end_ol grestore 
gsave 18.494094 17.708165 translate 0.035278 -0.035278 scale
start_ol
512 576 moveto
960 576 lineto
960 0 lineto
512 0 lineto
512 576 lineto
end_ol grestore 
gsave 18.688827 17.708165 translate 0.035278 -0.035278 scale
start_ol
1471 3008 moveto
1120 3008 944 2672 conicto
768 2336 768 1663 conicto
768 992 944 656 conicto
1120 320 1471 320 conicto
1824 320 2000 656 conicto
2176 992 2176 1663 conicto
2176 2336 2000 2672 conicto
1824 3008 1471 3008 conicto
1472 3392 moveto
2033 3392 2328 2949 conicto
2624 2506 2624 1663 conicto
2624 822 2328 379 conicto
2033 -64 1472 -64 conicto
911 -64 615 379 conicto
320 822 320 1663 conicto
320 2506 615 2949 conicto
911 3392 1472 3392 conicto
end_ol grestore 
gsave 19.078294 17.708165 translate 0.035278 -0.035278 scale
start_ol
1157 3328 moveto
1536 3328 lineto
379 -448 lineto
0 -448 lineto
1157 3328 lineto
end_ol grestore 
gsave 19.281494 17.708165 translate 0.035278 -0.035278 scale
start_ol
853 384 moveto
2450 384 lineto
2450 0 lineto
320 0 lineto
320 384 lineto
579 648 1027 1094 conicto
1476 1540 1591 1669 conicto
1810 1911 1897 2079 conicto
1984 2247 1984 2409 conicto
1984 2674 1793 2841 conicto
1602 3008 1295 3008 conicto
1078 3008 836 2944 conicto
595 2881 320 2752 conicto
320 3200 lineto
597 3296 838 3344 conicto
1079 3392 1279 3392 conicto
1805 3392 2118 3133 conicto
2432 2875 2432 2443 conicto
2432 2238 2353 2054 conicto
2275 1870 2070 1620 conicto
2012 1556 1708 1247 conicto
1405 939 853 384 conicto
end_ol grestore 
gsave 19.670961 17.708165 translate 0.035278 -0.035278 scale
start_ol
1792 2934 moveto
630 1152 lineto
1792 1152 lineto
1792 2934 lineto
1664 3328 moveto
2240 3328 lineto
2240 1152 lineto
2688 1152 lineto
2688 768 lineto
2240 768 lineto
2240 0 lineto
1792 0 lineto
1792 768 lineto
256 768 lineto
256 1206 lineto
1664 3328 lineto
end_ol grestore 
0.100000 slw
[] 0 sd
[] 0 sd
0 slc
0 slj
0 slc
0 slj
[] 0 sd
1.000000 1.000000 1.000000 srgb
n 2.943393 4.364193 m 2.325859 4.344260 1.128220 4.762842 1.296638 5.659802 c 1.465055 6.556763 2.269720 6.756079 2.606556 6.496965 c 2.943393 6.237843 2.082588 7.752702 3.729344 8.151351 c 5.376086 8.550000 6.218177 7.912162 5.974906 7.453715 c 5.731635 6.995269 7.415818 8.530068 8.201769 7.653040 c 8.987721 6.776012 7.397104 5.938857 7.733941 6.058451 c 8.070777 6.178046 9.100000 6.018586 8.763164 4.523653 c 8.426327 3.028719 5.394799 4.184801 5.731635 3.965544 c 6.068472 3.746287 5.226380 2.650000 4.178460 2.869257 c 3.130524 3.088516 3.056195 3.486388 2.943916 4.363416 c 2.943393 4.364193 l f
0.000000 0.000000 0.000000 srgb
n 2.943393 4.364193 m 2.325859 4.344260 1.128220 4.762842 1.296638 5.659802 c 1.465055 6.556763 2.269720 6.756079 2.606556 6.496965 c 2.943393 6.237843 2.082588 7.752702 3.729344 8.151351 c 5.376086 8.550000 6.218177 7.912162 5.974906 7.453715 c 5.731635 6.995269 7.415818 8.530068 8.201769 7.653040 c 8.987721 6.776012 7.397104 5.938857 7.733941 6.058451 c 8.070777 6.178046 9.100000 6.018586 8.763164 4.523653 c 8.426327 3.028719 5.394799 4.184801 5.731635 3.965544 c 6.068472 3.746287 5.226380 2.650000 4.178460 2.869257 c 3.130524 3.088516 3.056195 3.486388 2.943916 4.363416 c 2.943393 4.364193 l s
gsave 4.125539 5.904005 translate 0.035278 -0.035278 scale
start_ol
448 3328 moveto
896 3328 lineto
896 0 lineto
448 0 lineto
448 3328 lineto
end_ol grestore 
gsave 4.303339 5.904005 translate 0.035278 -0.035278 scale
start_ol
2560 1509 moveto
2560 0 lineto
2176 0 lineto
2176 1496 lineto
2176 1869 2029 2054 conicto
1883 2240 1590 2240 conicto
1238 2240 1035 2018 conicto
832 1796 832 1413 conicto
832 0 lineto
448 0 lineto
448 2496 lineto
832 2496 lineto
832 2112 lineto
983 2337 1188 2448 conicto
1394 2560 1662 2560 conicto
2106 2560 2333 2293 conicto
2560 2027 2560 1509 conicto
end_ol grestore 
gsave 4.692806 5.904005 translate 0.035278 -0.035278 scale
start_ol
832 3200 moveto
832 2496 lineto
1664 2496 lineto
1664 2176 lineto
832 2176 lineto
832 804 lineto
832 495 914 407 conicto
997 320 1248 320 conicto
1664 320 lineto
1664 0 lineto
1248 0 lineto
793 0 620 173 conicto
448 347 448 804 conicto
448 2176 lineto
128 2176 lineto
128 2496 lineto
448 2496 lineto
448 3200 lineto
832 3200 lineto
end_ol grestore 
gsave 4.929872 5.904005 translate 0.035278 -0.035278 scale
start_ol
2624 1352 moveto
2624 1152 lineto
704 1152 lineto
731 715 960 485 conicto
1189 256 1597 256 conicto
1834 256 2056 320 conicto
2278 384 2496 512 conicto
2496 128 lineto
2273 34 2039 -15 conicto
1805 -64 1565 -64 conicto
961 -64 608 284 conicto
256 632 256 1225 conicto
256 1839 595 2199 conicto
934 2560 1509 2560 conicto
2024 2560 2324 2235 conicto
2624 1910 2624 1352 conicto
2240 1472 moveto
2235 1822 2043 2031 conicto
1852 2240 1537 2240 conicto
1180 2240 965 2038 conicto
750 1836 718 1470 conicto
2240 1472 lineto
end_ol grestore 
gsave 5.302406 5.904005 translate 0.035278 -0.035278 scale
start_ol
1920 2112 moveto
1848 2178 1764 2209 conicto
1680 2240 1578 2240 conicto
1218 2240 1025 2001 conicto
832 1763 832 1317 conicto
832 0 lineto
448 0 lineto
448 2496 lineto
832 2496 lineto
832 2112 lineto
965 2339 1180 2449 conicto
1396 2560 1702 2560 conicto
1747 2560 1799 2560 conicto
1852 2560 1917 2560 conicto
1920 2112 lineto
end_ol grestore 
gsave 5.547939 5.904005 translate 0.035278 -0.035278 scale
start_ol
2560 1509 moveto
2560 0 lineto
2176 0 lineto
2176 1496 lineto
2176 1869 2029 2054 conicto
1883 2240 1590 2240 conicto
1238 2240 1035 2018 conicto
832 1796 832 1413 conicto
832 0 lineto
448 0 lineto
448 2496 lineto
832 2496 lineto
832 2112 lineto
983 2337 1188 2448 conicto
1394 2560 1662 2560 conicto
2106 2560 2333 2293 conicto
2560 2027 2560 1509 conicto
end_ol grestore 
gsave 5.937406 5.904005 translate 0.035278 -0.035278 scale
start_ol
2624 1352 moveto
2624 1152 lineto
704 1152 lineto
731 715 960 485 conicto
1189 256 1597 256 conicto
1834 256 2056 320 conicto
2278 384 2496 512 conicto
2496 128 lineto
2273 34 2039 -15 conicto
1805 -64 1565 -64 conicto
961 -64 608 284 conicto
256 632 256 1225 conicto
256 1839 595 2199 conicto
934 2560 1509 2560 conicto
2024 2560 2324 2235 conicto
2624 1910 2624 1352 conicto
2240 1472 moveto
2235 1822 2043 2031 conicto
1852 2240 1537 2240 conicto
1180 2240 965 2038 conicto
750 1836 718 1470 conicto
2240 1472 lineto
end_ol grestore 
gsave 6.309939 5.904005 translate 0.035278 -0.035278 scale
start_ol
832 3200 moveto
832 2496 lineto
1664 2496 lineto
1664 2176 lineto
832 2176 lineto
832 804 lineto
832 495 914 407 conicto
997 320 1248 320 conicto
1664 320 lineto
1664 0 lineto
1248 0 lineto
793 0 620 173 conicto
448 347 448 804 conicto
448 2176 lineto
128 2176 lineto
128 2496 lineto
448 2496 lineto
448 3200 lineto
832 3200 lineto
end_ol grestore 
0.100000 slw
[] 0 sd
[] 0 sd
0 slc
0 slj
0.080000 slw
0 slc
0 slj
[] 0 sd
0.701961 0.701961 0.701961 srgb
n 13.475836 9.750001 m 13.475836 11.801432 l 14.355021 11.801432 l 14.355021 9.750001 l f
0.000000 0.000000 0.000000 srgb
n 13.475836 9.750001 m 13.475836 11.801432 l 14.355021 11.801432 l 14.355021 9.750001 l cp s
0.010000 slw
0 slc
0 slj
[] 0 sd
n 13.563755 9.873087 m 13.563755 10.107536 l 14.267103 10.107536 l 14.267103 9.873087 l cp s
0 slc
0 slj
[] 0 sd
n 13.563755 10.107536 m 13.563755 10.341985 l 14.267103 10.341985 l 14.267103 10.107536 l cp s
0 slc
0 slj
[] 0 sd
n 13.563755 10.341985 m 13.563755 10.576435 l 14.267103 10.576435 l 14.267103 10.341985 l cp s
0 slc
0 slj
[] 0 sd
n 13.563755 10.576435 m 13.563755 10.810884 l 14.267103 10.810884 l 14.267103 10.576435 l cp s
0 slc
0 slj
[] 0 sd
n 13.563755 10.857774 m 13.563755 10.998443 l 14.003347 10.998443 l 14.003347 10.857774 l cp s
0 slc
0 slj
[] 0 sd
0.000000 1.000000 0.000000 srgb
n 14.223144 10.881219 0.030771 0.030771 0 360 ellipse f
0.000000 0.000000 0.000000 srgb
n 14.223144 10.881219 0.030771 0.030771 0 360 ellipse cp s
0 slc
0 slj
[] 0 sd
1.000000 1.000000 0.000000 srgb
n 14.223144 10.974998 0.030771 0.030771 0 360 ellipse f
0.000000 0.000000 0.000000 srgb
n 14.223144 10.974998 0.030771 0.030771 0 360 ellipse cp s
0 slc
0 slj
[] 0 sd
1.000000 1.000000 1.000000 srgb
n 14.047307 10.904664 m 14.047307 10.998443 l 14.152809 10.998443 l 14.152809 10.904664 l f
0.000000 0.000000 0.000000 srgb
n 14.047307 10.904664 m 14.047307 10.998443 l 14.152809 10.998443 l 14.152809 10.904664 l cp s
0 slc
0 slj
[] 0 sd
n 13.622367 11.186003 m 13.622367 11.698861 l s
0 slc
0 slj
[] 0 sd
n 13.768898 11.186003 m 13.768898 11.698861 l s
0 slc
0 slj
[] 0 sd
n 13.915429 11.186003 m 13.915429 11.698861 l s
0 slc
0 slj
[] 0 sd
n 14.061960 11.186003 m 14.061960 11.698861 l s
0 slc
0 slj
[] 0 sd
n 14.208490 11.186003 m 14.208490 11.698861 l s
0 slc
0 slj
[] 0 sd
n 14.355021 11.186003 m 14.355021 11.698861 l s
0 slc
0 slj
[] 0 sd
0.600000 0.600000 0.600000 srgb
n 13.299999 11.977269 m 13.475836 11.625595 l 13.475836 11.801432 l 14.355021 11.801432 l 14.355021 11.625595 l 14.589471 11.977269 l f
0.000000 0.000000 0.000000 srgb
n 13.299999 11.977269 m 13.475836 11.625595 l 13.475836 11.801432 l 14.355021 11.801432 l 14.355021 11.625595 l 14.589471 11.977269 l cp s
gsave 11.379335 12.635881 translate 0.035278 -0.035278 scale
start_ol
896 2944 moveto
896 384 lineto
1454 384 lineto
2160 384 2488 692 conicto
2816 1001 2816 1667 conicto
2816 2329 2488 2636 conicto
2160 2944 1454 2944 conicto
896 2944 lineto
448 3328 moveto
1383 3328 lineto
2355 3328 2809 2925 conicto
3264 2523 3264 1667 conicto
3264 807 2807 403 conicto
2350 0 1383 0 conicto
448 0 lineto
448 3328 lineto
end_ol grestore 
gsave 11.845002 12.635881 translate 0.035278 -0.035278 scale
start_ol
2624 1352 moveto
2624 1152 lineto
704 1152 lineto
731 715 960 485 conicto
1189 256 1597 256 conicto
1834 256 2056 320 conicto
2278 384 2496 512 conicto
2496 128 lineto
2273 34 2039 -15 conicto
1805 -64 1565 -64 conicto
961 -64 608 284 conicto
256 632 256 1225 conicto
256 1839 595 2199 conicto
934 2560 1509 2560 conicto
2024 2560 2324 2235 conicto
2624 1910 2624 1352 conicto
2240 1472 moveto
2235 1822 2043 2031 conicto
1852 2240 1537 2240 conicto
1180 2240 965 2038 conicto
750 1836 718 1470 conicto
2240 1472 lineto
end_ol grestore 
gsave 12.217535 12.635881 translate 0.035278 -0.035278 scale
start_ol
1664 3520 moveto
1664 3200 lineto
1305 3200 lineto
1075 3200 985 3100 conicto
896 3001 896 2742 conicto
896 2496 lineto
1600 2496 lineto
1600 2176 lineto
896 2176 lineto
896 0 lineto
512 0 lineto
512 2176 lineto
128 2176 lineto
128 2496 lineto
512 2496 lineto
512 2691 lineto
512 3124 703 3322 conicto
894 3520 1310 3520 conicto
1664 3520 lineto
end_ol grestore 
gsave 12.429202 12.635881 translate 0.035278 -0.035278 scale
start_ol
1559 1280 moveto
1040 1280 840 1160 conicto
640 1041 640 754 conicto
640 525 790 390 conicto
940 256 1198 256 conicto
1554 256 1769 510 conicto
1984 765 1984 1187 conicto
1984 1280 lineto
1559 1280 lineto
2368 1449 moveto
2368 0 lineto
1984 0 lineto
1984 384 lineto
1842 154 1628 45 conicto
1415 -64 1107 -64 conicto
717 -64 486 154 conicto
256 372 256 739 conicto
256 1166 539 1383 conicto
822 1600 1384 1600 conicto
1984 1600 lineto
1984 1641 lineto
1984 1927 1796 2083 conicto
1608 2240 1266 2240 conicto
1049 2240 843 2192 conicto
638 2144 448 2048 conicto
448 2432 lineto
673 2496 884 2528 conicto
1095 2560 1295 2560 conicto
1835 2560 2101 2284 conicto
2368 2009 2368 1449 conicto
end_ol grestore 
gsave 12.801735 12.635881 translate 0.035278 -0.035278 scale
start_ol
448 986 moveto
448 2496 lineto
832 2496 lineto
832 1001 lineto
832 629 978 442 conicto
1124 256 1417 256 conicto
1768 256 1972 477 conicto
2176 699 2176 1081 conicto
2176 2496 lineto
2560 2496 lineto
2560 0 lineto
2176 0 lineto
2176 384 lineto
2022 157 1819 46 conicto
1617 -64 1349 -64 conicto
906 -64 677 203 conicto
448 471 448 986 conicto
end_ol grestore 
gsave 13.191202 12.635881 translate 0.035278 -0.035278 scale
start_ol
448 3520 moveto
832 3520 lineto
832 0 lineto
448 0 lineto
448 3520 lineto
end_ol grestore 
gsave 13.360535 12.635881 translate 0.035278 -0.035278 scale
start_ol
832 3200 moveto
832 2496 lineto
1664 2496 lineto
1664 2176 lineto
832 2176 lineto
832 804 lineto
832 495 914 407 conicto
997 320 1248 320 conicto
1664 320 lineto
1664 0 lineto
1248 0 lineto
793 0 620 173 conicto
448 347 448 804 conicto
448 2176 lineto
128 2176 lineto
128 2496 lineto
448 2496 lineto
448 3200 lineto
832 3200 lineto
end_ol grestore 
gsave 13.597602 12.635881 translate 0.035278 -0.035278 scale
start_ol
256 1472 moveto
1472 1472 lineto
1472 1088 lineto
256 1088 lineto
256 1472 lineto
end_ol grestore 
gsave 13.843135 12.635881 translate 0.035278 -0.035278 scale
start_ol
2752 493 moveto
2752 1408 lineto
1984 1408 lineto
1984 1792 lineto
3200 1792 lineto
3200 325 lineto
2936 133 2617 34 conicto
2299 -64 1938 -64 conicto
1148 -64 702 392 conicto
256 848 256 1663 conicto
256 2480 706 2936 conicto
1156 3392 1952 3392 conicto
2285 3392 2584 3310 conicto
2883 3229 3136 3072 conicto
3136 2624 lineto
2877 2815 2586 2911 conicto
2295 3008 1973 3008 conicto
1340 3008 1022 2670 conicto
704 2332 704 1663 conicto
704 996 1020 658 conicto
1336 320 1965 320 conicto
2212 320 2405 362 conicto
2598 405 2752 493 conicto
end_ol grestore 
gsave 14.317268 12.635881 translate 0.035278 -0.035278 scale
start_ol
1559 1280 moveto
1040 1280 840 1160 conicto
640 1041 640 754 conicto
640 525 790 390 conicto
940 256 1198 256 conicto
1554 256 1769 510 conicto
1984 765 1984 1187 conicto
1984 1280 lineto
1559 1280 lineto
2368 1449 moveto
2368 0 lineto
1984 0 lineto
1984 384 lineto
1842 154 1628 45 conicto
1415 -64 1107 -64 conicto
717 -64 486 154 conicto
256 372 256 739 conicto
256 1166 539 1383 conicto
822 1600 1384 1600 conicto
1984 1600 lineto
1984 1641 lineto
1984 1927 1796 2083 conicto
1608 2240 1266 2240 conicto
1049 2240 843 2192 conicto
638 2144 448 2048 conicto
448 2432 lineto
673 2496 884 2528 conicto
1095 2560 1295 2560 conicto
1835 2560 2101 2284 conicto
2368 2009 2368 1449 conicto
end_ol grestore 
gsave 14.689802 12.635881 translate 0.035278 -0.035278 scale
start_ol
832 3200 moveto
832 2496 lineto
1664 2496 lineto
1664 2176 lineto
832 2176 lineto
832 804 lineto
832 495 914 407 conicto
997 320 1248 320 conicto
1664 320 lineto
1664 0 lineto
1248 0 lineto
793 0 620 173 conicto
448 347 448 804 conicto
448 2176 lineto
128 2176 lineto
128 2496 lineto
448 2496 lineto
448 3200 lineto
832 3200 lineto
end_ol grestore 
gsave 14.926868 12.635881 translate 0.035278 -0.035278 scale
start_ol
2624 1352 moveto
2624 1152 lineto
704 1152 lineto
731 715 960 485 conicto
1189 256 1597 256 conicto
1834 256 2056 320 conicto
2278 384 2496 512 conicto
2496 128 lineto
2273 34 2039 -15 conicto
1805 -64 1565 -64 conicto
961 -64 608 284 conicto
256 632 256 1225 conicto
256 1839 595 2199 conicto
934 2560 1509 2560 conicto
2024 2560 2324 2235 conicto
2624 1910 2624 1352 conicto
2240 1472 moveto
2235 1822 2043 2031 conicto
1852 2240 1537 2240 conicto
1180 2240 965 2038 conicto
750 1836 718 1470 conicto
2240 1472 lineto
end_ol grestore 
gsave 15.299402 12.635881 translate 0.035278 -0.035278 scale
start_ol
192 2496 moveto
607 2496 lineto
1126 549 lineto
1643 2496 lineto
2133 2496 lineto
2652 549 lineto
3169 2496 lineto
3584 2496 lineto
2923 0 lineto
2433 0 lineto
1890 2046 lineto
1343 0 lineto
853 0 lineto
192 2496 lineto
end_ol grestore 
gsave 15.798935 12.635881 translate 0.035278 -0.035278 scale
start_ol
1559 1280 moveto
1040 1280 840 1160 conicto
640 1041 640 754 conicto
640 525 790 390 conicto
940 256 1198 256 conicto
1554 256 1769 510 conicto
1984 765 1984 1187 conicto
1984 1280 lineto
1559 1280 lineto
2368 1449 moveto
2368 0 lineto
1984 0 lineto
1984 384 lineto
1842 154 1628 45 conicto
1415 -64 1107 -64 conicto
717 -64 486 154 conicto
256 372 256 739 conicto
256 1166 539 1383 conicto
822 1600 1384 1600 conicto
1984 1600 lineto
1984 1641 lineto
1984 1927 1796 2083 conicto
1608 2240 1266 2240 conicto
1049 2240 843 2192 conicto
638 2144 448 2048 conicto
448 2432 lineto
673 2496 884 2528 conicto
1095 2560 1295 2560 conicto
1835 2560 2101 2284 conicto
2368 2009 2368 1449 conicto
end_ol grestore 
gsave 16.171468 12.635881 translate 0.035278 -0.035278 scale
start_ol
1477 -262 moveto
1305 -695 1142 -827 conicto
980 -960 707 -960 conicto
384 -960 lineto
384 -640 lineto
622 -640 lineto
789 -640 881 -555 conicto
974 -471 1085 -156 conicto
1159 33 lineto
128 2496 lineto
590 2496 lineto
1361 544 lineto
2131 2496 lineto
2560 2496 lineto
1477 -262 lineto
end_ol grestore 
gsave 9.423535 13.435881 translate 0.035278 -0.035278 scale
start_ol
448 3328 moveto
896 3328 lineto
896 0 lineto
448 0 lineto
448 3328 lineto
end_ol grestore 
gsave 9.601335 13.435881 translate 0.035278 -0.035278 scale
start_ol
896 2944 moveto
896 1728 lineto
1488 1728 lineto
1817 1728 1996 1886 conicto
2176 2044 2176 2337 conicto
2176 2627 1996 2785 conicto
1817 2944 1488 2944 conicto
896 2944 lineto
448 3328 moveto
1488 3328 lineto
2050 3328 2337 3076 conicto
2624 2824 2624 2337 conicto
2624 1847 2337 1595 conicto
2050 1344 1488 1344 conicto
896 1344 lineto
896 0 lineto
448 0 lineto
448 3328 lineto
end_ol grestore 
gsave 9.965402 13.435881 translate 0.035278 -0.035278 scale
start_ol
512 576 moveto
960 576 lineto
960 0 lineto
512 0 lineto
512 576 lineto
512 2368 moveto
960 2368 lineto
960 1792 lineto
512 1792 lineto
512 2368 lineto
end_ol grestore 
gsave 10.168602 13.435881 translate 0.035278 -0.035278 scale
start_ol
end_ol grestore 
gsave 10.363335 13.435881 translate 0.035278 -0.035278 scale
start_ol
576 384 moveto
1344 384 lineto
1344 2944 lineto
512 2752 lineto
512 3136 lineto
1330 3328 lineto
1792 3328 lineto
1792 384 lineto
2560 384 lineto
2560 0 lineto
576 0 lineto
576 384 lineto
end_ol grestore 
gsave 10.752802 13.435881 translate 0.035278 -0.035278 scale
start_ol
512 64 moveto
512 448 lineto
684 386 861 353 conicto
1038 320 1209 320 conicto
1663 320 1902 632 conicto
2142 944 2176 1578 conicto
2046 1372 1847 1262 conicto
1648 1152 1406 1152 conicto
905 1152 612 1451 conicto
320 1750 320 2270 conicto
320 2778 624 3085 conicto
928 3392 1434 3392 conicto
2014 3392 2319 2949 conicto
2624 2506 2624 1663 conicto
2624 875 2245 405 conicto
1866 -64 1226 -64 conicto
1055 -64 878 -32 conicto
702 0 512 64 conicto
1440 1536 moveto
1750 1536 1931 1733 conicto
2112 1930 2112 2272 conicto
2112 2612 1931 2810 conicto
1750 3008 1440 3008 conicto
1130 3008 949 2810 conicto
768 2612 768 2272 conicto
768 1930 949 1733 conicto
1130 1536 1440 1536 conicto
end_ol grestore 
gsave 11.142268 13.435881 translate 0.035278 -0.035278 scale
start_ol
853 384 moveto
2450 384 lineto
2450 0 lineto
320 0 lineto
320 384 lineto
579 648 1027 1094 conicto
1476 1540 1591 1669 conicto
1810 1911 1897 2079 conicto
1984 2247 1984 2409 conicto
1984 2674 1793 2841 conicto
1602 3008 1295 3008 conicto
1078 3008 836 2944 conicto
595 2881 320 2752 conicto
320 3200 lineto
597 3296 838 3344 conicto
1079 3392 1279 3392 conicto
1805 3392 2118 3133 conicto
2432 2875 2432 2443 conicto
2432 2238 2353 2054 conicto
2275 1870 2070 1620 conicto
2012 1556 1708 1247 conicto
1405 939 853 384 conicto
end_ol grestore 
gsave 11.531735 13.435881 translate 0.035278 -0.035278 scale
start_ol
512 576 moveto
960 576 lineto
960 0 lineto
512 0 lineto
512 576 lineto
end_ol grestore 
gsave 11.726468 13.435881 translate 0.035278 -0.035278 scale
start_ol
576 384 moveto
1344 384 lineto
1344 2944 lineto
512 2752 lineto
512 3136 lineto
1330 3328 lineto
1792 3328 lineto
1792 384 lineto
2560 384 lineto
2560 0 lineto
576 0 lineto
576 384 lineto
end_ol grestore 
gsave 12.115935 13.435881 translate 0.035278 -0.035278 scale
start_ol
1504 1792 moveto
1194 1792 1013 1595 conicto
832 1398 832 1056 conicto
832 716 1013 518 conicto
1194 320 1504 320 conicto
1814 320 1995 518 conicto
2176 716 2176 1056 conicto
2176 1398 1995 1595 conicto
1814 1792 1504 1792 conicto
2432 3264 moveto
2432 2880 lineto
2259 2942 2083 2975 conicto
1908 3008 1736 3008 conicto
1282 3008 1042 2695 conicto
802 2382 768 1750 conicto
900 1956 1099 2066 conicto
1298 2176 1537 2176 conicto
2040 2176 2332 1875 conicto
2624 1574 2624 1056 conicto
2624 548 2320 242 conicto
2016 -64 1511 -64 conicto
932 -64 626 379 conicto
320 822 320 1663 conicto
320 2453 700 2922 conicto
1080 3392 1720 3392 conicto
1892 3392 2067 3360 conicto
2242 3328 2432 3264 conicto
end_ol grestore 
gsave 12.505402 13.435881 translate 0.035278 -0.035278 scale
start_ol
1471 1600 moveto
1143 1600 955 1429 conicto
768 1259 768 960 conicto
768 661 955 490 conicto
1143 320 1471 320 conicto
1799 320 1987 492 conicto
2176 664 2176 960 conicto
2176 1259 1988 1429 conicto
1801 1600 1471 1600 conicto
1003 1808 moveto
711 1878 547 2072 conicto
384 2266 384 2546 conicto
384 2937 674 3164 conicto
965 3392 1472 3392 conicto
1981 3392 2270 3164 conicto
2560 2937 2560 2546 conicto
2560 2266 2396 2072 conicto
2232 1878 1941 1808 conicto
2263 1730 2443 1505 conicto
2624 1281 2624 956 conicto
2624 463 2326 199 conicto
2028 -64 1472 -64 conicto
916 -64 618 199 conicto
320 463 320 956 conicto
320 1281 501 1505 conicto
682 1730 1003 1808 conicto
832 2496 moveto
832 2255 999 2119 conicto
1167 1984 1471 1984 conicto
1771 1984 1941 2119 conicto
2112 2255 2112 2496 conicto
2112 2738 1941 2873 conicto
1771 3008 1471 3008 conicto
1167 3008 999 2873 conicto
832 2738 832 2496 conicto
end_ol grestore 
gsave 12.894868 13.435881 translate 0.035278 -0.035278 scale
start_ol
512 576 moveto
960 576 lineto
960 0 lineto
512 0 lineto
512 576 lineto
end_ol grestore 
gsave 13.089602 13.435881 translate 0.035278 -0.035278 scale
start_ol
576 384 moveto
1344 384 lineto
1344 2944 lineto
512 2752 lineto
512 3136 lineto
1330 3328 lineto
1792 3328 lineto
1792 384 lineto
2560 384 lineto
2560 0 lineto
576 0 lineto
576 384 lineto
end_ol grestore 
gsave 13.479068 13.435881 translate 0.035278 -0.035278 scale
start_ol
1471 3008 moveto
1120 3008 944 2672 conicto
768 2336 768 1663 conicto
768 992 944 656 conicto
1120 320 1471 320 conicto
1824 320 2000 656 conicto
2176 992 2176 1663 conicto
2176 2336 2000 2672 conicto
1824 3008 1471 3008 conicto
1472 3392 moveto
2033 3392 2328 2949 conicto
2624 2506 2624 1663 conicto
2624 822 2328 379 conicto
2033 -64 1472 -64 conicto
911 -64 615 379 conicto
320 822 320 1663 conicto
320 2506 615 2949 conicto
911 3392 1472 3392 conicto
end_ol grestore 
gsave 13.868535 13.435881 translate 0.035278 -0.035278 scale
start_ol
1471 3008 moveto
1120 3008 944 2672 conicto
768 2336 768 1663 conicto
768 992 944 656 conicto
1120 320 1471 320 conicto
1824 320 2000 656 conicto
2176 992 2176 1663 conicto
2176 2336 2000 2672 conicto
1824 3008 1471 3008 conicto
1472 3392 moveto
2033 3392 2328 2949 conicto
2624 2506 2624 1663 conicto
2624 822 2328 379 conicto
2033 -64 1472 -64 conicto
911 -64 615 379 conicto
320 822 320 1663 conicto
320 2506 615 2949 conicto
911 3392 1472 3392 conicto
end_ol grestore 
gsave 14.258002 13.435881 translate 0.035278 -0.035278 scale
start_ol
512 576 moveto
960 576 lineto
960 0 lineto
512 0 lineto
512 576 lineto
end_ol grestore 
gsave 14.452735 13.435881 translate 0.035278 -0.035278 scale
start_ol
853 384 moveto
2450 384 lineto
2450 0 lineto
320 0 lineto
320 384 lineto
579 648 1027 1094 conicto
1476 1540 1591 1669 conicto
1810 1911 1897 2079 conicto
1984 2247 1984 2409 conicto
1984 2674 1793 2841 conicto
1602 3008 1295 3008 conicto
1078 3008 836 2944 conicto
595 2881 320 2752 conicto
320 3200 lineto
597 3296 838 3344 conicto
1079 3392 1279 3392 conicto
1805 3392 2118 3133 conicto
2432 2875 2432 2443 conicto
2432 2238 2353 2054 conicto
2275 1870 2070 1620 conicto
2012 1556 1708 1247 conicto
1405 939 853 384 conicto
end_ol grestore 
gsave 14.842202 13.435881 translate 0.035278 -0.035278 scale
start_ol
448 3328 moveto
2240 3328 lineto
2240 2944 lineto
896 2944 lineto
896 2172 lineto
994 2206 1092 2223 conicto
1190 2240 1288 2240 conicto
1845 2240 2170 1929 conicto
2496 1618 2496 1088 conicto
2496 542 2158 239 conicto
1820 -64 1205 -64 conicto
993 -64 773 -32 conicto
554 0 320 64 conicto
320 512 lineto
523 415 740 367 conicto
957 320 1200 320 conicto
1591 320 1819 527 conicto
2048 734 2048 1089 conicto
2048 1443 1817 1649 conicto
1587 1856 1192 1856 conicto
1008 1856 824 1809 conicto
640 1762 448 1664 conicto
448 3328 lineto
end_ol grestore 
gsave 15.231668 13.435881 translate 0.035278 -0.035278 scale
start_ol
1792 2934 moveto
630 1152 lineto
1792 1152 lineto
1792 2934 lineto
1664 3328 moveto
2240 3328 lineto
2240 1152 lineto
2688 1152 lineto
2688 768 lineto
2240 768 lineto
2240 0 lineto
1792 0 lineto
1792 768 lineto
256 768 lineto
256 1206 lineto
1664 3328 lineto
end_ol grestore 
gsave 15.621135 13.435881 translate 0.035278 -0.035278 scale
start_ol
end_ol grestore 
gsave 15.815868 13.435881 translate 0.035278 -0.035278 scale
start_ol
2112 2112 moveto
2112 3520 lineto
2496 3520 lineto
2496 0 lineto
2112 0 lineto
2112 384 lineto
1980 156 1779 46 conicto
1578 -64 1297 -64 conicto
835 -64 545 297 conicto
256 659 256 1248 conicto
256 1837 545 2198 conicto
835 2560 1297 2560 conicto
1578 2560 1779 2450 conicto
1980 2340 2112 2112 conicto
704 1249 moveto
704 784 891 520 conicto
1079 256 1407 256 conicto
1735 256 1923 520 conicto
2112 784 2112 1249 conicto
2112 1713 1923 1976 conicto
1735 2240 1407 2240 conicto
1079 2240 891 1976 conicto
704 1713 704 1249 conicto
end_ol grestore 
gsave 16.205335 13.435881 translate 0.035278 -0.035278 scale
start_ol
2624 1352 moveto
2624 1152 lineto
704 1152 lineto
731 715 960 485 conicto
1189 256 1597 256 conicto
1834 256 2056 320 conicto
2278 384 2496 512 conicto
2496 128 lineto
2273 34 2039 -15 conicto
1805 -64 1565 -64 conicto
961 -64 608 284 conicto
256 632 256 1225 conicto
256 1839 595 2199 conicto
934 2560 1509 2560 conicto
2024 2560 2324 2235 conicto
2624 1910 2624 1352 conicto
2240 1472 moveto
2235 1822 2043 2031 conicto
1852 2240 1537 2240 conicto
1180 2240 965 2038 conicto
750 1836 718 1470 conicto
2240 1472 lineto
end_ol grestore 
gsave 16.577868 13.435881 translate 0.035278 -0.035278 scale
start_ol
128 2496 moveto
563 2496 lineto
1344 401 lineto
2125 2496 lineto
2560 2496 lineto
1623 0 lineto
1065 0 lineto
128 2496 lineto
end_ol grestore 
gsave 16.941935 13.435881 translate 0.035278 -0.035278 scale
start_ol
end_ol grestore 
gsave 17.136668 13.435881 translate 0.035278 -0.035278 scale
start_ol
2624 1352 moveto
2624 1152 lineto
704 1152 lineto
731 715 960 485 conicto
1189 256 1597 256 conicto
1834 256 2056 320 conicto
2278 384 2496 512 conicto
2496 128 lineto
2273 34 2039 -15 conicto
1805 -64 1565 -64 conicto
961 -64 608 284 conicto
256 632 256 1225 conicto
256 1839 595 2199 conicto
934 2560 1509 2560 conicto
2024 2560 2324 2235 conicto
2624 1910 2624 1352 conicto
2240 1472 moveto
2235 1822 2043 2031 conicto
1852 2240 1537 2240 conicto
1180 2240 965 2038 conicto
750 1836 718 1470 conicto
2240 1472 lineto
end_ol grestore 
gsave 17.509202 13.435881 translate 0.035278 -0.035278 scale
start_ol
832 3200 moveto
832 2496 lineto
1664 2496 lineto
1664 2176 lineto
832 2176 lineto
832 804 lineto
832 495 914 407 conicto
997 320 1248 320 conicto
1664 320 lineto
1664 0 lineto
1248 0 lineto
793 0 620 173 conicto
448 347 448 804 conicto
448 2176 lineto
128 2176 lineto
128 2496 lineto
448 2496 lineto
448 3200 lineto
832 3200 lineto
end_ol grestore 
gsave 17.746268 13.435881 translate 0.035278 -0.035278 scale
start_ol
2560 1509 moveto
2560 0 lineto
2176 0 lineto
2176 1496 lineto
2176 1869 2029 2054 conicto
1883 2240 1590 2240 conicto
1238 2240 1035 2018 conicto
832 1796 832 1413 conicto
832 0 lineto
448 0 lineto
448 3520 lineto
832 3520 lineto
832 2112 lineto
983 2337 1188 2448 conicto
1394 2560 1662 2560 conicto
2106 2560 2333 2293 conicto
2560 2027 2560 1509 conicto
end_ol grestore 
gsave 18.135735 13.435881 translate 0.035278 -0.035278 scale
start_ol
853 384 moveto
2450 384 lineto
2450 0 lineto
320 0 lineto
320 384 lineto
579 648 1027 1094 conicto
1476 1540 1591 1669 conicto
1810 1911 1897 2079 conicto
1984 2247 1984 2409 conicto
1984 2674 1793 2841 conicto
1602 3008 1295 3008 conicto
1078 3008 836 2944 conicto
595 2881 320 2752 conicto
320 3200 lineto
597 3296 838 3344 conicto
1079 3392 1279 3392 conicto
1805 3392 2118 3133 conicto
2432 2875 2432 2443 conicto
2432 2238 2353 2054 conicto
2275 1870 2070 1620 conicto
2012 1556 1708 1247 conicto
1405 939 853 384 conicto
end_ol grestore 
0.100000 slw
[] 0 sd
[] 0 sd
0 slc
0 slj
0.080000 slw
0 slc
0 slj
[] 0 sd
0.701961 0.701961 0.701961 srgb
n 3.049999 11.950000 m 3.049999 12.890000 l 5.186361 12.890000 l 5.186361 11.950000 l f
0.000000 0.000000 0.000000 srgb
n 3.049999 11.950000 m 3.049999 12.890000 l 5.186361 12.890000 l 5.186361 11.950000 l cp s
0.100000 slw
0 slc
0 slj
[] 0 sd
n 3.263635 12.270455 m 3.263635 12.373000 l 3.370453 12.373000 l 3.370453 12.270455 l f
0 slc
0 slj
[] 0 sd
n 3.477271 12.270455 m 3.477271 12.373000 l 3.584090 12.373000 l 3.584090 12.270455 l f
0 slc
0 slj
[] 0 sd
n 3.690908 12.270455 m 3.690908 12.373000 l 3.797726 12.373000 l 3.797726 12.270455 l f
0 slc
0 slj
[] 0 sd
n 3.904544 12.270455 m 3.904544 12.373000 l 4.011362 12.373000 l 4.011362 12.270455 l f
0 slc
0 slj
[] 0 sd
n 4.118180 12.270455 m 4.118180 12.373000 l 4.224998 12.373000 l 4.224998 12.270455 l f
0 slc
0 slj
[] 0 sd
n 4.331816 12.270455 m 4.331816 12.373000 l 4.438634 12.373000 l 4.438634 12.270455 l f
0 slc
0 slj
[] 0 sd
n 4.545452 12.270455 m 4.545452 12.373000 l 4.652270 12.373000 l 4.652270 12.270455 l f
0 slc
0 slj
[] 0 sd
n 4.759089 12.270455 m 4.759089 12.373000 l 4.865907 12.373000 l 4.865907 12.270455 l f
gsave 2.839713 13.532727 translate 0.035278 -0.035278 scale
start_ol
2075 1568 moveto
2215 1519 2346 1356 conicto
2478 1194 2612 910 conicto
3072 0 lineto
2587 0 lineto
2184 855 lineto
2012 1189 1850 1298 conicto
1688 1408 1409 1408 conicto
896 1408 lineto
896 0 lineto
448 0 lineto
448 3328 lineto
1488 3328 lineto
2060 3328 2342 3090 conicto
2624 2853 2624 2374 conicto
2624 2061 2484 1854 conicto
2344 1648 2075 1568 conicto
896 2944 moveto
896 1792 lineto
1488 1792 lineto
1829 1792 2002 1939 conicto
2176 2086 2176 2370 conicto
2176 2655 2002 2799 conicto
1829 2944 1488 2944 conicto
896 2944 lineto
end_ol grestore 
gsave 3.237647 13.532727 translate 0.035278 -0.035278 scale
start_ol
1409 2240 moveto
1083 2240 893 1974 conicto
704 1709 704 1248 conicto
704 787 892 521 conicto
1081 256 1409 256 conicto
1733 256 1922 522 conicto
2112 789 2112 1248 conicto
2112 1705 1922 1972 conicto
1733 2240 1409 2240 conicto
1408 2560 moveto
1946 2560 2253 2212 conicto
2560 1864 2560 1248 conicto
2560 634 2253 285 conicto
1946 -64 1408 -64 conicto
869 -64 562 285 conicto
256 634 256 1248 conicto
256 1864 562 2212 conicto
869 2560 1408 2560 conicto
end_ol grestore 
gsave 3.610180 13.532727 translate 0.035278 -0.035278 scale
start_ol
448 986 moveto
448 2496 lineto
832 2496 lineto
832 1001 lineto
832 629 978 442 conicto
1124 256 1417 256 conicto
1768 256 1972 477 conicto
2176 699 2176 1081 conicto
2176 2496 lineto
2560 2496 lineto
2560 0 lineto
2176 0 lineto
2176 384 lineto
2022 157 1819 46 conicto
1617 -64 1349 -64 conicto
906 -64 677 203 conicto
448 471 448 986 conicto
end_ol grestore 
gsave 3.999647 13.532727 translate 0.035278 -0.035278 scale
start_ol
832 3200 moveto
832 2496 lineto
1664 2496 lineto
1664 2176 lineto
832 2176 lineto
832 804 lineto
832 495 914 407 conicto
997 320 1248 320 conicto
1664 320 lineto
1664 0 lineto
1248 0 lineto
793 0 620 173 conicto
448 347 448 804 conicto
448 2176 lineto
128 2176 lineto
128 2496 lineto
448 2496 lineto
448 3200 lineto
832 3200 lineto
end_ol grestore 
gsave 4.236713 13.532727 translate 0.035278 -0.035278 scale
start_ol
2624 1352 moveto
2624 1152 lineto
704 1152 lineto
731 715 960 485 conicto
1189 256 1597 256 conicto
1834 256 2056 320 conicto
2278 384 2496 512 conicto
2496 128 lineto
2273 34 2039 -15 conicto
1805 -64 1565 -64 conicto
961 -64 608 284 conicto
256 632 256 1225 conicto
256 1839 595 2199 conicto
934 2560 1509 2560 conicto
2024 2560 2324 2235 conicto
2624 1910 2624 1352 conicto
2240 1472 moveto
2235 1822 2043 2031 conicto
1852 2240 1537 2240 conicto
1180 2240 965 2038 conicto
750 1836 718 1470 conicto
2240 1472 lineto
end_ol grestore 
gsave 4.609247 13.532727 translate 0.035278 -0.035278 scale
start_ol
1920 2112 moveto
1848 2178 1764 2209 conicto
1680 2240 1578 2240 conicto
1218 2240 1025 2001 conicto
832 1763 832 1317 conicto
832 0 lineto
448 0 lineto
448 2496 lineto
832 2496 lineto
832 2112 lineto
965 2339 1180 2449 conicto
1396 2560 1702 2560 conicto
1747 2560 1799 2560 conicto
1852 2560 1917 2560 conicto
1920 2112 lineto
end_ol grestore 
gsave 4.863247 13.532727 translate 0.035278 -0.035278 scale
start_ol
end_ol grestore 
gsave 5.057980 13.532727 translate 0.035278 -0.035278 scale
start_ol
576 384 moveto
1344 384 lineto
1344 2944 lineto
512 2752 lineto
512 3136 lineto
1330 3328 lineto
1792 3328 lineto
1792 384 lineto
2560 384 lineto
2560 0 lineto
576 0 lineto
576 384 lineto
end_ol grestore 
gsave 1.425780 14.332727 translate 0.035278 -0.035278 scale
start_ol
448 3328 moveto
896 3328 lineto
896 0 lineto
448 0 lineto
448 3328 lineto
end_ol grestore 
gsave 1.603580 14.332727 translate 0.035278 -0.035278 scale
start_ol
896 2944 moveto
896 1728 lineto
1488 1728 lineto
1817 1728 1996 1886 conicto
2176 2044 2176 2337 conicto
2176 2627 1996 2785 conicto
1817 2944 1488 2944 conicto
896 2944 lineto
448 3328 moveto
1488 3328 lineto
2050 3328 2337 3076 conicto
2624 2824 2624 2337 conicto
2624 1847 2337 1595 conicto
2050 1344 1488 1344 conicto
896 1344 lineto
896 0 lineto
448 0 lineto
448 3328 lineto
end_ol grestore 
gsave 1.967647 14.332727 translate 0.035278 -0.035278 scale
start_ol
512 576 moveto
960 576 lineto
960 0 lineto
512 0 lineto
512 576 lineto
512 2368 moveto
960 2368 lineto
960 1792 lineto
512 1792 lineto
512 2368 lineto
end_ol grestore 
gsave 2.170847 14.332727 translate 0.035278 -0.035278 scale
start_ol
end_ol grestore 
gsave 2.365580 14.332727 translate 0.035278 -0.035278 scale
start_ol
576 384 moveto
1344 384 lineto
1344 2944 lineto
512 2752 lineto
512 3136 lineto
1330 3328 lineto
1792 3328 lineto
1792 384 lineto
2560 384 lineto
2560 0 lineto
576 0 lineto
576 384 lineto
end_ol grestore 
gsave 2.755047 14.332727 translate 0.035278 -0.035278 scale
start_ol
512 64 moveto
512 448 lineto
684 386 861 353 conicto
1038 320 1209 320 conicto
1663 320 1902 632 conicto
2142 944 2176 1578 conicto
2046 1372 1847 1262 conicto
1648 1152 1406 1152 conicto
905 1152 612 1451 conicto
320 1750 320 2270 conicto
320 2778 624 3085 conicto
928 3392 1434 3392 conicto
2014 3392 2319 2949 conicto
2624 2506 2624 1663 conicto
2624 875 2245 405 conicto
1866 -64 1226 -64 conicto
1055 -64 878 -32 conicto
702 0 512 64 conicto
1440 1536 moveto
1750 1536 1931 1733 conicto
2112 1930 2112 2272 conicto
2112 2612 1931 2810 conicto
1750 3008 1440 3008 conicto
1130 3008 949 2810 conicto
768 2612 768 2272 conicto
768 1930 949 1733 conicto
1130 1536 1440 1536 conicto
end_ol grestore 
gsave 3.144513 14.332727 translate 0.035278 -0.035278 scale
start_ol
853 384 moveto
2450 384 lineto
2450 0 lineto
320 0 lineto
320 384 lineto
579 648 1027 1094 conicto
1476 1540 1591 1669 conicto
1810 1911 1897 2079 conicto
1984 2247 1984 2409 conicto
1984 2674 1793 2841 conicto
1602 3008 1295 3008 conicto
1078 3008 836 2944 conicto
595 2881 320 2752 conicto
320 3200 lineto
597 3296 838 3344 conicto
1079 3392 1279 3392 conicto
1805 3392 2118 3133 conicto
2432 2875 2432 2443 conicto
2432 2238 2353 2054 conicto
2275 1870 2070 1620 conicto
2012 1556 1708 1247 conicto
1405 939 853 384 conicto
end_ol grestore 
gsave 3.533980 14.332727 translate 0.035278 -0.035278 scale
start_ol
512 576 moveto
960 576 lineto
960 0 lineto
512 0 lineto
512 576 lineto
end_ol grestore 
gsave 3.728713 14.332727 translate 0.035278 -0.035278 scale
start_ol
576 384 moveto
1344 384 lineto
1344 2944 lineto
512 2752 lineto
512 3136 lineto
1330 3328 lineto
1792 3328 lineto
1792 384 lineto
2560 384 lineto
2560 0 lineto
576 0 lineto
576 384 lineto
end_ol grestore 
gsave 4.118180 14.332727 translate 0.035278 -0.035278 scale
start_ol
1504 1792 moveto
1194 1792 1013 1595 conicto
832 1398 832 1056 conicto
832 716 1013 518 conicto
1194 320 1504 320 conicto
1814 320 1995 518 conicto
2176 716 2176 1056 conicto
2176 1398 1995 1595 conicto
1814 1792 1504 1792 conicto
2432 3264 moveto
2432 2880 lineto
2259 2942 2083 2975 conicto
1908 3008 1736 3008 conicto
1282 3008 1042 2695 conicto
802 2382 768 1750 conicto
900 1956 1099 2066 conicto
1298 2176 1537 2176 conicto
2040 2176 2332 1875 conicto
2624 1574 2624 1056 conicto
2624 548 2320 242 conicto
2016 -64 1511 -64 conicto
932 -64 626 379 conicto
320 822 320 1663 conicto
320 2453 700 2922 conicto
1080 3392 1720 3392 conicto
1892 3392 2067 3360 conicto
2242 3328 2432 3264 conicto
end_ol grestore 
gsave 4.507647 14.332727 translate 0.035278 -0.035278 scale
start_ol
1471 1600 moveto
1143 1600 955 1429 conicto
768 1259 768 960 conicto
768 661 955 490 conicto
1143 320 1471 320 conicto
1799 320 1987 492 conicto
2176 664 2176 960 conicto
2176 1259 1988 1429 conicto
1801 1600 1471 1600 conicto
1003 1808 moveto
711 1878 547 2072 conicto
384 2266 384 2546 conicto
384 2937 674 3164 conicto
965 3392 1472 3392 conicto
1981 3392 2270 3164 conicto
2560 2937 2560 2546 conicto
2560 2266 2396 2072 conicto
2232 1878 1941 1808 conicto
2263 1730 2443 1505 conicto
2624 1281 2624 956 conicto
2624 463 2326 199 conicto
2028 -64 1472 -64 conicto
916 -64 618 199 conicto
320 463 320 956 conicto
320 1281 501 1505 conicto
682 1730 1003 1808 conicto
832 2496 moveto
832 2255 999 2119 conicto
1167 1984 1471 1984 conicto
1771 1984 1941 2119 conicto
2112 2255 2112 2496 conicto
2112 2738 1941 2873 conicto
1771 3008 1471 3008 conicto
1167 3008 999 2873 conicto
832 2738 832 2496 conicto
end_ol grestore 
gsave 4.897113 14.332727 translate 0.035278 -0.035278 scale
start_ol
512 576 moveto
960 576 lineto
960 0 lineto
512 0 lineto
512 576 lineto
end_ol grestore 
gsave 5.091847 14.332727 translate 0.035278 -0.035278 scale
start_ol
576 384 moveto
1344 384 lineto
1344 2944 lineto
512 2752 lineto
512 3136 lineto
1330 3328 lineto
1792 3328 lineto
1792 384 lineto
2560 384 lineto
2560 0 lineto
576 0 lineto
576 384 lineto
end_ol grestore 
gsave 5.481313 14.332727 translate 0.035278 -0.035278 scale
start_ol
512 576 moveto
960 576 lineto
960 0 lineto
512 0 lineto
512 576 lineto
end_ol grestore 
gsave 5.676047 14.332727 translate 0.035278 -0.035278 scale
start_ol
853 384 moveto
2450 384 lineto
2450 0 lineto
320 0 lineto
320 384 lineto
579 648 1027 1094 conicto
1476 1540 1591 1669 conicto
1810 1911 1897 2079 conicto
1984 2247 1984 2409 conicto
1984 2674 1793 2841 conicto
1602 3008 1295 3008 conicto
1078 3008 836 2944 conicto
595 2881 320 2752 conicto
320 3200 lineto
597 3296 838 3344 conicto
1079 3392 1279 3392 conicto
1805 3392 2118 3133 conicto
2432 2875 2432 2443 conicto
2432 2238 2353 2054 conicto
2275 1870 2070 1620 conicto
2012 1556 1708 1247 conicto
1405 939 853 384 conicto
end_ol grestore 
gsave 6.065513 14.332727 translate 0.035278 -0.035278 scale
start_ol
448 3328 moveto
2240 3328 lineto
2240 2944 lineto
896 2944 lineto
896 2172 lineto
994 2206 1092 2223 conicto
1190 2240 1288 2240 conicto
1845 2240 2170 1929 conicto
2496 1618 2496 1088 conicto
2496 542 2158 239 conicto
1820 -64 1205 -64 conicto
993 -64 773 -32 conicto
554 0 320 64 conicto
320 512 lineto
523 415 740 367 conicto
957 320 1200 320 conicto
1591 320 1819 527 conicto
2048 734 2048 1089 conicto
2048 1443 1817 1649 conicto
1587 1856 1192 1856 conicto
1008 1856 824 1809 conicto
640 1762 448 1664 conicto
448 3328 lineto
end_ol grestore 
gsave 6.454980 14.332727 translate 0.035278 -0.035278 scale
start_ol
1792 2934 moveto
630 1152 lineto
1792 1152 lineto
1792 2934 lineto
1664 3328 moveto
2240 3328 lineto
2240 1152 lineto
2688 1152 lineto
2688 768 lineto
2240 768 lineto
2240 0 lineto
1792 0 lineto
1792 768 lineto
256 768 lineto
256 1206 lineto
1664 3328 lineto
end_ol grestore 
0.100000 slw
[] 0 sd
[] 0 sd
0 slj
0 slc
n 14.350000 11.000000 m 14.350000 11.050000 l 20.250000 11.050000 l 20.250000 15.450000 l s
gsave 14.250000 9.350000 translate 0.035278 -0.035278 scale
start_ol
448 3328 moveto
896 3328 lineto
896 0 lineto
448 0 lineto
448 3328 lineto
end_ol grestore 
gsave 14.427800 9.350000 translate 0.035278 -0.035278 scale
start_ol
896 2944 moveto
896 1728 lineto
1488 1728 lineto
1817 1728 1996 1886 conicto
2176 2044 2176 2337 conicto
2176 2627 1996 2785 conicto
1817 2944 1488 2944 conicto
896 2944 lineto
448 3328 moveto
1488 3328 lineto
2050 3328 2337 3076 conicto
2624 2824 2624 2337 conicto
2624 1847 2337 1595 conicto
2050 1344 1488 1344 conicto
896 1344 lineto
896 0 lineto
448 0 lineto
448 3328 lineto
end_ol grestore 
gsave 14.791867 9.350000 translate 0.035278 -0.035278 scale
start_ol
512 576 moveto
960 576 lineto
960 0 lineto
512 0 lineto
512 576 lineto
512 2368 moveto
960 2368 lineto
960 1792 lineto
512 1792 lineto
512 2368 lineto
end_ol grestore 
gsave 14.995067 9.350000 translate 0.035278 -0.035278 scale
start_ol
end_ol grestore 
gsave 15.189800 9.350000 translate 0.035278 -0.035278 scale
start_ol
576 384 moveto
1344 384 lineto
1344 2944 lineto
512 2752 lineto
512 3136 lineto
1330 3328 lineto
1792 3328 lineto
1792 384 lineto
2560 384 lineto
2560 0 lineto
576 0 lineto
576 384 lineto
end_ol grestore 
gsave 15.579267 9.350000 translate 0.035278 -0.035278 scale
start_ol
512 64 moveto
512 448 lineto
684 386 861 353 conicto
1038 320 1209 320 conicto
1663 320 1902 632 conicto
2142 944 2176 1578 conicto
2046 1372 1847 1262 conicto
1648 1152 1406 1152 conicto
905 1152 612 1451 conicto
320 1750 320 2270 conicto
320 2778 624 3085 conicto
928 3392 1434 3392 conicto
2014 3392 2319 2949 conicto
2624 2506 2624 1663 conicto
2624 875 2245 405 conicto
1866 -64 1226 -64 conicto
1055 -64 878 -32 conicto
702 0 512 64 conicto
1440 1536 moveto
1750 1536 1931 1733 conicto
2112 1930 2112 2272 conicto
2112 2612 1931 2810 conicto
1750 3008 1440 3008 conicto
1130 3008 949 2810 conicto
768 2612 768 2272 conicto
768 1930 949 1733 conicto
1130 1536 1440 1536 conicto
end_ol grestore 
gsave 15.968733 9.350000 translate 0.035278 -0.035278 scale
start_ol
853 384 moveto
2450 384 lineto
2450 0 lineto
320 0 lineto
320 384 lineto
579 648 1027 1094 conicto
1476 1540 1591 1669 conicto
1810 1911 1897 2079 conicto
1984 2247 1984 2409 conicto
1984 2674 1793 2841 conicto
1602 3008 1295 3008 conicto
1078 3008 836 2944 conicto
595 2881 320 2752 conicto
320 3200 lineto
597 3296 838 3344 conicto
1079 3392 1279 3392 conicto
1805 3392 2118 3133 conicto
2432 2875 2432 2443 conicto
2432 2238 2353 2054 conicto
2275 1870 2070 1620 conicto
2012 1556 1708 1247 conicto
1405 939 853 384 conicto
end_ol grestore 
gsave 16.358200 9.350000 translate 0.035278 -0.035278 scale
start_ol
512 576 moveto
960 576 lineto
960 0 lineto
512 0 lineto
512 576 lineto
end_ol grestore 
gsave 16.552933 9.350000 translate 0.035278 -0.035278 scale
start_ol
576 384 moveto
1344 384 lineto
1344 2944 lineto
512 2752 lineto
512 3136 lineto
1330 3328 lineto
1792 3328 lineto
1792 384 lineto
2560 384 lineto
2560 0 lineto
576 0 lineto
576 384 lineto
end_ol grestore 
gsave 16.942400 9.350000 translate 0.035278 -0.035278 scale
start_ol
1504 1792 moveto
1194 1792 1013 1595 conicto
832 1398 832 1056 conicto
832 716 1013 518 conicto
1194 320 1504 320 conicto
1814 320 1995 518 conicto
2176 716 2176 1056 conicto
2176 1398 1995 1595 conicto
1814 1792 1504 1792 conicto
2432 3264 moveto
2432 2880 lineto
2259 2942 2083 2975 conicto
1908 3008 1736 3008 conicto
1282 3008 1042 2695 conicto
802 2382 768 1750 conicto
900 1956 1099 2066 conicto
1298 2176 1537 2176 conicto
2040 2176 2332 1875 conicto
2624 1574 2624 1056 conicto
2624 548 2320 242 conicto
2016 -64 1511 -64 conicto
932 -64 626 379 conicto
320 822 320 1663 conicto
320 2453 700 2922 conicto
1080 3392 1720 3392 conicto
1892 3392 2067 3360 conicto
2242 3328 2432 3264 conicto
end_ol grestore 
gsave 17.331867 9.350000 translate 0.035278 -0.035278 scale
start_ol
1471 1600 moveto
1143 1600 955 1429 conicto
768 1259 768 960 conicto
768 661 955 490 conicto
1143 320 1471 320 conicto
1799 320 1987 492 conicto
2176 664 2176 960 conicto
2176 1259 1988 1429 conicto
1801 1600 1471 1600 conicto
1003 1808 moveto
711 1878 547 2072 conicto
384 2266 384 2546 conicto
384 2937 674 3164 conicto
965 3392 1472 3392 conicto
1981 3392 2270 3164 conicto
2560 2937 2560 2546 conicto
2560 2266 2396 2072 conicto
2232 1878 1941 1808 conicto
2263 1730 2443 1505 conicto
2624 1281 2624 956 conicto
2624 463 2326 199 conicto
2028 -64 1472 -64 conicto
916 -64 618 199 conicto
320 463 320 956 conicto
320 1281 501 1505 conicto
682 1730 1003 1808 conicto
832 2496 moveto
832 2255 999 2119 conicto
1167 1984 1471 1984 conicto
1771 1984 1941 2119 conicto
2112 2255 2112 2496 conicto
2112 2738 1941 2873 conicto
1771 3008 1471 3008 conicto
1167 3008 999 2873 conicto
832 2738 832 2496 conicto
end_ol grestore 
gsave 17.721333 9.350000 translate 0.035278 -0.035278 scale
start_ol
512 576 moveto
960 576 lineto
960 0 lineto
512 0 lineto
512 576 lineto
end_ol grestore 
gsave 17.916067 9.350000 translate 0.035278 -0.035278 scale
start_ol
853 384 moveto
2450 384 lineto
2450 0 lineto
320 0 lineto
320 384 lineto
579 648 1027 1094 conicto
1476 1540 1591 1669 conicto
1810 1911 1897 2079 conicto
1984 2247 1984 2409 conicto
1984 2674 1793 2841 conicto
1602 3008 1295 3008 conicto
1078 3008 836 2944 conicto
595 2881 320 2752 conicto
320 3200 lineto
597 3296 838 3344 conicto
1079 3392 1279 3392 conicto
1805 3392 2118 3133 conicto
2432 2875 2432 2443 conicto
2432 2238 2353 2054 conicto
2275 1870 2070 1620 conicto
2012 1556 1708 1247 conicto
1405 939 853 384 conicto
end_ol grestore 
gsave 18.305533 9.350000 translate 0.035278 -0.035278 scale
start_ol
512 576 moveto
960 576 lineto
960 0 lineto
512 0 lineto
512 576 lineto
end_ol grestore 
gsave 18.500267 9.350000 translate 0.035278 -0.035278 scale
start_ol
576 384 moveto
1344 384 lineto
1344 2944 lineto
512 2752 lineto
512 3136 lineto
1330 3328 lineto
1792 3328 lineto
1792 384 lineto
2560 384 lineto
2560 0 lineto
576 0 lineto
576 384 lineto
end_ol grestore 
gsave 18.889733 9.350000 translate 0.035278 -0.035278 scale
start_ol
end_ol grestore 
gsave 19.084467 9.350000 translate 0.035278 -0.035278 scale
start_ol
2112 2112 moveto
2112 3520 lineto
2496 3520 lineto
2496 0 lineto
2112 0 lineto
2112 384 lineto
1980 156 1779 46 conicto
1578 -64 1297 -64 conicto
835 -64 545 297 conicto
256 659 256 1248 conicto
256 1837 545 2198 conicto
835 2560 1297 2560 conicto
1578 2560 1779 2450 conicto
1980 2340 2112 2112 conicto
704 1249 moveto
704 784 891 520 conicto
1079 256 1407 256 conicto
1735 256 1923 520 conicto
2112 784 2112 1249 conicto
2112 1713 1923 1976 conicto
1735 2240 1407 2240 conicto
1079 2240 891 1976 conicto
704 1713 704 1249 conicto
end_ol grestore 
gsave 19.473933 9.350000 translate 0.035278 -0.035278 scale
start_ol
2624 1352 moveto
2624 1152 lineto
704 1152 lineto
731 715 960 485 conicto
1189 256 1597 256 conicto
1834 256 2056 320 conicto
2278 384 2496 512 conicto
2496 128 lineto
2273 34 2039 -15 conicto
1805 -64 1565 -64 conicto
961 -64 608 284 conicto
256 632 256 1225 conicto
256 1839 595 2199 conicto
934 2560 1509 2560 conicto
2024 2560 2324 2235 conicto
2624 1910 2624 1352 conicto
2240 1472 moveto
2235 1822 2043 2031 conicto
1852 2240 1537 2240 conicto
1180 2240 965 2038 conicto
750 1836 718 1470 conicto
2240 1472 lineto
end_ol grestore 
gsave 19.846467 9.350000 translate 0.035278 -0.035278 scale
start_ol
128 2496 moveto
563 2496 lineto
1344 401 lineto
2125 2496 lineto
2560 2496 lineto
1623 0 lineto
1065 0 lineto
128 2496 lineto
end_ol grestore 
gsave 20.210533 9.350000 translate 0.035278 -0.035278 scale
start_ol
end_ol grestore 
gsave 20.405267 9.350000 translate 0.035278 -0.035278 scale
start_ol
2624 1352 moveto
2624 1152 lineto
704 1152 lineto
731 715 960 485 conicto
1189 256 1597 256 conicto
1834 256 2056 320 conicto
2278 384 2496 512 conicto
2496 128 lineto
2273 34 2039 -15 conicto
1805 -64 1565 -64 conicto
961 -64 608 284 conicto
256 632 256 1225 conicto
256 1839 595 2199 conicto
934 2560 1509 2560 conicto
2024 2560 2324 2235 conicto
2624 1910 2624 1352 conicto
2240 1472 moveto
2235 1822 2043 2031 conicto
1852 2240 1537 2240 conicto
1180 2240 965 2038 conicto
750 1836 718 1470 conicto
2240 1472 lineto
end_ol grestore 
gsave 20.777800 9.350000 translate 0.035278 -0.035278 scale
start_ol
832 3200 moveto
832 2496 lineto
1664 2496 lineto
1664 2176 lineto
832 2176 lineto
832 804 lineto
832 495 914 407 conicto
997 320 1248 320 conicto
1664 320 lineto
1664 0 lineto
1248 0 lineto
793 0 620 173 conicto
448 347 448 804 conicto
448 2176 lineto
128 2176 lineto
128 2496 lineto
448 2496 lineto
448 3200 lineto
832 3200 lineto
end_ol grestore 
gsave 21.014867 9.350000 translate 0.035278 -0.035278 scale
start_ol
2560 1509 moveto
2560 0 lineto
2176 0 lineto
2176 1496 lineto
2176 1869 2029 2054 conicto
1883 2240 1590 2240 conicto
1238 2240 1035 2018 conicto
832 1796 832 1413 conicto
832 0 lineto
448 0 lineto
448 3520 lineto
832 3520 lineto
832 2112 lineto
983 2337 1188 2448 conicto
1394 2560 1662 2560 conicto
2106 2560 2333 2293 conicto
2560 2027 2560 1509 conicto
end_ol grestore 
gsave 21.404333 9.350000 translate 0.035278 -0.035278 scale
start_ol
576 384 moveto
1344 384 lineto
1344 2944 lineto
512 2752 lineto
512 3136 lineto
1330 3328 lineto
1792 3328 lineto
1792 384 lineto
2560 384 lineto
2560 0 lineto
576 0 lineto
576 384 lineto
end_ol grestore 
gsave 6.000000 11.000000 translate 0.035278 -0.035278 scale
start_ol
448 3328 moveto
896 3328 lineto
896 0 lineto
448 0 lineto
448 3328 lineto
end_ol grestore 
gsave 6.177800 11.000000 translate 0.035278 -0.035278 scale
start_ol
896 2944 moveto
896 1728 lineto
1488 1728 lineto
1817 1728 1996 1886 conicto
2176 2044 2176 2337 conicto
2176 2627 1996 2785 conicto
1817 2944 1488 2944 conicto
896 2944 lineto
448 3328 moveto
1488 3328 lineto
2050 3328 2337 3076 conicto
2624 2824 2624 2337 conicto
2624 1847 2337 1595 conicto
2050 1344 1488 1344 conicto
896 1344 lineto
896 0 lineto
448 0 lineto
448 3328 lineto
end_ol grestore 
gsave 6.541867 11.000000 translate 0.035278 -0.035278 scale
start_ol
512 576 moveto
960 576 lineto
960 0 lineto
512 0 lineto
512 576 lineto
512 2368 moveto
960 2368 lineto
960 1792 lineto
512 1792 lineto
512 2368 lineto
end_ol grestore 
gsave 6.745067 11.000000 translate 0.035278 -0.035278 scale
start_ol
end_ol grestore 
gsave 6.939800 11.000000 translate 0.035278 -0.035278 scale
start_ol
576 384 moveto
1344 384 lineto
1344 2944 lineto
512 2752 lineto
512 3136 lineto
1330 3328 lineto
1792 3328 lineto
1792 384 lineto
2560 384 lineto
2560 0 lineto
576 0 lineto
576 384 lineto
end_ol grestore 
gsave 7.329267 11.000000 translate 0.035278 -0.035278 scale
start_ol
512 64 moveto
512 448 lineto
684 386 861 353 conicto
1038 320 1209 320 conicto
1663 320 1902 632 conicto
2142 944 2176 1578 conicto
2046 1372 1847 1262 conicto
1648 1152 1406 1152 conicto
905 1152 612 1451 conicto
320 1750 320 2270 conicto
320 2778 624 3085 conicto
928 3392 1434 3392 conicto
2014 3392 2319 2949 conicto
2624 2506 2624 1663 conicto
2624 875 2245 405 conicto
1866 -64 1226 -64 conicto
1055 -64 878 -32 conicto
702 0 512 64 conicto
1440 1536 moveto
1750 1536 1931 1733 conicto
2112 1930 2112 2272 conicto
2112 2612 1931 2810 conicto
1750 3008 1440 3008 conicto
1130 3008 949 2810 conicto
768 2612 768 2272 conicto
768 1930 949 1733 conicto
1130 1536 1440 1536 conicto
end_ol grestore 
gsave 7.718733 11.000000 translate 0.035278 -0.035278 scale
start_ol
853 384 moveto
2450 384 lineto
2450 0 lineto
320 0 lineto
320 384 lineto
579 648 1027 1094 conicto
1476 1540 1591 1669 conicto
1810 1911 1897 2079 conicto
1984 2247 1984 2409 conicto
1984 2674 1793 2841 conicto
1602 3008 1295 3008 conicto
1078 3008 836 2944 conicto
595 2881 320 2752 conicto
320 3200 lineto
597 3296 838 3344 conicto
1079 3392 1279 3392 conicto
1805 3392 2118 3133 conicto
2432 2875 2432 2443 conicto
2432 2238 2353 2054 conicto
2275 1870 2070 1620 conicto
2012 1556 1708 1247 conicto
1405 939 853 384 conicto
end_ol grestore 
gsave 8.108200 11.000000 translate 0.035278 -0.035278 scale
start_ol
512 576 moveto
960 576 lineto
960 0 lineto
512 0 lineto
512 576 lineto
end_ol grestore 
gsave 8.302933 11.000000 translate 0.035278 -0.035278 scale
start_ol
576 384 moveto
1344 384 lineto
1344 2944 lineto
512 2752 lineto
512 3136 lineto
1330 3328 lineto
1792 3328 lineto
1792 384 lineto
2560 384 lineto
2560 0 lineto
576 0 lineto
576 384 lineto
end_ol grestore 
gsave 8.692400 11.000000 translate 0.035278 -0.035278 scale
start_ol
1504 1792 moveto
1194 1792 1013 1595 conicto
832 1398 832 1056 conicto
832 716 1013 518 conicto
1194 320 1504 320 conicto
1814 320 1995 518 conicto
2176 716 2176 1056 conicto
2176 1398 1995 1595 conicto
1814 1792 1504 1792 conicto
2432 3264 moveto
2432 2880 lineto
2259 2942 2083 2975 conicto
1908 3008 1736 3008 conicto
1282 3008 1042 2695 conicto
802 2382 768 1750 conicto
900 1956 1099 2066 conicto
1298 2176 1537 2176 conicto
2040 2176 2332 1875 conicto
2624 1574 2624 1056 conicto
2624 548 2320 242 conicto
2016 -64 1511 -64 conicto
932 -64 626 379 conicto
320 822 320 1663 conicto
320 2453 700 2922 conicto
1080 3392 1720 3392 conicto
1892 3392 2067 3360 conicto
2242 3328 2432 3264 conicto
end_ol grestore 
gsave 9.081867 11.000000 translate 0.035278 -0.035278 scale
start_ol
1471 1600 moveto
1143 1600 955 1429 conicto
768 1259 768 960 conicto
768 661 955 490 conicto
1143 320 1471 320 conicto
1799 320 1987 492 conicto
2176 664 2176 960 conicto
2176 1259 1988 1429 conicto
1801 1600 1471 1600 conicto
1003 1808 moveto
711 1878 547 2072 conicto
384 2266 384 2546 conicto
384 2937 674 3164 conicto
965 3392 1472 3392 conicto
1981 3392 2270 3164 conicto
2560 2937 2560 2546 conicto
2560 2266 2396 2072 conicto
2232 1878 1941 1808 conicto
2263 1730 2443 1505 conicto
2624 1281 2624 956 conicto
2624 463 2326 199 conicto
2028 -64 1472 -64 conicto
916 -64 618 199 conicto
320 463 320 956 conicto
320 1281 501 1505 conicto
682 1730 1003 1808 conicto
832 2496 moveto
832 2255 999 2119 conicto
1167 1984 1471 1984 conicto
1771 1984 1941 2119 conicto
2112 2255 2112 2496 conicto
2112 2738 1941 2873 conicto
1771 3008 1471 3008 conicto
1167 3008 999 2873 conicto
832 2738 832 2496 conicto
end_ol grestore 
gsave 9.471333 11.000000 translate 0.035278 -0.035278 scale
start_ol
512 576 moveto
960 576 lineto
960 0 lineto
512 0 lineto
512 576 lineto
end_ol grestore 
gsave 9.666067 11.000000 translate 0.035278 -0.035278 scale
start_ol
576 384 moveto
1344 384 lineto
1344 2944 lineto
512 2752 lineto
512 3136 lineto
1330 3328 lineto
1792 3328 lineto
1792 384 lineto
2560 384 lineto
2560 0 lineto
576 0 lineto
576 384 lineto
end_ol grestore 
gsave 10.055533 11.000000 translate 0.035278 -0.035278 scale
start_ol
512 576 moveto
960 576 lineto
960 0 lineto
512 0 lineto
512 576 lineto
end_ol grestore 
gsave 10.250267 11.000000 translate 0.035278 -0.035278 scale
start_ol
576 384 moveto
1344 384 lineto
1344 2944 lineto
512 2752 lineto
512 3136 lineto
1330 3328 lineto
1792 3328 lineto
1792 384 lineto
2560 384 lineto
2560 0 lineto
576 0 lineto
576 384 lineto
end_ol grestore 
gsave 10.639733 11.000000 translate 0.035278 -0.035278 scale
start_ol
end_ol grestore 
gsave 10.834467 11.000000 translate 0.035278 -0.035278 scale
start_ol
2112 2112 moveto
2112 3520 lineto
2496 3520 lineto
2496 0 lineto
2112 0 lineto
2112 384 lineto
1980 156 1779 46 conicto
1578 -64 1297 -64 conicto
835 -64 545 297 conicto
256 659 256 1248 conicto
256 1837 545 2198 conicto
835 2560 1297 2560 conicto
1578 2560 1779 2450 conicto
1980 2340 2112 2112 conicto
704 1249 moveto
704 784 891 520 conicto
1079 256 1407 256 conicto
1735 256 1923 520 conicto
2112 784 2112 1249 conicto
2112 1713 1923 1976 conicto
1735 2240 1407 2240 conicto
1079 2240 891 1976 conicto
704 1713 704 1249 conicto
end_ol grestore 
gsave 11.223933 11.000000 translate 0.035278 -0.035278 scale
start_ol
2624 1352 moveto
2624 1152 lineto
704 1152 lineto
731 715 960 485 conicto
1189 256 1597 256 conicto
1834 256 2056 320 conicto
2278 384 2496 512 conicto
2496 128 lineto
2273 34 2039 -15 conicto
1805 -64 1565 -64 conicto
961 -64 608 284 conicto
256 632 256 1225 conicto
256 1839 595 2199 conicto
934 2560 1509 2560 conicto
2024 2560 2324 2235 conicto
2624 1910 2624 1352 conicto
2240 1472 moveto
2235 1822 2043 2031 conicto
1852 2240 1537 2240 conicto
1180 2240 965 2038 conicto
750 1836 718 1470 conicto
2240 1472 lineto
end_ol grestore 
gsave 11.596467 11.000000 translate 0.035278 -0.035278 scale
start_ol
128 2496 moveto
563 2496 lineto
1344 401 lineto
2125 2496 lineto
2560 2496 lineto
1623 0 lineto
1065 0 lineto
128 2496 lineto
end_ol grestore 
gsave 11.960533 11.000000 translate 0.035278 -0.035278 scale
start_ol
end_ol grestore 
gsave 12.155267 11.000000 translate 0.035278 -0.035278 scale
start_ol
2624 1352 moveto
2624 1152 lineto
704 1152 lineto
731 715 960 485 conicto
1189 256 1597 256 conicto
1834 256 2056 320 conicto
2278 384 2496 512 conicto
2496 128 lineto
2273 34 2039 -15 conicto
1805 -64 1565 -64 conicto
961 -64 608 284 conicto
256 632 256 1225 conicto
256 1839 595 2199 conicto
934 2560 1509 2560 conicto
2024 2560 2324 2235 conicto
2624 1910 2624 1352 conicto
2240 1472 moveto
2235 1822 2043 2031 conicto
1852 2240 1537 2240 conicto
1180 2240 965 2038 conicto
750 1836 718 1470 conicto
2240 1472 lineto
end_ol grestore 
gsave 12.527800 11.000000 translate 0.035278 -0.035278 scale
start_ol
832 3200 moveto
832 2496 lineto
1664 2496 lineto
1664 2176 lineto
832 2176 lineto
832 804 lineto
832 495 914 407 conicto
997 320 1248 320 conicto
1664 320 lineto
1664 0 lineto
1248 0 lineto
793 0 620 173 conicto
448 347 448 804 conicto
448 2176 lineto
128 2176 lineto
128 2496 lineto
448 2496 lineto
448 3200 lineto
832 3200 lineto
end_ol grestore 
gsave 12.764867 11.000000 translate 0.035278 -0.035278 scale
start_ol
2560 1509 moveto
2560 0 lineto
2176 0 lineto
2176 1496 lineto
2176 1869 2029 2054 conicto
1883 2240 1590 2240 conicto
1238 2240 1035 2018 conicto
832 1796 832 1413 conicto
832 0 lineto
448 0 lineto
448 3520 lineto
832 3520 lineto
832 2112 lineto
983 2337 1188 2448 conicto
1394 2560 1662 2560 conicto
2106 2560 2333 2293 conicto
2560 2027 2560 1509 conicto
end_ol grestore 
gsave 13.154333 11.000000 translate 0.035278 -0.035278 scale
start_ol
1471 3008 moveto
1120 3008 944 2672 conicto
768 2336 768 1663 conicto
768 992 944 656 conicto
1120 320 1471 320 conicto
1824 320 2000 656 conicto
2176 992 2176 1663 conicto
2176 2336 2000 2672 conicto
1824 3008 1471 3008 conicto
1472 3392 moveto
2033 3392 2328 2949 conicto
2624 2506 2624 1663 conicto
2624 822 2328 379 conicto
2033 -64 1472 -64 conicto
911 -64 615 379 conicto
320 822 320 1663 conicto
320 2506 615 2949 conicto
911 3392 1472 3392 conicto
end_ol grestore 
0.100000 slw
[] 0 sd
[] 0 sd
0 slc
0 slj
0.080000 slw
0 slc
0 slj
[] 0 sd
0.701961 0.701961 0.701961 srgb
n 9.831819 6.790000 m 9.831819 7.730000 l 11.968181 7.730000 l 11.968181 6.790000 l f
0.000000 0.000000 0.000000 srgb
n 9.831819 6.790000 m 9.831819 7.730000 l 11.968181 7.730000 l 11.968181 6.790000 l cp s
0.100000 slw
0 slc
0 slj
[] 0 sd
n 10.045455 7.110455 m 10.045455 7.213000 l 10.152273 7.213000 l 10.152273 7.110455 l f
0 slc
0 slj
[] 0 sd
n 10.259091 7.110455 m 10.259091 7.213000 l 10.365910 7.213000 l 10.365910 7.110455 l f
0 slc
0 slj
[] 0 sd
n 10.472728 7.110455 m 10.472728 7.213000 l 10.579546 7.213000 l 10.579546 7.110455 l f
0 slc
0 slj
[] 0 sd
n 10.686364 7.110455 m 10.686364 7.213000 l 10.793182 7.213000 l 10.793182 7.110455 l f
0 slc
0 slj
[] 0 sd
n 10.900000 7.110455 m 10.900000 7.213000 l 11.006818 7.213000 l 11.006818 7.110455 l f
0 slc
0 slj
[] 0 sd
n 11.113636 7.110455 m 11.113636 7.213000 l 11.220454 7.213000 l 11.220454 7.110455 l f
0 slc
0 slj
[] 0 sd
n 11.327272 7.110455 m 11.327272 7.213000 l 11.434090 7.213000 l 11.434090 7.110455 l f
0 slc
0 slj
[] 0 sd
n 11.540909 7.110455 m 11.540909 7.213000 l 11.647727 7.213000 l 11.647727 7.110455 l f
gsave 9.625767 8.372727 translate 0.035278 -0.035278 scale
start_ol
2075 1568 moveto
2215 1519 2346 1356 conicto
2478 1194 2612 910 conicto
3072 0 lineto
2587 0 lineto
2184 855 lineto
2012 1189 1850 1298 conicto
1688 1408 1409 1408 conicto
896 1408 lineto
896 0 lineto
448 0 lineto
448 3328 lineto
1488 3328 lineto
2060 3328 2342 3090 conicto
2624 2853 2624 2374 conicto
2624 2061 2484 1854 conicto
2344 1648 2075 1568 conicto
896 2944 moveto
896 1792 lineto
1488 1792 lineto
1829 1792 2002 1939 conicto
2176 2086 2176 2370 conicto
2176 2655 2002 2799 conicto
1829 2944 1488 2944 conicto
896 2944 lineto
end_ol grestore 
gsave 10.023700 8.372727 translate 0.035278 -0.035278 scale
start_ol
1409 2240 moveto
1083 2240 893 1974 conicto
704 1709 704 1248 conicto
704 787 892 521 conicto
1081 256 1409 256 conicto
1733 256 1922 522 conicto
2112 789 2112 1248 conicto
2112 1705 1922 1972 conicto
1733 2240 1409 2240 conicto
1408 2560 moveto
1946 2560 2253 2212 conicto
2560 1864 2560 1248 conicto
2560 634 2253 285 conicto
1946 -64 1408 -64 conicto
869 -64 562 285 conicto
256 634 256 1248 conicto
256 1864 562 2212 conicto
869 2560 1408 2560 conicto
end_ol grestore 
gsave 10.396233 8.372727 translate 0.035278 -0.035278 scale
start_ol
448 986 moveto
448 2496 lineto
832 2496 lineto
832 1001 lineto
832 629 978 442 conicto
1124 256 1417 256 conicto
1768 256 1972 477 conicto
2176 699 2176 1081 conicto
2176 2496 lineto
2560 2496 lineto
2560 0 lineto
2176 0 lineto
2176 384 lineto
2022 157 1819 46 conicto
1617 -64 1349 -64 conicto
906 -64 677 203 conicto
448 471 448 986 conicto
end_ol grestore 
gsave 10.785700 8.372727 translate 0.035278 -0.035278 scale
start_ol
832 3200 moveto
832 2496 lineto
1664 2496 lineto
1664 2176 lineto
832 2176 lineto
832 804 lineto
832 495 914 407 conicto
997 320 1248 320 conicto
1664 320 lineto
1664 0 lineto
1248 0 lineto
793 0 620 173 conicto
448 347 448 804 conicto
448 2176 lineto
128 2176 lineto
128 2496 lineto
448 2496 lineto
448 3200 lineto
832 3200 lineto
end_ol grestore 
gsave 11.022767 8.372727 translate 0.035278 -0.035278 scale
start_ol
2624 1352 moveto
2624 1152 lineto
704 1152 lineto
731 715 960 485 conicto
1189 256 1597 256 conicto
1834 256 2056 320 conicto
2278 384 2496 512 conicto
2496 128 lineto
2273 34 2039 -15 conicto
1805 -64 1565 -64 conicto
961 -64 608 284 conicto
256 632 256 1225 conicto
256 1839 595 2199 conicto
934 2560 1509 2560 conicto
2024 2560 2324 2235 conicto
2624 1910 2624 1352 conicto
2240 1472 moveto
2235 1822 2043 2031 conicto
1852 2240 1537 2240 conicto
1180 2240 965 2038 conicto
750 1836 718 1470 conicto
2240 1472 lineto
end_ol grestore 
gsave 11.395300 8.372727 translate 0.035278 -0.035278 scale
start_ol
1920 2112 moveto
1848 2178 1764 2209 conicto
1680 2240 1578 2240 conicto
1218 2240 1025 2001 conicto
832 1763 832 1317 conicto
832 0 lineto
448 0 lineto
448 2496 lineto
832 2496 lineto
832 2112 lineto
965 2339 1180 2449 conicto
1396 2560 1702 2560 conicto
1747 2560 1799 2560 conicto
1852 2560 1917 2560 conicto
1920 2112 lineto
end_ol grestore 
gsave 11.649300 8.372727 translate 0.035278 -0.035278 scale
start_ol
end_ol grestore 
gsave 11.844033 8.372727 translate 0.035278 -0.035278 scale
start_ol
853 384 moveto
2450 384 lineto
2450 0 lineto
320 0 lineto
320 384 lineto
579 648 1027 1094 conicto
1476 1540 1591 1669 conicto
1810 1911 1897 2079 conicto
1984 2247 1984 2409 conicto
1984 2674 1793 2841 conicto
1602 3008 1295 3008 conicto
1078 3008 836 2944 conicto
595 2881 320 2752 conicto
320 3200 lineto
597 3296 838 3344 conicto
1079 3392 1279 3392 conicto
1805 3392 2118 3133 conicto
2432 2875 2432 2443 conicto
2432 2238 2353 2054 conicto
2275 1870 2070 1620 conicto
2012 1556 1708 1247 conicto
1405 939 853 384 conicto
end_ol grestore 
gsave 8.207600 9.172727 translate 0.035278 -0.035278 scale
start_ol
448 3328 moveto
896 3328 lineto
896 0 lineto
448 0 lineto
448 3328 lineto
end_ol grestore 
gsave 8.385400 9.172727 translate 0.035278 -0.035278 scale
start_ol
896 2944 moveto
896 1728 lineto
1488 1728 lineto
1817 1728 1996 1886 conicto
2176 2044 2176 2337 conicto
2176 2627 1996 2785 conicto
1817 2944 1488 2944 conicto
896 2944 lineto
448 3328 moveto
1488 3328 lineto
2050 3328 2337 3076 conicto
2624 2824 2624 2337 conicto
2624 1847 2337 1595 conicto
2050 1344 1488 1344 conicto
896 1344 lineto
896 0 lineto
448 0 lineto
448 3328 lineto
end_ol grestore 
gsave 8.749467 9.172727 translate 0.035278 -0.035278 scale
start_ol
512 576 moveto
960 576 lineto
960 0 lineto
512 0 lineto
512 576 lineto
512 2368 moveto
960 2368 lineto
960 1792 lineto
512 1792 lineto
512 2368 lineto
end_ol grestore 
gsave 8.952667 9.172727 translate 0.035278 -0.035278 scale
start_ol
end_ol grestore 
gsave 9.147400 9.172727 translate 0.035278 -0.035278 scale
start_ol
576 384 moveto
1344 384 lineto
1344 2944 lineto
512 2752 lineto
512 3136 lineto
1330 3328 lineto
1792 3328 lineto
1792 384 lineto
2560 384 lineto
2560 0 lineto
576 0 lineto
576 384 lineto
end_ol grestore 
gsave 9.536867 9.172727 translate 0.035278 -0.035278 scale
start_ol
512 64 moveto
512 448 lineto
684 386 861 353 conicto
1038 320 1209 320 conicto
1663 320 1902 632 conicto
2142 944 2176 1578 conicto
2046 1372 1847 1262 conicto
1648 1152 1406 1152 conicto
905 1152 612 1451 conicto
320 1750 320 2270 conicto
320 2778 624 3085 conicto
928 3392 1434 3392 conicto
2014 3392 2319 2949 conicto
2624 2506 2624 1663 conicto
2624 875 2245 405 conicto
1866 -64 1226 -64 conicto
1055 -64 878 -32 conicto
702 0 512 64 conicto
1440 1536 moveto
1750 1536 1931 1733 conicto
2112 1930 2112 2272 conicto
2112 2612 1931 2810 conicto
1750 3008 1440 3008 conicto
1130 3008 949 2810 conicto
768 2612 768 2272 conicto
768 1930 949 1733 conicto
1130 1536 1440 1536 conicto
end_ol grestore 
gsave 9.926333 9.172727 translate 0.035278 -0.035278 scale
start_ol
853 384 moveto
2450 384 lineto
2450 0 lineto
320 0 lineto
320 384 lineto
579 648 1027 1094 conicto
1476 1540 1591 1669 conicto
1810 1911 1897 2079 conicto
1984 2247 1984 2409 conicto
1984 2674 1793 2841 conicto
1602 3008 1295 3008 conicto
1078 3008 836 2944 conicto
595 2881 320 2752 conicto
320 3200 lineto
597 3296 838 3344 conicto
1079 3392 1279 3392 conicto
1805 3392 2118 3133 conicto
2432 2875 2432 2443 conicto
2432 2238 2353 2054 conicto
2275 1870 2070 1620 conicto
2012 1556 1708 1247 conicto
1405 939 853 384 conicto
end_ol grestore 
gsave 10.315800 9.172727 translate 0.035278 -0.035278 scale
start_ol
512 576 moveto
960 576 lineto
960 0 lineto
512 0 lineto
512 576 lineto
end_ol grestore 
gsave 10.510533 9.172727 translate 0.035278 -0.035278 scale
start_ol
576 384 moveto
1344 384 lineto
1344 2944 lineto
512 2752 lineto
512 3136 lineto
1330 3328 lineto
1792 3328 lineto
1792 384 lineto
2560 384 lineto
2560 0 lineto
576 0 lineto
576 384 lineto
end_ol grestore 
gsave 10.900000 9.172727 translate 0.035278 -0.035278 scale
start_ol
1504 1792 moveto
1194 1792 1013 1595 conicto
832 1398 832 1056 conicto
832 716 1013 518 conicto
1194 320 1504 320 conicto
1814 320 1995 518 conicto
2176 716 2176 1056 conicto
2176 1398 1995 1595 conicto
1814 1792 1504 1792 conicto
2432 3264 moveto
2432 2880 lineto
2259 2942 2083 2975 conicto
1908 3008 1736 3008 conicto
1282 3008 1042 2695 conicto
802 2382 768 1750 conicto
900 1956 1099 2066 conicto
1298 2176 1537 2176 conicto
2040 2176 2332 1875 conicto
2624 1574 2624 1056 conicto
2624 548 2320 242 conicto
2016 -64 1511 -64 conicto
932 -64 626 379 conicto
320 822 320 1663 conicto
320 2453 700 2922 conicto
1080 3392 1720 3392 conicto
1892 3392 2067 3360 conicto
2242 3328 2432 3264 conicto
end_ol grestore 
gsave 11.289467 9.172727 translate 0.035278 -0.035278 scale
start_ol
1471 1600 moveto
1143 1600 955 1429 conicto
768 1259 768 960 conicto
768 661 955 490 conicto
1143 320 1471 320 conicto
1799 320 1987 492 conicto
2176 664 2176 960 conicto
2176 1259 1988 1429 conicto
1801 1600 1471 1600 conicto
1003 1808 moveto
711 1878 547 2072 conicto
384 2266 384 2546 conicto
384 2937 674 3164 conicto
965 3392 1472 3392 conicto
1981 3392 2270 3164 conicto
2560 2937 2560 2546 conicto
2560 2266 2396 2072 conicto
2232 1878 1941 1808 conicto
2263 1730 2443 1505 conicto
2624 1281 2624 956 conicto
2624 463 2326 199 conicto
2028 -64 1472 -64 conicto
916 -64 618 199 conicto
320 463 320 956 conicto
320 1281 501 1505 conicto
682 1730 1003 1808 conicto
832 2496 moveto
832 2255 999 2119 conicto
1167 1984 1471 1984 conicto
1771 1984 1941 2119 conicto
2112 2255 2112 2496 conicto
2112 2738 1941 2873 conicto
1771 3008 1471 3008 conicto
1167 3008 999 2873 conicto
832 2738 832 2496 conicto
end_ol grestore 
gsave 11.678933 9.172727 translate 0.035278 -0.035278 scale
start_ol
512 576 moveto
960 576 lineto
960 0 lineto
512 0 lineto
512 576 lineto
end_ol grestore 
gsave 11.873667 9.172727 translate 0.035278 -0.035278 scale
start_ol
853 384 moveto
2450 384 lineto
2450 0 lineto
320 0 lineto
320 384 lineto
579 648 1027 1094 conicto
1476 1540 1591 1669 conicto
1810 1911 1897 2079 conicto
1984 2247 1984 2409 conicto
1984 2674 1793 2841 conicto
1602 3008 1295 3008 conicto
1078 3008 836 2944 conicto
595 2881 320 2752 conicto
320 3200 lineto
597 3296 838 3344 conicto
1079 3392 1279 3392 conicto
1805 3392 2118 3133 conicto
2432 2875 2432 2443 conicto
2432 2238 2353 2054 conicto
2275 1870 2070 1620 conicto
2012 1556 1708 1247 conicto
1405 939 853 384 conicto
end_ol grestore 
gsave 12.263133 9.172727 translate 0.035278 -0.035278 scale
start_ol
512 576 moveto
960 576 lineto
960 0 lineto
512 0 lineto
512 576 lineto
end_ol grestore 
gsave 12.457867 9.172727 translate 0.035278 -0.035278 scale
start_ol
853 384 moveto
2450 384 lineto
2450 0 lineto
320 0 lineto
320 384 lineto
579 648 1027 1094 conicto
1476 1540 1591 1669 conicto
1810 1911 1897 2079 conicto
1984 2247 1984 2409 conicto
1984 2674 1793 2841 conicto
1602 3008 1295 3008 conicto
1078 3008 836 2944 conicto
595 2881 320 2752 conicto
320 3200 lineto
597 3296 838 3344 conicto
1079 3392 1279 3392 conicto
1805 3392 2118 3133 conicto
2432 2875 2432 2443 conicto
2432 2238 2353 2054 conicto
2275 1870 2070 1620 conicto
2012 1556 1708 1247 conicto
1405 939 853 384 conicto
end_ol grestore 
gsave 12.847333 9.172727 translate 0.035278 -0.035278 scale
start_ol
448 3328 moveto
2240 3328 lineto
2240 2944 lineto
896 2944 lineto
896 2172 lineto
994 2206 1092 2223 conicto
1190 2240 1288 2240 conicto
1845 2240 2170 1929 conicto
2496 1618 2496 1088 conicto
2496 542 2158 239 conicto
1820 -64 1205 -64 conicto
993 -64 773 -32 conicto
554 0 320 64 conicto
320 512 lineto
523 415 740 367 conicto
957 320 1200 320 conicto
1591 320 1819 527 conicto
2048 734 2048 1089 conicto
2048 1443 1817 1649 conicto
1587 1856 1192 1856 conicto
1008 1856 824 1809 conicto
640 1762 448 1664 conicto
448 3328 lineto
end_ol grestore 
gsave 13.236800 9.172727 translate 0.035278 -0.035278 scale
start_ol
1792 2934 moveto
630 1152 lineto
1792 1152 lineto
1792 2934 lineto
1664 3328 moveto
2240 3328 lineto
2240 1152 lineto
2688 1152 lineto
2688 768 lineto
2240 768 lineto
2240 0 lineto
1792 0 lineto
1792 768 lineto
256 768 lineto
256 1206 lineto
1664 3328 lineto
end_ol grestore 
0.150000 slw
[] 0 sd
[] 0 sd
0 slj
0 slc
n 4.812500 12.321700 m 4.812500 11.300000 l 13.550000 11.300000 l 13.550000 11.250000 l s
0.050000 slw
[] 0 sd
[] 0 sd
0 slj
0 slc
n 11.594300 7.161730 m 11.594300 7.200000 l 13.944700 7.200000 l 13.944700 9.750000 l s
0.050000 slw
[] 0 sd
[] 0 sd
0 slj
0 slc
n 8.826490 5.084220 m 8.826490 6.050000 l 10.526100 6.050000 l 10.526100 7.161730 l s
0.150000 slw
[] 0 sd
[] 0 sd
0 slj
0 slc
n 2.000000 6.550000 m 2.000000 9.000000 l 3.530680 9.000000 l 3.530680 12.321700 l s
showpage
