%!PS-Adobe-2.0 EPSF-2.0
%%Title: bilder/2-GW2.dia
%%Creator: Dia v0.93
%%CreationDate: Wed Apr  6 13:49:58 2005
%%For: dirk
%%Orientation: Portrait
%%Magnification: 1.0000
%%BoundingBox: 0 0 490 380
%%BeginSetup
%%EndSetup
%%EndComments
%%BeginProlog
[ /.notdef /.notdef /.notdef /.notdef /.notdef /.notdef /.notdef /.notdef /.notdef /.notdef
/.notdef /.notdef /.notdef /.notdef /.notdef /.notdef /.notdef /.notdef /.notdef /.notdef
/.notdef /.notdef /.notdef /.notdef /.notdef /.notdef /.notdef /.notdef /.notdef /.notdef
/.notdef /.notdef /space /exclam /quotedbl /numbersign /dollar /percent /ampersand /quoteright
/parenleft /parenright /asterisk /plus /comma /hyphen /period /slash /zero /one
/two /three /four /five /six /seven /eight /nine /colon /semicolon
/less /equal /greater /question /at /A /B /C /D /E
/F /G /H /I /J /K /L /M /N /O
/P /Q /R /S /T /U /V /W /X /Y
/Z /bracketleft /backslash /bracketright /asciicircum /underscore /quoteleft /a /b /c
/d /e /f /g /h /i /j /k /l /m
/n /o /p /q /r /s /t /u /v /w
/x /y /z /braceleft /bar /braceright /asciitilde /.notdef /.notdef /.notdef
/.notdef /.notdef /.notdef /.notdef /.notdef /.notdef /.notdef /.notdef /.notdef /.notdef
/.notdef /.notdef /.notdef /.notdef /.notdef /.notdef /.notdef /.notdef /.notdef /.notdef
/.notdef /.notdef /.notdef /.notdef /.notdef /.notdef /.notdef /.notdef /.notdef /.notdef
/space /exclamdown /cent /sterling /currency /yen /brokenbar /section /dieresis /copyright
/ordfeminine /guillemotleft /logicalnot /hyphen /registered /macron /degree /plusminus /twosuperior /threesuperior
/acute /mu /paragraph /periodcentered /cedilla /onesuperior /ordmasculine /guillemotright /onequarter /onehalf
/threequarters /questiondown /Agrave /Aacute /Acircumflex /Atilde /Adieresis /Aring /AE /Ccedilla
/Egrave /Eacute /Ecircumflex /Edieresis /Igrave /Iacute /Icircumflex /Idieresis /Eth /Ntilde
/Ograve /Oacute /Ocircumflex /Otilde /Odieresis /multiply /Oslash /Ugrave /Uacute /Ucircumflex
/Udieresis /Yacute /Thorn /germandbls /agrave /aacute /acircumflex /atilde /adieresis /aring
/ae /ccedilla /egrave /eacute /ecircumflex /edieresis /igrave /iacute /icircumflex /idieresis
/eth /ntilde /ograve /oacute /ocircumflex /otilde /odieresis /divide /oslash /ugrave
/uacute /ucircumflex /udieresis /yacute /thorn /ydieresis] /isolatin1encoding exch def
/cp {closepath} bind def
/c {curveto} bind def
/f {fill} bind def
/a {arc} bind def
/ef {eofill} bind def
/ex {exch} bind def
/gr {grestore} bind def
/gs {gsave} bind def
/sa {save} bind def
/rs {restore} bind def
/l {lineto} bind def
/m {moveto} bind def
/rm {rmoveto} bind def
/n {newpath} bind def
/s {stroke} bind def
/sh {show} bind def
/slc {setlinecap} bind def
/slj {setlinejoin} bind def
/slw {setlinewidth} bind def
/srgb {setrgbcolor} bind def
/rot {rotate} bind def
/sc {scale} bind def
/sd {setdash} bind def
/ff {findfont} bind def
/sf {setfont} bind def
/scf {scalefont} bind def
/sw {stringwidth pop} bind def
/tr {translate} bind def

/ellipsedict 8 dict def
ellipsedict /mtrx matrix put
/ellipse
{ ellipsedict begin
   /endangle exch def
   /startangle exch def
   /yrad exch def
   /xrad exch def
   /y exch def
   /x exch def   /savematrix mtrx currentmatrix def
   x y tr xrad yrad sc
   0 0 1 startangle endangle arc
   savematrix setmatrix
   end
} def

/mergeprocs {
dup length
3 -1 roll
dup
length
dup
5 1 roll
3 -1 roll
add
array cvx
dup
3 -1 roll
0 exch
putinterval
dup
4 2 roll
putinterval
} bind def
/dpi_x 300 def
/dpi_y 300 def
/conicto {
    /to_y exch def
    /to_x exch def
    /conic_cntrl_y exch def
    /conic_cntrl_x exch def
    currentpoint
    /p0_y exch def
    /p0_x exch def
    /p1_x p0_x conic_cntrl_x p0_x sub 2 3 div mul add def
    /p1_y p0_y conic_cntrl_y p0_y sub 2 3 div mul add def
    /p2_x p1_x to_x p0_x sub 1 3 div mul add def
    /p2_y p1_y to_y p0_y sub 1 3 div mul add def
    p1_x p1_y p2_x p2_y to_x to_y curveto
} bind def
/start_ol { gsave 1.1 dpi_x div dup scale} bind def
/end_ol { closepath fill grestore } bind def
28.346000 -28.346000 scale
-1.093180 -16.032726 translate
%%EndProlog


0.100000 slw
[] 0 sd
[] 0 sd
0 slc
0 slj
0 slc
0 slj
[] 0 sd
1.000000 1.000000 1.000000 srgb
n 2.943393 4.364193 m 2.325859 4.344260 1.128220 4.762842 1.296638 5.659802 c 1.465055 6.556763 2.269720 6.756079 2.606556 6.496965 c 2.943393 6.237843 2.082588 7.752702 3.729344 8.151351 c 5.376086 8.550000 6.218177 7.912162 5.974906 7.453715 c 5.731635 6.995269 7.415818 8.530068 8.201769 7.653040 c 8.987721 6.776012 7.397104 5.938857 7.733941 6.058451 c 8.070777 6.178046 9.100000 6.018586 8.763164 4.523653 c 8.426327 3.028719 5.394799 4.184801 5.731635 3.965544 c 6.068472 3.746287 5.226380 2.650000 4.178460 2.869257 c 3.130524 3.088516 3.056195 3.486388 2.943916 4.363416 c 2.943393 4.364193 l f
0.000000 0.000000 0.000000 srgb
n 2.943393 4.364193 m 2.325859 4.344260 1.128220 4.762842 1.296638 5.659802 c 1.465055 6.556763 2.269720 6.756079 2.606556 6.496965 c 2.943393 6.237843 2.082588 7.752702 3.729344 8.151351 c 5.376086 8.550000 6.218177 7.912162 5.974906 7.453715 c 5.731635 6.995269 7.415818 8.530068 8.201769 7.653040 c 8.987721 6.776012 7.397104 5.938857 7.733941 6.058451 c 8.070777 6.178046 9.100000 6.018586 8.763164 4.523653 c 8.426327 3.028719 5.394799 4.184801 5.731635 3.965544 c 6.068472 3.746287 5.226380 2.650000 4.178460 2.869257 c 3.130524 3.088516 3.056195 3.486388 2.943916 4.363416 c 2.943393 4.364193 l s
gsave 4.125539 5.904005 translate 0.035278 -0.035278 scale
start_ol
448 3328 moveto
896 3328 lineto
896 0 lineto
448 0 lineto
448 3328 lineto
end_ol grestore 
gsave 4.303339 5.904005 translate 0.035278 -0.035278 scale
start_ol
2560 1509 moveto
2560 0 lineto
2176 0 lineto
2176 1496 lineto
2176 1869 2029 2054 conicto
1883 2240 1590 2240 conicto
1238 2240 1035 2018 conicto
832 1796 832 1413 conicto
832 0 lineto
448 0 lineto
448 2496 lineto
832 2496 lineto
832 2112 lineto
983 2337 1188 2448 conicto
1394 2560 1662 2560 conicto
2106 2560 2333 2293 conicto
2560 2027 2560 1509 conicto
end_ol grestore 
gsave 4.692806 5.904005 translate 0.035278 -0.035278 scale
start_ol
832 3200 moveto
832 2496 lineto
1664 2496 lineto
1664 2176 lineto
832 2176 lineto
832 804 lineto
832 495 914 407 conicto
997 320 1248 320 conicto
1664 320 lineto
1664 0 lineto
1248 0 lineto
793 0 620 173 conicto
448 347 448 804 conicto
448 2176 lineto
128 2176 lineto
128 2496 lineto
448 2496 lineto
448 3200 lineto
832 3200 lineto
end_ol grestore 
gsave 4.929872 5.904005 translate 0.035278 -0.035278 scale
start_ol
2624 1352 moveto
2624 1152 lineto
704 1152 lineto
731 715 960 485 conicto
1189 256 1597 256 conicto
1834 256 2056 320 conicto
2278 384 2496 512 conicto
2496 128 lineto
2273 34 2039 -15 conicto
1805 -64 1565 -64 conicto
961 -64 608 284 conicto
256 632 256 1225 conicto
256 1839 595 2199 conicto
934 2560 1509 2560 conicto
2024 2560 2324 2235 conicto
2624 1910 2624 1352 conicto
2240 1472 moveto
2235 1822 2043 2031 conicto
1852 2240 1537 2240 conicto
1180 2240 965 2038 conicto
750 1836 718 1470 conicto
2240 1472 lineto
end_ol grestore 
gsave 5.302406 5.904005 translate 0.035278 -0.035278 scale
start_ol
1920 2112 moveto
1848 2178 1764 2209 conicto
1680 2240 1578 2240 conicto
1218 2240 1025 2001 conicto
832 1763 832 1317 conicto
832 0 lineto
448 0 lineto
448 2496 lineto
832 2496 lineto
832 2112 lineto
965 2339 1180 2449 conicto
1396 2560 1702 2560 conicto
1747 2560 1799 2560 conicto
1852 2560 1917 2560 conicto
1920 2112 lineto
end_ol grestore 
gsave 5.547939 5.904005 translate 0.035278 -0.035278 scale
start_ol
2560 1509 moveto
2560 0 lineto
2176 0 lineto
2176 1496 lineto
2176 1869 2029 2054 conicto
1883 2240 1590 2240 conicto
1238 2240 1035 2018 conicto
832 1796 832 1413 conicto
832 0 lineto
448 0 lineto
448 2496 lineto
832 2496 lineto
832 2112 lineto
983 2337 1188 2448 conicto
1394 2560 1662 2560 conicto
2106 2560 2333 2293 conicto
2560 2027 2560 1509 conicto
end_ol grestore 
gsave 5.937406 5.904005 translate 0.035278 -0.035278 scale
start_ol
2624 1352 moveto
2624 1152 lineto
704 1152 lineto
731 715 960 485 conicto
1189 256 1597 256 conicto
1834 256 2056 320 conicto
2278 384 2496 512 conicto
2496 128 lineto
2273 34 2039 -15 conicto
1805 -64 1565 -64 conicto
961 -64 608 284 conicto
256 632 256 1225 conicto
256 1839 595 2199 conicto
934 2560 1509 2560 conicto
2024 2560 2324 2235 conicto
2624 1910 2624 1352 conicto
2240 1472 moveto
2235 1822 2043 2031 conicto
1852 2240 1537 2240 conicto
1180 2240 965 2038 conicto
750 1836 718 1470 conicto
2240 1472 lineto
end_ol grestore 
gsave 6.309939 5.904005 translate 0.035278 -0.035278 scale
start_ol
832 3200 moveto
832 2496 lineto
1664 2496 lineto
1664 2176 lineto
832 2176 lineto
832 804 lineto
832 495 914 407 conicto
997 320 1248 320 conicto
1664 320 lineto
1664 0 lineto
1248 0 lineto
793 0 620 173 conicto
448 347 448 804 conicto
448 2176 lineto
128 2176 lineto
128 2496 lineto
448 2496 lineto
448 3200 lineto
832 3200 lineto
end_ol grestore 
0.100000 slw
[] 0 sd
[] 0 sd
0 slc
0 slj
0.080000 slw
0 slc
0 slj
[] 0 sd
0.701961 0.701961 0.701961 srgb
n 13.475836 9.750001 m 13.475836 11.801432 l 14.355021 11.801432 l 14.355021 9.750001 l f
0.000000 0.000000 0.000000 srgb
n 13.475836 9.750001 m 13.475836 11.801432 l 14.355021 11.801432 l 14.355021 9.750001 l cp s
0.010000 slw
0 slc
0 slj
[] 0 sd
n 13.563755 9.873087 m 13.563755 10.107536 l 14.267103 10.107536 l 14.267103 9.873087 l cp s
0 slc
0 slj
[] 0 sd
n 13.563755 10.107536 m 13.563755 10.341985 l 14.267103 10.341985 l 14.267103 10.107536 l cp s
0 slc
0 slj
[] 0 sd
n 13.563755 10.341985 m 13.563755 10.576435 l 14.267103 10.576435 l 14.267103 10.341985 l cp s
0 slc
0 slj
[] 0 sd
n 13.563755 10.576435 m 13.563755 10.810884 l 14.267103 10.810884 l 14.267103 10.576435 l cp s
0 slc
0 slj
[] 0 sd
n 13.563755 10.857774 m 13.563755 10.998443 l 14.003347 10.998443 l 14.003347 10.857774 l cp s
0 slc
0 slj
[] 0 sd
0.000000 1.000000 0.000000 srgb
n 14.223144 10.881219 0.030771 0.030771 0 360 ellipse f
0.000000 0.000000 0.000000 srgb
n 14.223144 10.881219 0.030771 0.030771 0 360 ellipse cp s
0 slc
0 slj
[] 0 sd
1.000000 1.000000 0.000000 srgb
n 14.223144 10.974998 0.030771 0.030771 0 360 ellipse f
0.000000 0.000000 0.000000 srgb
n 14.223144 10.974998 0.030771 0.030771 0 360 ellipse cp s
0 slc
0 slj
[] 0 sd
1.000000 1.000000 1.000000 srgb
n 14.047307 10.904664 m 14.047307 10.998443 l 14.152809 10.998443 l 14.152809 10.904664 l f
0.000000 0.000000 0.000000 srgb
n 14.047307 10.904664 m 14.047307 10.998443 l 14.152809 10.998443 l 14.152809 10.904664 l cp s
0 slc
0 slj
[] 0 sd
n 13.622367 11.186003 m 13.622367 11.698861 l s
0 slc
0 slj
[] 0 sd
n 13.768898 11.186003 m 13.768898 11.698861 l s
0 slc
0 slj
[] 0 sd
n 13.915429 11.186003 m 13.915429 11.698861 l s
0 slc
0 slj
[] 0 sd
n 14.061960 11.186003 m 14.061960 11.698861 l s
0 slc
0 slj
[] 0 sd
n 14.208490 11.186003 m 14.208490 11.698861 l s
0 slc
0 slj
[] 0 sd
n 14.355021 11.186003 m 14.355021 11.698861 l s
0 slc
0 slj
[] 0 sd
0.600000 0.600000 0.600000 srgb
n 13.299999 11.977269 m 13.475836 11.625595 l 13.475836 11.801432 l 14.355021 11.801432 l 14.355021 11.625595 l 14.589471 11.977269 l f
0.000000 0.000000 0.000000 srgb
n 13.299999 11.977269 m 13.475836 11.625595 l 13.475836 11.801432 l 14.355021 11.801432 l 14.355021 11.625595 l 14.589471 11.977269 l cp s
gsave 11.159202 12.835881 translate 0.035278 -0.035278 scale
start_ol
448 3328 moveto
1131 3328 lineto
1983 1063 lineto
2839 3328 lineto
3520 3328 lineto
3520 0 lineto
3072 0 lineto
3072 2923 lineto
2211 640 lineto
1757 640 lineto
896 2923 lineto
896 0 lineto
448 0 lineto
448 3328 lineto
end_ol grestore 
gsave 11.684135 12.835881 translate 0.035278 -0.035278 scale
start_ol
1559 1280 moveto
1040 1280 840 1160 conicto
640 1041 640 754 conicto
640 525 790 390 conicto
940 256 1198 256 conicto
1554 256 1769 510 conicto
1984 765 1984 1187 conicto
1984 1280 lineto
1559 1280 lineto
2368 1449 moveto
2368 0 lineto
1984 0 lineto
1984 384 lineto
1842 154 1628 45 conicto
1415 -64 1107 -64 conicto
717 -64 486 154 conicto
256 372 256 739 conicto
256 1166 539 1383 conicto
822 1600 1384 1600 conicto
1984 1600 lineto
1984 1641 lineto
1984 1927 1796 2083 conicto
1608 2240 1266 2240 conicto
1049 2240 843 2192 conicto
638 2144 448 2048 conicto
448 2432 lineto
673 2496 884 2528 conicto
1095 2560 1295 2560 conicto
1835 2560 2101 2284 conicto
2368 2009 2368 1449 conicto
end_ol grestore 
gsave 12.056668 12.835881 translate 0.035278 -0.035278 scale
start_ol
2048 2432 moveto
2048 2048 lineto
1868 2144 1674 2192 conicto
1480 2240 1273 2240 conicto
957 2240 798 2144 conicto
640 2048 640 1856 conicto
640 1709 757 1625 conicto
875 1542 1229 1467 conicto
1380 1435 lineto
1812 1341 1994 1170 conicto
2176 999 2176 692 conicto
2176 343 1899 139 conicto
1622 -64 1137 -64 conicto
936 -64 717 -32 conicto
498 0 256 64 conicto
256 512 lineto
490 385 718 320 conicto
947 256 1170 256 conicto
1470 256 1631 358 conicto
1792 461 1792 647 conicto
1792 820 1670 912 conicto
1549 1004 1141 1089 conicto
988 1123 lineto
600 1203 428 1369 conicto
256 1535 256 1824 conicto
256 2177 510 2368 conicto
765 2560 1233 2560 conicto
1466 2560 1670 2528 conicto
1875 2496 2048 2432 conicto
end_ol grestore 
gsave 12.378402 12.835881 translate 0.035278 -0.035278 scale
start_ol
2240 2432 moveto
2240 2048 lineto
2066 2144 1892 2192 conicto
1718 2240 1541 2240 conicto
1143 2240 923 1979 conicto
704 1718 704 1248 conicto
704 778 923 517 conicto
1143 256 1541 256 conicto
1718 256 1892 304 conicto
2066 352 2240 448 conicto
2240 64 lineto
2068 0 1883 -32 conicto
1698 -64 1490 -64 conicto
924 -64 590 290 conicto
256 645 256 1248 conicto
256 1859 593 2209 conicto
931 2560 1517 2560 conicto
1707 2560 1888 2528 conicto
2070 2496 2240 2432 conicto
end_ol grestore 
gsave 12.717068 12.835881 translate 0.035278 -0.035278 scale
start_ol
2560 1509 moveto
2560 0 lineto
2176 0 lineto
2176 1496 lineto
2176 1869 2029 2054 conicto
1883 2240 1590 2240 conicto
1238 2240 1035 2018 conicto
832 1796 832 1413 conicto
832 0 lineto
448 0 lineto
448 3520 lineto
832 3520 lineto
832 2112 lineto
983 2337 1188 2448 conicto
1394 2560 1662 2560 conicto
2106 2560 2333 2293 conicto
2560 2027 2560 1509 conicto
end_ol grestore 
gsave 13.106535 12.835881 translate 0.035278 -0.035278 scale
start_ol
448 2496 moveto
832 2496 lineto
832 0 lineto
448 0 lineto
448 2496 lineto
448 3520 moveto
832 3520 lineto
832 3008 lineto
448 3008 lineto
448 3520 lineto
end_ol grestore 
gsave 13.275868 12.835881 translate 0.035278 -0.035278 scale
start_ol
2560 1509 moveto
2560 0 lineto
2176 0 lineto
2176 1496 lineto
2176 1869 2029 2054 conicto
1883 2240 1590 2240 conicto
1238 2240 1035 2018 conicto
832 1796 832 1413 conicto
832 0 lineto
448 0 lineto
448 2496 lineto
832 2496 lineto
832 2112 lineto
983 2337 1188 2448 conicto
1394 2560 1662 2560 conicto
2106 2560 2333 2293 conicto
2560 2027 2560 1509 conicto
end_ol grestore 
gsave 13.665335 12.835881 translate 0.035278 -0.035278 scale
start_ol
2624 1352 moveto
2624 1152 lineto
704 1152 lineto
731 715 960 485 conicto
1189 256 1597 256 conicto
1834 256 2056 320 conicto
2278 384 2496 512 conicto
2496 128 lineto
2273 34 2039 -15 conicto
1805 -64 1565 -64 conicto
961 -64 608 284 conicto
256 632 256 1225 conicto
256 1839 595 2199 conicto
934 2560 1509 2560 conicto
2024 2560 2324 2235 conicto
2624 1910 2624 1352 conicto
2240 1472 moveto
2235 1822 2043 2031 conicto
1852 2240 1537 2240 conicto
1180 2240 965 2038 conicto
750 1836 718 1470 conicto
2240 1472 lineto
end_ol grestore 
gsave 14.037868 12.835881 translate 0.035278 -0.035278 scale
start_ol
end_ol grestore 
gsave 14.232602 12.835881 translate 0.035278 -0.035278 scale
start_ol
2431 2020 moveto
2590 2296 2809 2428 conicto
3029 2560 3325 2560 conicto
3726 2560 3943 2287 conicto
4160 2014 4160 1509 conicto
4160 0 lineto
3776 0 lineto
3776 1496 lineto
3776 1874 3641 2057 conicto
3506 2240 3228 2240 conicto
2890 2240 2693 2018 conicto
2496 1796 2496 1413 conicto
2496 0 lineto
2112 0 lineto
2112 1496 lineto
2112 1876 1976 2058 conicto
1841 2240 1560 2240 conicto
1225 2240 1028 2017 conicto
832 1794 832 1413 conicto
832 0 lineto
448 0 lineto
448 2496 lineto
832 2496 lineto
832 2112 lineto
977 2341 1180 2450 conicto
1383 2560 1662 2560 conicto
1942 2560 2139 2422 conicto
2337 2284 2431 2020 conicto
end_ol grestore 
gsave 14.825268 12.835881 translate 0.035278 -0.035278 scale
start_ol
448 2496 moveto
832 2496 lineto
832 0 lineto
448 0 lineto
448 2496 lineto
448 3520 moveto
832 3520 lineto
832 3008 lineto
448 3008 lineto
448 3520 lineto
end_ol grestore 
gsave 14.994602 12.835881 translate 0.035278 -0.035278 scale
start_ol
832 3200 moveto
832 2496 lineto
1664 2496 lineto
1664 2176 lineto
832 2176 lineto
832 804 lineto
832 495 914 407 conicto
997 320 1248 320 conicto
1664 320 lineto
1664 0 lineto
1248 0 lineto
793 0 620 173 conicto
448 347 448 804 conicto
448 2176 lineto
128 2176 lineto
128 2496 lineto
448 2496 lineto
448 3200 lineto
832 3200 lineto
end_ol grestore 
gsave 15.231668 12.835881 translate 0.035278 -0.035278 scale
start_ol
end_ol grestore 
gsave 15.426402 12.835881 translate 0.035278 -0.035278 scale
start_ol
256 2496 moveto
2240 2496 lineto
2240 2120 lineto
670 320 lineto
2240 320 lineto
2240 0 lineto
192 0 lineto
192 376 lineto
1770 2176 lineto
256 2176 lineto
256 2496 lineto
end_ol grestore 
gsave 15.748135 12.835881 translate 0.035278 -0.035278 scale
start_ol
192 2496 moveto
607 2496 lineto
1126 549 lineto
1643 2496 lineto
2133 2496 lineto
2652 549 lineto
3169 2496 lineto
3584 2496 lineto
2923 0 lineto
2433 0 lineto
1890 2046 lineto
1343 0 lineto
853 0 lineto
192 2496 lineto
end_ol grestore 
gsave 16.247668 12.835881 translate 0.035278 -0.035278 scale
start_ol
2624 1352 moveto
2624 1152 lineto
704 1152 lineto
731 715 960 485 conicto
1189 256 1597 256 conicto
1834 256 2056 320 conicto
2278 384 2496 512 conicto
2496 128 lineto
2273 34 2039 -15 conicto
1805 -64 1565 -64 conicto
961 -64 608 284 conicto
256 632 256 1225 conicto
256 1839 595 2199 conicto
934 2560 1509 2560 conicto
2024 2560 2324 2235 conicto
2624 1910 2624 1352 conicto
2240 1472 moveto
2235 1822 2043 2031 conicto
1852 2240 1537 2240 conicto
1180 2240 965 2038 conicto
750 1836 718 1470 conicto
2240 1472 lineto
end_ol grestore 
gsave 16.620202 12.835881 translate 0.035278 -0.035278 scale
start_ol
448 2496 moveto
832 2496 lineto
832 0 lineto
448 0 lineto
448 2496 lineto
448 3520 moveto
832 3520 lineto
832 3008 lineto
448 3008 lineto
448 3520 lineto
end_ol grestore 
gsave 10.265968 13.635881 translate 0.035278 -0.035278 scale
start_ol
128 2496 moveto
563 2496 lineto
1344 401 lineto
2125 2496 lineto
2560 2496 lineto
1623 0 lineto
1065 0 lineto
128 2496 lineto
end_ol grestore 
gsave 10.630035 13.635881 translate 0.035278 -0.035278 scale
start_ol
2624 1352 moveto
2624 1152 lineto
704 1152 lineto
731 715 960 485 conicto
1189 256 1597 256 conicto
1834 256 2056 320 conicto
2278 384 2496 512 conicto
2496 128 lineto
2273 34 2039 -15 conicto
1805 -64 1565 -64 conicto
961 -64 608 284 conicto
256 632 256 1225 conicto
256 1839 595 2199 conicto
934 2560 1509 2560 conicto
2024 2560 2324 2235 conicto
2624 1910 2624 1352 conicto
2240 1472 moveto
2235 1822 2043 2031 conicto
1852 2240 1537 2240 conicto
1180 2240 965 2038 conicto
750 1836 718 1470 conicto
2240 1472 lineto
end_ol grestore 
gsave 11.002568 13.635881 translate 0.035278 -0.035278 scale
start_ol
1920 2112 moveto
1848 2178 1764 2209 conicto
1680 2240 1578 2240 conicto
1218 2240 1025 2001 conicto
832 1763 832 1317 conicto
832 0 lineto
448 0 lineto
448 2496 lineto
832 2496 lineto
832 2112 lineto
965 2339 1180 2449 conicto
1396 2560 1702 2560 conicto
1747 2560 1799 2560 conicto
1852 2560 1917 2560 conicto
1920 2112 lineto
end_ol grestore 
gsave 11.256568 13.635881 translate 0.035278 -0.035278 scale
start_ol
2048 2432 moveto
2048 2048 lineto
1868 2144 1674 2192 conicto
1480 2240 1273 2240 conicto
957 2240 798 2144 conicto
640 2048 640 1856 conicto
640 1709 757 1625 conicto
875 1542 1229 1467 conicto
1380 1435 lineto
1812 1341 1994 1170 conicto
2176 999 2176 692 conicto
2176 343 1899 139 conicto
1622 -64 1137 -64 conicto
936 -64 717 -32 conicto
498 0 256 64 conicto
256 512 lineto
490 385 718 320 conicto
947 256 1170 256 conicto
1470 256 1631 358 conicto
1792 461 1792 647 conicto
1792 820 1670 912 conicto
1549 1004 1141 1089 conicto
988 1123 lineto
600 1203 428 1369 conicto
256 1535 256 1824 conicto
256 2177 510 2368 conicto
765 2560 1233 2560 conicto
1466 2560 1670 2528 conicto
1875 2496 2048 2432 conicto
end_ol grestore 
gsave 11.578302 13.635881 translate 0.035278 -0.035278 scale
start_ol
2240 2432 moveto
2240 2048 lineto
2066 2144 1892 2192 conicto
1718 2240 1541 2240 conicto
1143 2240 923 1979 conicto
704 1718 704 1248 conicto
704 778 923 517 conicto
1143 256 1541 256 conicto
1718 256 1892 304 conicto
2066 352 2240 448 conicto
2240 64 lineto
2068 0 1883 -32 conicto
1698 -64 1490 -64 conicto
924 -64 590 290 conicto
256 645 256 1248 conicto
256 1859 593 2209 conicto
931 2560 1517 2560 conicto
1707 2560 1888 2528 conicto
2070 2496 2240 2432 conicto
end_ol grestore 
gsave 11.916968 13.635881 translate 0.035278 -0.035278 scale
start_ol
2560 1509 moveto
2560 0 lineto
2176 0 lineto
2176 1496 lineto
2176 1869 2029 2054 conicto
1883 2240 1590 2240 conicto
1238 2240 1035 2018 conicto
832 1796 832 1413 conicto
832 0 lineto
448 0 lineto
448 3520 lineto
832 3520 lineto
832 2112 lineto
983 2337 1188 2448 conicto
1394 2560 1662 2560 conicto
2106 2560 2333 2293 conicto
2560 2027 2560 1509 conicto
end_ol grestore 
gsave 12.306435 13.635881 translate 0.035278 -0.035278 scale
start_ol
448 2496 moveto
832 2496 lineto
832 0 lineto
448 0 lineto
448 2496 lineto
448 3520 moveto
832 3520 lineto
832 3008 lineto
448 3008 lineto
448 3520 lineto
end_ol grestore 
gsave 12.475768 13.635881 translate 0.035278 -0.035278 scale
start_ol
2624 1352 moveto
2624 1152 lineto
704 1152 lineto
731 715 960 485 conicto
1189 256 1597 256 conicto
1834 256 2056 320 conicto
2278 384 2496 512 conicto
2496 128 lineto
2273 34 2039 -15 conicto
1805 -64 1565 -64 conicto
961 -64 608 284 conicto
256 632 256 1225 conicto
256 1839 595 2199 conicto
934 2560 1509 2560 conicto
2024 2560 2324 2235 conicto
2624 1910 2624 1352 conicto
2240 1472 moveto
2235 1822 2043 2031 conicto
1852 2240 1537 2240 conicto
1180 2240 965 2038 conicto
750 1836 718 1470 conicto
2240 1472 lineto
end_ol grestore 
gsave 12.848302 13.635881 translate 0.035278 -0.035278 scale
start_ol
2112 2112 moveto
2112 3520 lineto
2496 3520 lineto
2496 0 lineto
2112 0 lineto
2112 384 lineto
1980 156 1779 46 conicto
1578 -64 1297 -64 conicto
835 -64 545 297 conicto
256 659 256 1248 conicto
256 1837 545 2198 conicto
835 2560 1297 2560 conicto
1578 2560 1779 2450 conicto
1980 2340 2112 2112 conicto
704 1249 moveto
704 784 891 520 conicto
1079 256 1407 256 conicto
1735 256 1923 520 conicto
2112 784 2112 1249 conicto
2112 1713 1923 1976 conicto
1735 2240 1407 2240 conicto
1079 2240 891 1976 conicto
704 1713 704 1249 conicto
end_ol grestore 
gsave 13.237768 13.635881 translate 0.035278 -0.035278 scale
start_ol
2624 1352 moveto
2624 1152 lineto
704 1152 lineto
731 715 960 485 conicto
1189 256 1597 256 conicto
1834 256 2056 320 conicto
2278 384 2496 512 conicto
2496 128 lineto
2273 34 2039 -15 conicto
1805 -64 1565 -64 conicto
961 -64 608 284 conicto
256 632 256 1225 conicto
256 1839 595 2199 conicto
934 2560 1509 2560 conicto
2024 2560 2324 2235 conicto
2624 1910 2624 1352 conicto
2240 1472 moveto
2235 1822 2043 2031 conicto
1852 2240 1537 2240 conicto
1180 2240 965 2038 conicto
750 1836 718 1470 conicto
2240 1472 lineto
end_ol grestore 
gsave 13.610302 13.635881 translate 0.035278 -0.035278 scale
start_ol
2560 1509 moveto
2560 0 lineto
2176 0 lineto
2176 1496 lineto
2176 1869 2029 2054 conicto
1883 2240 1590 2240 conicto
1238 2240 1035 2018 conicto
832 1796 832 1413 conicto
832 0 lineto
448 0 lineto
448 2496 lineto
832 2496 lineto
832 2112 lineto
983 2337 1188 2448 conicto
1394 2560 1662 2560 conicto
2106 2560 2333 2293 conicto
2560 2027 2560 1509 conicto
end_ol grestore 
gsave 13.999768 13.635881 translate 0.035278 -0.035278 scale
start_ol
2624 1352 moveto
2624 1152 lineto
704 1152 lineto
731 715 960 485 conicto
1189 256 1597 256 conicto
1834 256 2056 320 conicto
2278 384 2496 512 conicto
2496 128 lineto
2273 34 2039 -15 conicto
1805 -64 1565 -64 conicto
961 -64 608 284 conicto
256 632 256 1225 conicto
256 1839 595 2199 conicto
934 2560 1509 2560 conicto
2024 2560 2324 2235 conicto
2624 1910 2624 1352 conicto
2240 1472 moveto
2235 1822 2043 2031 conicto
1852 2240 1537 2240 conicto
1180 2240 965 2038 conicto
750 1836 718 1470 conicto
2240 1472 lineto
end_ol grestore 
gsave 14.372302 13.635881 translate 0.035278 -0.035278 scale
start_ol
2560 1509 moveto
2560 0 lineto
2176 0 lineto
2176 1496 lineto
2176 1869 2029 2054 conicto
1883 2240 1590 2240 conicto
1238 2240 1035 2018 conicto
832 1796 832 1413 conicto
832 0 lineto
448 0 lineto
448 2496 lineto
832 2496 lineto
832 2112 lineto
983 2337 1188 2448 conicto
1394 2560 1662 2560 conicto
2106 2560 2333 2293 conicto
2560 2027 2560 1509 conicto
end_ol grestore 
gsave 14.761768 13.635881 translate 0.035278 -0.035278 scale
start_ol
end_ol grestore 
gsave 14.956502 13.635881 translate 0.035278 -0.035278 scale
start_ol
896 2944 moveto
896 1728 lineto
1488 1728 lineto
1817 1728 1996 1886 conicto
2176 2044 2176 2337 conicto
2176 2627 1996 2785 conicto
1817 2944 1488 2944 conicto
896 2944 lineto
448 3328 moveto
1488 3328 lineto
2050 3328 2337 3076 conicto
2624 2824 2624 2337 conicto
2624 1847 2337 1595 conicto
2050 1344 1488 1344 conicto
896 1344 lineto
896 0 lineto
448 0 lineto
448 3328 lineto
end_ol grestore 
gsave 15.312102 13.635881 translate 0.035278 -0.035278 scale
start_ol
1920 2112 moveto
1848 2178 1764 2209 conicto
1680 2240 1578 2240 conicto
1218 2240 1025 2001 conicto
832 1763 832 1317 conicto
832 0 lineto
448 0 lineto
448 2496 lineto
832 2496 lineto
832 2112 lineto
965 2339 1180 2449 conicto
1396 2560 1702 2560 conicto
1747 2560 1799 2560 conicto
1852 2560 1917 2560 conicto
1920 2112 lineto
end_ol grestore 
gsave 15.549168 13.635881 translate 0.035278 -0.035278 scale
start_ol
1409 2240 moveto
1083 2240 893 1974 conicto
704 1709 704 1248 conicto
704 787 892 521 conicto
1081 256 1409 256 conicto
1733 256 1922 522 conicto
2112 789 2112 1248 conicto
2112 1705 1922 1972 conicto
1733 2240 1409 2240 conicto
1408 2560 moveto
1946 2560 2253 2212 conicto
2560 1864 2560 1248 conicto
2560 634 2253 285 conicto
1946 -64 1408 -64 conicto
869 -64 562 285 conicto
256 634 256 1248 conicto
256 1864 562 2212 conicto
869 2560 1408 2560 conicto
end_ol grestore 
gsave 15.921702 13.635881 translate 0.035278 -0.035278 scale
start_ol
128 2496 moveto
563 2496 lineto
1344 401 lineto
2125 2496 lineto
2560 2496 lineto
1623 0 lineto
1065 0 lineto
128 2496 lineto
end_ol grestore 
gsave 16.285768 13.635881 translate 0.035278 -0.035278 scale
start_ol
448 2496 moveto
832 2496 lineto
832 0 lineto
448 0 lineto
448 2496 lineto
448 3520 moveto
832 3520 lineto
832 3008 lineto
448 3008 lineto
448 3520 lineto
end_ol grestore 
gsave 16.455102 13.635881 translate 0.035278 -0.035278 scale
start_ol
2112 2112 moveto
2112 3520 lineto
2496 3520 lineto
2496 0 lineto
2112 0 lineto
2112 384 lineto
1980 156 1779 46 conicto
1578 -64 1297 -64 conicto
835 -64 545 297 conicto
256 659 256 1248 conicto
256 1837 545 2198 conicto
835 2560 1297 2560 conicto
1578 2560 1779 2450 conicto
1980 2340 2112 2112 conicto
704 1249 moveto
704 784 891 520 conicto
1079 256 1407 256 conicto
1735 256 1923 520 conicto
2112 784 2112 1249 conicto
2112 1713 1923 1976 conicto
1735 2240 1407 2240 conicto
1079 2240 891 1976 conicto
704 1713 704 1249 conicto
end_ol grestore 
gsave 16.844568 13.635881 translate 0.035278 -0.035278 scale
start_ol
2624 1352 moveto
2624 1152 lineto
704 1152 lineto
731 715 960 485 conicto
1189 256 1597 256 conicto
1834 256 2056 320 conicto
2278 384 2496 512 conicto
2496 128 lineto
2273 34 2039 -15 conicto
1805 -64 1565 -64 conicto
961 -64 608 284 conicto
256 632 256 1225 conicto
256 1839 595 2199 conicto
934 2560 1509 2560 conicto
2024 2560 2324 2235 conicto
2624 1910 2624 1352 conicto
2240 1472 moveto
2235 1822 2043 2031 conicto
1852 2240 1537 2240 conicto
1180 2240 965 2038 conicto
750 1836 718 1470 conicto
2240 1472 lineto
end_ol grestore 
gsave 17.217102 13.635881 translate 0.035278 -0.035278 scale
start_ol
1920 2112 moveto
1848 2178 1764 2209 conicto
1680 2240 1578 2240 conicto
1218 2240 1025 2001 conicto
832 1763 832 1317 conicto
832 0 lineto
448 0 lineto
448 2496 lineto
832 2496 lineto
832 2112 lineto
965 2339 1180 2449 conicto
1396 2560 1702 2560 conicto
1747 2560 1799 2560 conicto
1852 2560 1917 2560 conicto
1920 2112 lineto
end_ol grestore 
gsave 17.428768 13.635881 translate 0.035278 -0.035278 scale
start_ol
256 1472 moveto
1472 1472 lineto
1472 1088 lineto
256 1088 lineto
256 1472 lineto
end_ol grestore 
gsave 11.840768 14.435881 translate 0.035278 -0.035278 scale
start_ol
1344 0 moveto
64 3328 lineto
538 3328 lineto
1600 526 lineto
2665 3328 lineto
3136 3328 lineto
1858 0 lineto
1344 0 lineto
end_ol grestore 
gsave 12.204835 14.435881 translate 0.035278 -0.035278 scale
start_ol
2624 1352 moveto
2624 1152 lineto
704 1152 lineto
731 715 960 485 conicto
1189 256 1597 256 conicto
1834 256 2056 320 conicto
2278 384 2496 512 conicto
2496 128 lineto
2273 34 2039 -15 conicto
1805 -64 1565 -64 conicto
961 -64 608 284 conicto
256 632 256 1225 conicto
256 1839 595 2199 conicto
934 2560 1509 2560 conicto
2024 2560 2324 2235 conicto
2624 1910 2624 1352 conicto
2240 1472 moveto
2235 1822 2043 2031 conicto
1852 2240 1537 2240 conicto
1180 2240 965 2038 conicto
750 1836 718 1470 conicto
2240 1472 lineto
end_ol grestore 
gsave 12.577368 14.435881 translate 0.035278 -0.035278 scale
start_ol
1920 2112 moveto
1848 2178 1764 2209 conicto
1680 2240 1578 2240 conicto
1218 2240 1025 2001 conicto
832 1763 832 1317 conicto
832 0 lineto
448 0 lineto
448 2496 lineto
832 2496 lineto
832 2112 lineto
965 2339 1180 2449 conicto
1396 2560 1702 2560 conicto
1747 2560 1799 2560 conicto
1852 2560 1917 2560 conicto
1920 2112 lineto
end_ol grestore 
gsave 12.831368 14.435881 translate 0.035278 -0.035278 scale
start_ol
2240 1249 moveto
2240 1713 2052 1976 conicto
1865 2240 1536 2240 conicto
1208 2240 1020 1976 conicto
832 1713 832 1249 conicto
832 784 1020 520 conicto
1208 256 1536 256 conicto
1865 256 2052 520 conicto
2240 784 2240 1249 conicto
832 2112 moveto
963 2340 1164 2450 conicto
1366 2560 1645 2560 conicto
2108 2560 2398 2198 conicto
2688 1837 2688 1248 conicto
2688 659 2398 297 conicto
2108 -64 1645 -64 conicto
1366 -64 1164 46 conicto
963 156 832 384 conicto
832 0 lineto
448 0 lineto
448 3520 lineto
832 3520 lineto
832 2112 lineto
end_ol grestore 
gsave 13.220835 14.435881 translate 0.035278 -0.035278 scale
start_ol
448 2496 moveto
832 2496 lineto
832 0 lineto
448 0 lineto
448 2496 lineto
448 3520 moveto
832 3520 lineto
832 3008 lineto
448 3008 lineto
448 3520 lineto
end_ol grestore 
gsave 13.390168 14.435881 translate 0.035278 -0.035278 scale
start_ol
2560 1509 moveto
2560 0 lineto
2176 0 lineto
2176 1496 lineto
2176 1869 2029 2054 conicto
1883 2240 1590 2240 conicto
1238 2240 1035 2018 conicto
832 1796 832 1413 conicto
832 0 lineto
448 0 lineto
448 2496 lineto
832 2496 lineto
832 2112 lineto
983 2337 1188 2448 conicto
1394 2560 1662 2560 conicto
2106 2560 2333 2293 conicto
2560 2027 2560 1509 conicto
end_ol grestore 
gsave 13.779635 14.435881 translate 0.035278 -0.035278 scale
start_ol
2112 2112 moveto
2112 3520 lineto
2496 3520 lineto
2496 0 lineto
2112 0 lineto
2112 384 lineto
1980 156 1779 46 conicto
1578 -64 1297 -64 conicto
835 -64 545 297 conicto
256 659 256 1248 conicto
256 1837 545 2198 conicto
835 2560 1297 2560 conicto
1578 2560 1779 2450 conicto
1980 2340 2112 2112 conicto
704 1249 moveto
704 784 891 520 conicto
1079 256 1407 256 conicto
1735 256 1923 520 conicto
2112 784 2112 1249 conicto
2112 1713 1923 1976 conicto
1735 2240 1407 2240 conicto
1079 2240 891 1976 conicto
704 1713 704 1249 conicto
end_ol grestore 
gsave 14.169102 14.435881 translate 0.035278 -0.035278 scale
start_ol
448 986 moveto
448 2496 lineto
832 2496 lineto
832 1001 lineto
832 629 978 442 conicto
1124 256 1417 256 conicto
1768 256 1972 477 conicto
2176 699 2176 1081 conicto
2176 2496 lineto
2560 2496 lineto
2560 0 lineto
2176 0 lineto
2176 384 lineto
2022 157 1819 46 conicto
1617 -64 1349 -64 conicto
906 -64 677 203 conicto
448 471 448 986 conicto
end_ol grestore 
gsave 14.558568 14.435881 translate 0.035278 -0.035278 scale
start_ol
2560 1509 moveto
2560 0 lineto
2176 0 lineto
2176 1496 lineto
2176 1869 2029 2054 conicto
1883 2240 1590 2240 conicto
1238 2240 1035 2018 conicto
832 1796 832 1413 conicto
832 0 lineto
448 0 lineto
448 2496 lineto
832 2496 lineto
832 2112 lineto
983 2337 1188 2448 conicto
1394 2560 1662 2560 conicto
2106 2560 2333 2293 conicto
2560 2027 2560 1509 conicto
end_ol grestore 
gsave 14.948035 14.435881 translate 0.035278 -0.035278 scale
start_ol
2112 1278 moveto
2112 1736 1926 1988 conicto
1741 2240 1407 2240 conicto
1074 2240 889 1988 conicto
704 1736 704 1278 conicto
704 824 889 572 conicto
1074 320 1407 320 conicto
1741 320 1926 572 conicto
2112 824 2112 1278 conicto
2496 289 moveto
2496 -343 2214 -651 conicto
1933 -960 1352 -960 conicto
1137 -960 946 -928 conicto
755 -896 576 -832 conicto
576 -448 lineto
758 -546 936 -593 conicto
1114 -640 1298 -640 conicto
1707 -640 1909 -426 conicto
2112 -212 2112 220 conicto
2112 448 lineto
1982 223 1780 111 conicto
1578 0 1297 0 conicto
828 0 542 350 conicto
256 701 256 1279 conicto
256 1859 542 2209 conicto
828 2560 1297 2560 conicto
1578 2560 1780 2448 conicto
1982 2337 2112 2112 conicto
2112 2496 lineto
2496 2496 lineto
2496 289 lineto
end_ol grestore 
gsave 15.337502 14.435881 translate 0.035278 -0.035278 scale
start_ol
2624 1352 moveto
2624 1152 lineto
704 1152 lineto
731 715 960 485 conicto
1189 256 1597 256 conicto
1834 256 2056 320 conicto
2278 384 2496 512 conicto
2496 128 lineto
2273 34 2039 -15 conicto
1805 -64 1565 -64 conicto
961 -64 608 284 conicto
256 632 256 1225 conicto
256 1839 595 2199 conicto
934 2560 1509 2560 conicto
2024 2560 2324 2235 conicto
2624 1910 2624 1352 conicto
2240 1472 moveto
2235 1822 2043 2031 conicto
1852 2240 1537 2240 conicto
1180 2240 965 2038 conicto
750 1836 718 1470 conicto
2240 1472 lineto
end_ol grestore 
gsave 15.710035 14.435881 translate 0.035278 -0.035278 scale
start_ol
2560 1509 moveto
2560 0 lineto
2176 0 lineto
2176 1496 lineto
2176 1869 2029 2054 conicto
1883 2240 1590 2240 conicto
1238 2240 1035 2018 conicto
832 1796 832 1413 conicto
832 0 lineto
448 0 lineto
448 2496 lineto
832 2496 lineto
832 2112 lineto
983 2337 1188 2448 conicto
1394 2560 1662 2560 conicto
2106 2560 2333 2293 conicto
2560 2027 2560 1509 conicto
end_ol grestore 
0.100000 slw
[] 0 sd
[] 0 sd
0 slc
0 slj
0.080000 slw
0 slc
0 slj
[] 0 sd
0.701961 0.701961 0.701961 srgb
n 3.000000 13.300000 m 3.000000 14.239999 l 5.136360 14.239999 l 5.136360 13.300000 l f
0.000000 0.000000 0.000000 srgb
n 3.000000 13.300000 m 3.000000 14.239999 l 5.136360 14.239999 l 5.136360 13.300000 l cp s
0.100000 slw
0 slc
0 slj
[] 0 sd
n 3.213636 13.620454 m 3.213636 13.723000 l 3.320454 13.723000 l 3.320454 13.620454 l f
0 slc
0 slj
[] 0 sd
n 3.427272 13.620454 m 3.427272 13.723000 l 3.534090 13.723000 l 3.534090 13.620454 l f
0 slc
0 slj
[] 0 sd
n 3.640908 13.620454 m 3.640908 13.723000 l 3.747726 13.723000 l 3.747726 13.620454 l f
0 slc
0 slj
[] 0 sd
n 3.854544 13.620454 m 3.854544 13.723000 l 3.961362 13.723000 l 3.961362 13.620454 l f
0 slc
0 slj
[] 0 sd
n 4.068180 13.620454 m 4.068180 13.723000 l 4.174998 13.723000 l 4.174998 13.620454 l f
0 slc
0 slj
[] 0 sd
n 4.281816 13.620454 m 4.281816 13.723000 l 4.388634 13.723000 l 4.388634 13.620454 l f
0 slc
0 slj
[] 0 sd
n 4.495452 13.620454 m 4.495452 13.723000 l 4.602270 13.723000 l 4.602270 13.620454 l f
0 slc
0 slj
[] 0 sd
n 4.709088 13.620454 m 4.709088 13.723000 l 4.815906 13.723000 l 4.815906 13.620454 l f
gsave 2.789713 14.882726 translate 0.035278 -0.035278 scale
start_ol
2075 1568 moveto
2215 1519 2346 1356 conicto
2478 1194 2612 910 conicto
3072 0 lineto
2587 0 lineto
2184 855 lineto
2012 1189 1850 1298 conicto
1688 1408 1409 1408 conicto
896 1408 lineto
896 0 lineto
448 0 lineto
448 3328 lineto
1488 3328 lineto
2060 3328 2342 3090 conicto
2624 2853 2624 2374 conicto
2624 2061 2484 1854 conicto
2344 1648 2075 1568 conicto
896 2944 moveto
896 1792 lineto
1488 1792 lineto
1829 1792 2002 1939 conicto
2176 2086 2176 2370 conicto
2176 2655 2002 2799 conicto
1829 2944 1488 2944 conicto
896 2944 lineto
end_ol grestore 
gsave 3.187647 14.882726 translate 0.035278 -0.035278 scale
start_ol
1409 2240 moveto
1083 2240 893 1974 conicto
704 1709 704 1248 conicto
704 787 892 521 conicto
1081 256 1409 256 conicto
1733 256 1922 522 conicto
2112 789 2112 1248 conicto
2112 1705 1922 1972 conicto
1733 2240 1409 2240 conicto
1408 2560 moveto
1946 2560 2253 2212 conicto
2560 1864 2560 1248 conicto
2560 634 2253 285 conicto
1946 -64 1408 -64 conicto
869 -64 562 285 conicto
256 634 256 1248 conicto
256 1864 562 2212 conicto
869 2560 1408 2560 conicto
end_ol grestore 
gsave 3.560180 14.882726 translate 0.035278 -0.035278 scale
start_ol
448 986 moveto
448 2496 lineto
832 2496 lineto
832 1001 lineto
832 629 978 442 conicto
1124 256 1417 256 conicto
1768 256 1972 477 conicto
2176 699 2176 1081 conicto
2176 2496 lineto
2560 2496 lineto
2560 0 lineto
2176 0 lineto
2176 384 lineto
2022 157 1819 46 conicto
1617 -64 1349 -64 conicto
906 -64 677 203 conicto
448 471 448 986 conicto
end_ol grestore 
gsave 3.949647 14.882726 translate 0.035278 -0.035278 scale
start_ol
832 3200 moveto
832 2496 lineto
1664 2496 lineto
1664 2176 lineto
832 2176 lineto
832 804 lineto
832 495 914 407 conicto
997 320 1248 320 conicto
1664 320 lineto
1664 0 lineto
1248 0 lineto
793 0 620 173 conicto
448 347 448 804 conicto
448 2176 lineto
128 2176 lineto
128 2496 lineto
448 2496 lineto
448 3200 lineto
832 3200 lineto
end_ol grestore 
gsave 4.186713 14.882726 translate 0.035278 -0.035278 scale
start_ol
2624 1352 moveto
2624 1152 lineto
704 1152 lineto
731 715 960 485 conicto
1189 256 1597 256 conicto
1834 256 2056 320 conicto
2278 384 2496 512 conicto
2496 128 lineto
2273 34 2039 -15 conicto
1805 -64 1565 -64 conicto
961 -64 608 284 conicto
256 632 256 1225 conicto
256 1839 595 2199 conicto
934 2560 1509 2560 conicto
2024 2560 2324 2235 conicto
2624 1910 2624 1352 conicto
2240 1472 moveto
2235 1822 2043 2031 conicto
1852 2240 1537 2240 conicto
1180 2240 965 2038 conicto
750 1836 718 1470 conicto
2240 1472 lineto
end_ol grestore 
gsave 4.559247 14.882726 translate 0.035278 -0.035278 scale
start_ol
1920 2112 moveto
1848 2178 1764 2209 conicto
1680 2240 1578 2240 conicto
1218 2240 1025 2001 conicto
832 1763 832 1317 conicto
832 0 lineto
448 0 lineto
448 2496 lineto
832 2496 lineto
832 2112 lineto
965 2339 1180 2449 conicto
1396 2560 1702 2560 conicto
1747 2560 1799 2560 conicto
1852 2560 1917 2560 conicto
1920 2112 lineto
end_ol grestore 
gsave 4.813247 14.882726 translate 0.035278 -0.035278 scale
start_ol
end_ol grestore 
gsave 5.007980 14.882726 translate 0.035278 -0.035278 scale
start_ol
576 384 moveto
1344 384 lineto
1344 2944 lineto
512 2752 lineto
512 3136 lineto
1330 3328 lineto
1792 3328 lineto
1792 384 lineto
2560 384 lineto
2560 0 lineto
576 0 lineto
576 384 lineto
end_ol grestore 
gsave 1.181047 15.682726 translate 0.035278 -0.035278 scale
start_ol
448 3328 moveto
896 3328 lineto
896 0 lineto
448 0 lineto
448 3328 lineto
end_ol grestore 
gsave 1.358847 15.682726 translate 0.035278 -0.035278 scale
start_ol
896 2944 moveto
896 1728 lineto
1488 1728 lineto
1817 1728 1996 1886 conicto
2176 2044 2176 2337 conicto
2176 2627 1996 2785 conicto
1817 2944 1488 2944 conicto
896 2944 lineto
448 3328 moveto
1488 3328 lineto
2050 3328 2337 3076 conicto
2624 2824 2624 2337 conicto
2624 1847 2337 1595 conicto
2050 1344 1488 1344 conicto
896 1344 lineto
896 0 lineto
448 0 lineto
448 3328 lineto
end_ol grestore 
gsave 1.722913 15.682726 translate 0.035278 -0.035278 scale
start_ol
512 576 moveto
960 576 lineto
960 0 lineto
512 0 lineto
512 576 lineto
512 2368 moveto
960 2368 lineto
960 1792 lineto
512 1792 lineto
512 2368 lineto
end_ol grestore 
gsave 1.926113 15.682726 translate 0.035278 -0.035278 scale
start_ol
end_ol grestore 
gsave 2.120847 15.682726 translate 0.035278 -0.035278 scale
start_ol
576 384 moveto
1344 384 lineto
1344 2944 lineto
512 2752 lineto
512 3136 lineto
1330 3328 lineto
1792 3328 lineto
1792 384 lineto
2560 384 lineto
2560 0 lineto
576 0 lineto
576 384 lineto
end_ol grestore 
gsave 2.510313 15.682726 translate 0.035278 -0.035278 scale
start_ol
512 64 moveto
512 448 lineto
684 386 861 353 conicto
1038 320 1209 320 conicto
1663 320 1902 632 conicto
2142 944 2176 1578 conicto
2046 1372 1847 1262 conicto
1648 1152 1406 1152 conicto
905 1152 612 1451 conicto
320 1750 320 2270 conicto
320 2778 624 3085 conicto
928 3392 1434 3392 conicto
2014 3392 2319 2949 conicto
2624 2506 2624 1663 conicto
2624 875 2245 405 conicto
1866 -64 1226 -64 conicto
1055 -64 878 -32 conicto
702 0 512 64 conicto
1440 1536 moveto
1750 1536 1931 1733 conicto
2112 1930 2112 2272 conicto
2112 2612 1931 2810 conicto
1750 3008 1440 3008 conicto
1130 3008 949 2810 conicto
768 2612 768 2272 conicto
768 1930 949 1733 conicto
1130 1536 1440 1536 conicto
end_ol grestore 
gsave 2.899780 15.682726 translate 0.035278 -0.035278 scale
start_ol
853 384 moveto
2450 384 lineto
2450 0 lineto
320 0 lineto
320 384 lineto
579 648 1027 1094 conicto
1476 1540 1591 1669 conicto
1810 1911 1897 2079 conicto
1984 2247 1984 2409 conicto
1984 2674 1793 2841 conicto
1602 3008 1295 3008 conicto
1078 3008 836 2944 conicto
595 2881 320 2752 conicto
320 3200 lineto
597 3296 838 3344 conicto
1079 3392 1279 3392 conicto
1805 3392 2118 3133 conicto
2432 2875 2432 2443 conicto
2432 2238 2353 2054 conicto
2275 1870 2070 1620 conicto
2012 1556 1708 1247 conicto
1405 939 853 384 conicto
end_ol grestore 
gsave 3.289247 15.682726 translate 0.035278 -0.035278 scale
start_ol
512 576 moveto
960 576 lineto
960 0 lineto
512 0 lineto
512 576 lineto
end_ol grestore 
gsave 3.483980 15.682726 translate 0.035278 -0.035278 scale
start_ol
576 384 moveto
1344 384 lineto
1344 2944 lineto
512 2752 lineto
512 3136 lineto
1330 3328 lineto
1792 3328 lineto
1792 384 lineto
2560 384 lineto
2560 0 lineto
576 0 lineto
576 384 lineto
end_ol grestore 
gsave 3.873447 15.682726 translate 0.035278 -0.035278 scale
start_ol
1504 1792 moveto
1194 1792 1013 1595 conicto
832 1398 832 1056 conicto
832 716 1013 518 conicto
1194 320 1504 320 conicto
1814 320 1995 518 conicto
2176 716 2176 1056 conicto
2176 1398 1995 1595 conicto
1814 1792 1504 1792 conicto
2432 3264 moveto
2432 2880 lineto
2259 2942 2083 2975 conicto
1908 3008 1736 3008 conicto
1282 3008 1042 2695 conicto
802 2382 768 1750 conicto
900 1956 1099 2066 conicto
1298 2176 1537 2176 conicto
2040 2176 2332 1875 conicto
2624 1574 2624 1056 conicto
2624 548 2320 242 conicto
2016 -64 1511 -64 conicto
932 -64 626 379 conicto
320 822 320 1663 conicto
320 2453 700 2922 conicto
1080 3392 1720 3392 conicto
1892 3392 2067 3360 conicto
2242 3328 2432 3264 conicto
end_ol grestore 
gsave 4.262913 15.682726 translate 0.035278 -0.035278 scale
start_ol
1471 1600 moveto
1143 1600 955 1429 conicto
768 1259 768 960 conicto
768 661 955 490 conicto
1143 320 1471 320 conicto
1799 320 1987 492 conicto
2176 664 2176 960 conicto
2176 1259 1988 1429 conicto
1801 1600 1471 1600 conicto
1003 1808 moveto
711 1878 547 2072 conicto
384 2266 384 2546 conicto
384 2937 674 3164 conicto
965 3392 1472 3392 conicto
1981 3392 2270 3164 conicto
2560 2937 2560 2546 conicto
2560 2266 2396 2072 conicto
2232 1878 1941 1808 conicto
2263 1730 2443 1505 conicto
2624 1281 2624 956 conicto
2624 463 2326 199 conicto
2028 -64 1472 -64 conicto
916 -64 618 199 conicto
320 463 320 956 conicto
320 1281 501 1505 conicto
682 1730 1003 1808 conicto
832 2496 moveto
832 2255 999 2119 conicto
1167 1984 1471 1984 conicto
1771 1984 1941 2119 conicto
2112 2255 2112 2496 conicto
2112 2738 1941 2873 conicto
1771 3008 1471 3008 conicto
1167 3008 999 2873 conicto
832 2738 832 2496 conicto
end_ol grestore 
gsave 4.652380 15.682726 translate 0.035278 -0.035278 scale
start_ol
512 576 moveto
960 576 lineto
960 0 lineto
512 0 lineto
512 576 lineto
end_ol grestore 
gsave 4.847113 15.682726 translate 0.035278 -0.035278 scale
start_ol
576 384 moveto
1344 384 lineto
1344 2944 lineto
512 2752 lineto
512 3136 lineto
1330 3328 lineto
1792 3328 lineto
1792 384 lineto
2560 384 lineto
2560 0 lineto
576 0 lineto
576 384 lineto
end_ol grestore 
gsave 5.236580 15.682726 translate 0.035278 -0.035278 scale
start_ol
1471 3008 moveto
1120 3008 944 2672 conicto
768 2336 768 1663 conicto
768 992 944 656 conicto
1120 320 1471 320 conicto
1824 320 2000 656 conicto
2176 992 2176 1663 conicto
2176 2336 2000 2672 conicto
1824 3008 1471 3008 conicto
1472 3392 moveto
2033 3392 2328 2949 conicto
2624 2506 2624 1663 conicto
2624 822 2328 379 conicto
2033 -64 1472 -64 conicto
911 -64 615 379 conicto
320 822 320 1663 conicto
320 2506 615 2949 conicto
911 3392 1472 3392 conicto
end_ol grestore 
gsave 5.626047 15.682726 translate 0.035278 -0.035278 scale
start_ol
512 576 moveto
960 576 lineto
960 0 lineto
512 0 lineto
512 576 lineto
end_ol grestore 
gsave 5.820780 15.682726 translate 0.035278 -0.035278 scale
start_ol
853 384 moveto
2450 384 lineto
2450 0 lineto
320 0 lineto
320 384 lineto
579 648 1027 1094 conicto
1476 1540 1591 1669 conicto
1810 1911 1897 2079 conicto
1984 2247 1984 2409 conicto
1984 2674 1793 2841 conicto
1602 3008 1295 3008 conicto
1078 3008 836 2944 conicto
595 2881 320 2752 conicto
320 3200 lineto
597 3296 838 3344 conicto
1079 3392 1279 3392 conicto
1805 3392 2118 3133 conicto
2432 2875 2432 2443 conicto
2432 2238 2353 2054 conicto
2275 1870 2070 1620 conicto
2012 1556 1708 1247 conicto
1405 939 853 384 conicto
end_ol grestore 
gsave 6.210247 15.682726 translate 0.035278 -0.035278 scale
start_ol
448 3328 moveto
2240 3328 lineto
2240 2944 lineto
896 2944 lineto
896 2172 lineto
994 2206 1092 2223 conicto
1190 2240 1288 2240 conicto
1845 2240 2170 1929 conicto
2496 1618 2496 1088 conicto
2496 542 2158 239 conicto
1820 -64 1205 -64 conicto
993 -64 773 -32 conicto
554 0 320 64 conicto
320 512 lineto
523 415 740 367 conicto
957 320 1200 320 conicto
1591 320 1819 527 conicto
2048 734 2048 1089 conicto
2048 1443 1817 1649 conicto
1587 1856 1192 1856 conicto
1008 1856 824 1809 conicto
640 1762 448 1664 conicto
448 3328 lineto
end_ol grestore 
gsave 6.599713 15.682726 translate 0.035278 -0.035278 scale
start_ol
1792 2934 moveto
630 1152 lineto
1792 1152 lineto
1792 2934 lineto
1664 3328 moveto
2240 3328 lineto
2240 1152 lineto
2688 1152 lineto
2688 768 lineto
2240 768 lineto
2240 0 lineto
1792 0 lineto
1792 768 lineto
256 768 lineto
256 1206 lineto
1664 3328 lineto
end_ol grestore 
0.100000 slw
[] 0 sd
[] 0 sd
0 slc
0 slj
0.080000 slw
0 slc
0 slj
[] 0 sd
0.701961 0.701961 0.701961 srgb
n 9.056749 7.990000 m 9.056749 8.864061 l 11.043251 8.864061 l 11.043251 7.990000 l f
0.000000 0.000000 0.000000 srgb
n 9.056749 7.990000 m 9.056749 8.864061 l 11.043251 8.864061 l 11.043251 7.990000 l cp s
0.100000 slw
0 slc
0 slj
[] 0 sd
n 9.255400 8.287975 m 9.255400 8.383327 l 9.354725 8.383327 l 9.354725 8.287975 l f
0 slc
0 slj
[] 0 sd
n 9.454050 8.287975 m 9.454050 8.383327 l 9.553375 8.383327 l 9.553375 8.287975 l f
0 slc
0 slj
[] 0 sd
n 9.652700 8.287975 m 9.652700 8.383327 l 9.752025 8.383327 l 9.752025 8.287975 l f
0 slc
0 slj
[] 0 sd
n 9.851350 8.287975 m 9.851350 8.383327 l 9.950675 8.383327 l 9.950675 8.287975 l f
0 slc
0 slj
[] 0 sd
n 10.050000 8.287975 m 10.050000 8.383327 l 10.149325 8.383327 l 10.149325 8.287975 l f
0 slc
0 slj
[] 0 sd
n 10.248650 8.287975 m 10.248650 8.383327 l 10.347975 8.383327 l 10.347975 8.287975 l f
0 slc
0 slj
[] 0 sd
n 10.447300 8.287975 m 10.447300 8.383327 l 10.546625 8.383327 l 10.546625 8.287975 l f
0 slc
0 slj
[] 0 sd
n 10.645950 8.287975 m 10.645950 8.383327 l 10.745275 8.383327 l 10.745275 8.287975 l f
gsave 8.775767 9.503791 translate 0.035278 -0.035278 scale
start_ol
2075 1568 moveto
2215 1519 2346 1356 conicto
2478 1194 2612 910 conicto
3072 0 lineto
2587 0 lineto
2184 855 lineto
2012 1189 1850 1298 conicto
1688 1408 1409 1408 conicto
896 1408 lineto
896 0 lineto
448 0 lineto
448 3328 lineto
1488 3328 lineto
2060 3328 2342 3090 conicto
2624 2853 2624 2374 conicto
2624 2061 2484 1854 conicto
2344 1648 2075 1568 conicto
896 2944 moveto
896 1792 lineto
1488 1792 lineto
1829 1792 2002 1939 conicto
2176 2086 2176 2370 conicto
2176 2655 2002 2799 conicto
1829 2944 1488 2944 conicto
896 2944 lineto
end_ol grestore 
gsave 9.173700 9.503791 translate 0.035278 -0.035278 scale
start_ol
1409 2240 moveto
1083 2240 893 1974 conicto
704 1709 704 1248 conicto
704 787 892 521 conicto
1081 256 1409 256 conicto
1733 256 1922 522 conicto
2112 789 2112 1248 conicto
2112 1705 1922 1972 conicto
1733 2240 1409 2240 conicto
1408 2560 moveto
1946 2560 2253 2212 conicto
2560 1864 2560 1248 conicto
2560 634 2253 285 conicto
1946 -64 1408 -64 conicto
869 -64 562 285 conicto
256 634 256 1248 conicto
256 1864 562 2212 conicto
869 2560 1408 2560 conicto
end_ol grestore 
gsave 9.546233 9.503791 translate 0.035278 -0.035278 scale
start_ol
448 986 moveto
448 2496 lineto
832 2496 lineto
832 1001 lineto
832 629 978 442 conicto
1124 256 1417 256 conicto
1768 256 1972 477 conicto
2176 699 2176 1081 conicto
2176 2496 lineto
2560 2496 lineto
2560 0 lineto
2176 0 lineto
2176 384 lineto
2022 157 1819 46 conicto
1617 -64 1349 -64 conicto
906 -64 677 203 conicto
448 471 448 986 conicto
end_ol grestore 
gsave 9.935700 9.503791 translate 0.035278 -0.035278 scale
start_ol
832 3200 moveto
832 2496 lineto
1664 2496 lineto
1664 2176 lineto
832 2176 lineto
832 804 lineto
832 495 914 407 conicto
997 320 1248 320 conicto
1664 320 lineto
1664 0 lineto
1248 0 lineto
793 0 620 173 conicto
448 347 448 804 conicto
448 2176 lineto
128 2176 lineto
128 2496 lineto
448 2496 lineto
448 3200 lineto
832 3200 lineto
end_ol grestore 
gsave 10.172767 9.503791 translate 0.035278 -0.035278 scale
start_ol
2624 1352 moveto
2624 1152 lineto
704 1152 lineto
731 715 960 485 conicto
1189 256 1597 256 conicto
1834 256 2056 320 conicto
2278 384 2496 512 conicto
2496 128 lineto
2273 34 2039 -15 conicto
1805 -64 1565 -64 conicto
961 -64 608 284 conicto
256 632 256 1225 conicto
256 1839 595 2199 conicto
934 2560 1509 2560 conicto
2024 2560 2324 2235 conicto
2624 1910 2624 1352 conicto
2240 1472 moveto
2235 1822 2043 2031 conicto
1852 2240 1537 2240 conicto
1180 2240 965 2038 conicto
750 1836 718 1470 conicto
2240 1472 lineto
end_ol grestore 
gsave 10.545300 9.503791 translate 0.035278 -0.035278 scale
start_ol
1920 2112 moveto
1848 2178 1764 2209 conicto
1680 2240 1578 2240 conicto
1218 2240 1025 2001 conicto
832 1763 832 1317 conicto
832 0 lineto
448 0 lineto
448 2496 lineto
832 2496 lineto
832 2112 lineto
965 2339 1180 2449 conicto
1396 2560 1702 2560 conicto
1747 2560 1799 2560 conicto
1852 2560 1917 2560 conicto
1920 2112 lineto
end_ol grestore 
gsave 10.799300 9.503791 translate 0.035278 -0.035278 scale
start_ol
end_ol grestore 
gsave 10.994033 9.503791 translate 0.035278 -0.035278 scale
start_ol
853 384 moveto
2450 384 lineto
2450 0 lineto
320 0 lineto
320 384 lineto
579 648 1027 1094 conicto
1476 1540 1591 1669 conicto
1810 1911 1897 2079 conicto
1984 2247 1984 2409 conicto
1984 2674 1793 2841 conicto
1602 3008 1295 3008 conicto
1078 3008 836 2944 conicto
595 2881 320 2752 conicto
320 3200 lineto
597 3296 838 3344 conicto
1079 3392 1279 3392 conicto
1805 3392 2118 3133 conicto
2432 2875 2432 2443 conicto
2432 2238 2353 2054 conicto
2275 1870 2070 1620 conicto
2012 1556 1708 1247 conicto
1405 939 853 384 conicto
end_ol grestore 
gsave 7.162867 10.303791 translate 0.035278 -0.035278 scale
start_ol
448 3328 moveto
896 3328 lineto
896 0 lineto
448 0 lineto
448 3328 lineto
end_ol grestore 
gsave 7.340667 10.303791 translate 0.035278 -0.035278 scale
start_ol
896 2944 moveto
896 1728 lineto
1488 1728 lineto
1817 1728 1996 1886 conicto
2176 2044 2176 2337 conicto
2176 2627 1996 2785 conicto
1817 2944 1488 2944 conicto
896 2944 lineto
448 3328 moveto
1488 3328 lineto
2050 3328 2337 3076 conicto
2624 2824 2624 2337 conicto
2624 1847 2337 1595 conicto
2050 1344 1488 1344 conicto
896 1344 lineto
896 0 lineto
448 0 lineto
448 3328 lineto
end_ol grestore 
gsave 7.704733 10.303791 translate 0.035278 -0.035278 scale
start_ol
512 576 moveto
960 576 lineto
960 0 lineto
512 0 lineto
512 576 lineto
512 2368 moveto
960 2368 lineto
960 1792 lineto
512 1792 lineto
512 2368 lineto
end_ol grestore 
gsave 7.907933 10.303791 translate 0.035278 -0.035278 scale
start_ol
end_ol grestore 
gsave 8.102667 10.303791 translate 0.035278 -0.035278 scale
start_ol
576 384 moveto
1344 384 lineto
1344 2944 lineto
512 2752 lineto
512 3136 lineto
1330 3328 lineto
1792 3328 lineto
1792 384 lineto
2560 384 lineto
2560 0 lineto
576 0 lineto
576 384 lineto
end_ol grestore 
gsave 8.492133 10.303791 translate 0.035278 -0.035278 scale
start_ol
512 64 moveto
512 448 lineto
684 386 861 353 conicto
1038 320 1209 320 conicto
1663 320 1902 632 conicto
2142 944 2176 1578 conicto
2046 1372 1847 1262 conicto
1648 1152 1406 1152 conicto
905 1152 612 1451 conicto
320 1750 320 2270 conicto
320 2778 624 3085 conicto
928 3392 1434 3392 conicto
2014 3392 2319 2949 conicto
2624 2506 2624 1663 conicto
2624 875 2245 405 conicto
1866 -64 1226 -64 conicto
1055 -64 878 -32 conicto
702 0 512 64 conicto
1440 1536 moveto
1750 1536 1931 1733 conicto
2112 1930 2112 2272 conicto
2112 2612 1931 2810 conicto
1750 3008 1440 3008 conicto
1130 3008 949 2810 conicto
768 2612 768 2272 conicto
768 1930 949 1733 conicto
1130 1536 1440 1536 conicto
end_ol grestore 
gsave 8.881600 10.303791 translate 0.035278 -0.035278 scale
start_ol
853 384 moveto
2450 384 lineto
2450 0 lineto
320 0 lineto
320 384 lineto
579 648 1027 1094 conicto
1476 1540 1591 1669 conicto
1810 1911 1897 2079 conicto
1984 2247 1984 2409 conicto
1984 2674 1793 2841 conicto
1602 3008 1295 3008 conicto
1078 3008 836 2944 conicto
595 2881 320 2752 conicto
320 3200 lineto
597 3296 838 3344 conicto
1079 3392 1279 3392 conicto
1805 3392 2118 3133 conicto
2432 2875 2432 2443 conicto
2432 2238 2353 2054 conicto
2275 1870 2070 1620 conicto
2012 1556 1708 1247 conicto
1405 939 853 384 conicto
end_ol grestore 
gsave 9.271067 10.303791 translate 0.035278 -0.035278 scale
start_ol
512 576 moveto
960 576 lineto
960 0 lineto
512 0 lineto
512 576 lineto
end_ol grestore 
gsave 9.465800 10.303791 translate 0.035278 -0.035278 scale
start_ol
576 384 moveto
1344 384 lineto
1344 2944 lineto
512 2752 lineto
512 3136 lineto
1330 3328 lineto
1792 3328 lineto
1792 384 lineto
2560 384 lineto
2560 0 lineto
576 0 lineto
576 384 lineto
end_ol grestore 
gsave 9.855267 10.303791 translate 0.035278 -0.035278 scale
start_ol
1504 1792 moveto
1194 1792 1013 1595 conicto
832 1398 832 1056 conicto
832 716 1013 518 conicto
1194 320 1504 320 conicto
1814 320 1995 518 conicto
2176 716 2176 1056 conicto
2176 1398 1995 1595 conicto
1814 1792 1504 1792 conicto
2432 3264 moveto
2432 2880 lineto
2259 2942 2083 2975 conicto
1908 3008 1736 3008 conicto
1282 3008 1042 2695 conicto
802 2382 768 1750 conicto
900 1956 1099 2066 conicto
1298 2176 1537 2176 conicto
2040 2176 2332 1875 conicto
2624 1574 2624 1056 conicto
2624 548 2320 242 conicto
2016 -64 1511 -64 conicto
932 -64 626 379 conicto
320 822 320 1663 conicto
320 2453 700 2922 conicto
1080 3392 1720 3392 conicto
1892 3392 2067 3360 conicto
2242 3328 2432 3264 conicto
end_ol grestore 
gsave 10.244733 10.303791 translate 0.035278 -0.035278 scale
start_ol
1471 1600 moveto
1143 1600 955 1429 conicto
768 1259 768 960 conicto
768 661 955 490 conicto
1143 320 1471 320 conicto
1799 320 1987 492 conicto
2176 664 2176 960 conicto
2176 1259 1988 1429 conicto
1801 1600 1471 1600 conicto
1003 1808 moveto
711 1878 547 2072 conicto
384 2266 384 2546 conicto
384 2937 674 3164 conicto
965 3392 1472 3392 conicto
1981 3392 2270 3164 conicto
2560 2937 2560 2546 conicto
2560 2266 2396 2072 conicto
2232 1878 1941 1808 conicto
2263 1730 2443 1505 conicto
2624 1281 2624 956 conicto
2624 463 2326 199 conicto
2028 -64 1472 -64 conicto
916 -64 618 199 conicto
320 463 320 956 conicto
320 1281 501 1505 conicto
682 1730 1003 1808 conicto
832 2496 moveto
832 2255 999 2119 conicto
1167 1984 1471 1984 conicto
1771 1984 1941 2119 conicto
2112 2255 2112 2496 conicto
2112 2738 1941 2873 conicto
1771 3008 1471 3008 conicto
1167 3008 999 2873 conicto
832 2738 832 2496 conicto
end_ol grestore 
gsave 10.634200 10.303791 translate 0.035278 -0.035278 scale
start_ol
512 576 moveto
960 576 lineto
960 0 lineto
512 0 lineto
512 576 lineto
end_ol grestore 
gsave 10.828933 10.303791 translate 0.035278 -0.035278 scale
start_ol
853 384 moveto
2450 384 lineto
2450 0 lineto
320 0 lineto
320 384 lineto
579 648 1027 1094 conicto
1476 1540 1591 1669 conicto
1810 1911 1897 2079 conicto
1984 2247 1984 2409 conicto
1984 2674 1793 2841 conicto
1602 3008 1295 3008 conicto
1078 3008 836 2944 conicto
595 2881 320 2752 conicto
320 3200 lineto
597 3296 838 3344 conicto
1079 3392 1279 3392 conicto
1805 3392 2118 3133 conicto
2432 2875 2432 2443 conicto
2432 2238 2353 2054 conicto
2275 1870 2070 1620 conicto
2012 1556 1708 1247 conicto
1405 939 853 384 conicto
end_ol grestore 
gsave 11.218400 10.303791 translate 0.035278 -0.035278 scale
start_ol
1471 3008 moveto
1120 3008 944 2672 conicto
768 2336 768 1663 conicto
768 992 944 656 conicto
1120 320 1471 320 conicto
1824 320 2000 656 conicto
2176 992 2176 1663 conicto
2176 2336 2000 2672 conicto
1824 3008 1471 3008 conicto
1472 3392 moveto
2033 3392 2328 2949 conicto
2624 2506 2624 1663 conicto
2624 822 2328 379 conicto
2033 -64 1472 -64 conicto
911 -64 615 379 conicto
320 822 320 1663 conicto
320 2506 615 2949 conicto
911 3392 1472 3392 conicto
end_ol grestore 
gsave 11.607867 10.303791 translate 0.035278 -0.035278 scale
start_ol
512 576 moveto
960 576 lineto
960 0 lineto
512 0 lineto
512 576 lineto
end_ol grestore 
gsave 11.802600 10.303791 translate 0.035278 -0.035278 scale
start_ol
853 384 moveto
2450 384 lineto
2450 0 lineto
320 0 lineto
320 384 lineto
579 648 1027 1094 conicto
1476 1540 1591 1669 conicto
1810 1911 1897 2079 conicto
1984 2247 1984 2409 conicto
1984 2674 1793 2841 conicto
1602 3008 1295 3008 conicto
1078 3008 836 2944 conicto
595 2881 320 2752 conicto
320 3200 lineto
597 3296 838 3344 conicto
1079 3392 1279 3392 conicto
1805 3392 2118 3133 conicto
2432 2875 2432 2443 conicto
2432 2238 2353 2054 conicto
2275 1870 2070 1620 conicto
2012 1556 1708 1247 conicto
1405 939 853 384 conicto
end_ol grestore 
gsave 12.192067 10.303791 translate 0.035278 -0.035278 scale
start_ol
448 3328 moveto
2240 3328 lineto
2240 2944 lineto
896 2944 lineto
896 2172 lineto
994 2206 1092 2223 conicto
1190 2240 1288 2240 conicto
1845 2240 2170 1929 conicto
2496 1618 2496 1088 conicto
2496 542 2158 239 conicto
1820 -64 1205 -64 conicto
993 -64 773 -32 conicto
554 0 320 64 conicto
320 512 lineto
523 415 740 367 conicto
957 320 1200 320 conicto
1591 320 1819 527 conicto
2048 734 2048 1089 conicto
2048 1443 1817 1649 conicto
1587 1856 1192 1856 conicto
1008 1856 824 1809 conicto
640 1762 448 1664 conicto
448 3328 lineto
end_ol grestore 
gsave 12.581533 10.303791 translate 0.035278 -0.035278 scale
start_ol
1792 2934 moveto
630 1152 lineto
1792 1152 lineto
1792 2934 lineto
1664 3328 moveto
2240 3328 lineto
2240 1152 lineto
2688 1152 lineto
2688 768 lineto
2240 768 lineto
2240 0 lineto
1792 0 lineto
1792 768 lineto
256 768 lineto
256 1206 lineto
1664 3328 lineto
end_ol grestore 
0.150000 slw
[] 0 sd
[] 0 sd
0 slj
0 slc
n 4.762500 13.671700 m 4.762500 11.300000 l 13.550000 11.300000 l 13.550000 11.250000 l s
0.150000 slw
[] 0 sd
[] 0 sd
0 slj
0 slc
n 2.000000 6.550000 m 2.000000 9.000000 l 3.480680 9.000000 l 3.480680 13.671700 l s
0.150000 slw
[] 0 sd
[] 0 sd
0 slj
0 slc
n 13.944700 9.750000 m 13.944700 7.200000 l 10.695600 7.200000 l 10.695600 8.335650 l s
0.150000 slw
[] 0 sd
[] 0 sd
0 slj
0 slc
n 8.826490 5.084220 m 8.826490 6.050000 l 9.503710 6.050000 l 9.503710 8.335650 l s
gsave 5.428220 14.050000 translate 0.035278 -0.035278 scale
start_ol
448 3776 moveto
2062 3776 lineto
2798 3776 3191 3452 conicto
3584 3129 3584 2529 conicto
3584 1928 3191 1604 conicto
2798 1280 2062 1280 conicto
1408 1280 lineto
1408 0 lineto
448 0 lineto
448 3776 lineto
1408 3072 moveto
1408 1984 lineto
1958 1984 lineto
2246 1984 2403 2126 conicto
2560 2268 2560 2529 conicto
2560 2791 2403 2931 conicto
2246 3072 1958 3072 conicto
1408 3072 lineto
end_ol grestore 
gsave 5.927753 14.050000 translate 0.035278 -0.035278 scale
start_ol
2560 2048 moveto
2439 2114 2320 2145 conicto
2201 2176 2080 2176 conicto
1726 2176 1535 1948 conicto
1344 1721 1344 1297 conicto
1344 0 lineto
448 0 lineto
448 2816 lineto
1344 2816 lineto
1344 2368 lineto
1520 2636 1750 2758 conicto
1980 2880 2301 2880 conicto
2347 2880 2401 2876 conicto
2456 2873 2558 2861 conicto
2560 2048 lineto
end_ol grestore 
gsave 6.266420 14.050000 translate 0.035278 -0.035278 scale
start_ol
1764 2240 moveto
1465 2240 1308 2026 conicto
1152 1812 1152 1408 conicto
1152 1004 1308 790 conicto
1465 576 1764 576 conicto
2057 576 2212 790 conicto
2368 1004 2368 1408 conicto
2368 1812 2212 2026 conicto
2057 2240 1764 2240 conicto
1764 2880 moveto
2500 2880 2914 2489 conicto
3328 2099 3328 1408 conicto
3328 717 2914 326 conicto
2500 -64 1764 -64 conicto
1024 -64 608 326 conicto
192 717 192 1408 conicto
192 2099 608 2489 conicto
1024 2880 1764 2880 conicto
end_ol grestore 
gsave 6.740553 14.050000 translate 0.035278 -0.035278 scale
start_ol
64 2816 moveto
964 2816 lineto
1664 870 lineto
2363 2816 lineto
3264 2816 lineto
2157 0 lineto
1169 0 lineto
64 2816 lineto
end_ol grestore 
gsave 7.189287 14.050000 translate 0.035278 -0.035278 scale
start_ol
448 2816 moveto
1344 2816 lineto
1344 0 lineto
448 0 lineto
448 2816 lineto
448 3968 moveto
1344 3968 lineto
1344 3136 lineto
448 3136 lineto
448 3968 lineto
end_ol grestore 
gsave 7.426353 14.050000 translate 0.035278 -0.035278 scale
start_ol
2368 2368 moveto
2368 3968 lineto
3264 3968 lineto
3264 0 lineto
2368 0 lineto
2368 448 lineto
2177 182 1947 59 conicto
1717 -64 1414 -64 conicto
879 -64 535 347 conicto
192 759 192 1408 conicto
192 2057 535 2468 conicto
879 2880 1414 2880 conicto
1714 2880 1945 2755 conicto
2177 2631 2368 2368 conicto
1759 576 moveto
2056 576 2212 789 conicto
2368 1002 2368 1408 conicto
2368 1814 2212 2027 conicto
2056 2240 1759 2240 conicto
1464 2240 1308 2027 conicto
1152 1814 1152 1408 conicto
1152 1002 1308 789 conicto
1464 576 1759 576 conicto
end_ol grestore 
gsave 7.917420 14.050000 translate 0.035278 -0.035278 scale
start_ol
3264 1418 moveto
3264 1152 lineto
1088 1152 lineto
1122 832 1325 672 conicto
1529 512 1895 512 conicto
2190 512 2500 591 conicto
2810 671 3136 832 conicto
3136 128 lineto
2811 33 2485 -15 conicto
2160 -64 1834 -64 conicto
1056 -64 624 323 conicto
192 710 192 1408 conicto
192 2095 615 2487 conicto
1038 2880 1780 2880 conicto
2454 2880 2859 2482 conicto
3264 2084 3264 1418 conicto
2368 1728 moveto
2368 1987 2205 2145 conicto
2043 2304 1781 2304 conicto
1497 2304 1319 2155 conicto
1142 2007 1099 1728 conicto
2368 1728 lineto
end_ol grestore 
gsave 8.383087 14.050000 translate 0.035278 -0.035278 scale
start_ol
2560 2048 moveto
2439 2114 2320 2145 conicto
2201 2176 2080 2176 conicto
1726 2176 1535 1948 conicto
1344 1721 1344 1297 conicto
1344 0 lineto
448 0 lineto
448 2816 lineto
1344 2816 lineto
1344 2368 lineto
1520 2636 1750 2758 conicto
1980 2880 2301 2880 conicto
2347 2880 2401 2876 conicto
2456 2873 2558 2861 conicto
2560 2048 lineto
end_ol grestore 
gsave 8.721753 14.050000 translate 0.035278 -0.035278 scale
start_ol
end_ol grestore 
gsave 8.958820 14.050000 translate 0.035278 -0.035278 scale
start_ol
640 704 moveto
1472 704 lineto
1472 3072 lineto
576 2880 lineto
576 3584 lineto
1472 3776 lineto
2368 3776 lineto
2368 704 lineto
3200 704 lineto
3200 0 lineto
640 0 lineto
640 704 lineto
end_ol grestore 
gsave 10.428200 6.800000 translate 0.035278 -0.035278 scale
start_ol
448 3776 moveto
2062 3776 lineto
2798 3776 3191 3452 conicto
3584 3129 3584 2529 conicto
3584 1928 3191 1604 conicto
2798 1280 2062 1280 conicto
1408 1280 lineto
1408 0 lineto
448 0 lineto
448 3776 lineto
1408 3072 moveto
1408 1984 lineto
1958 1984 lineto
2246 1984 2403 2126 conicto
2560 2268 2560 2529 conicto
2560 2791 2403 2931 conicto
2246 3072 1958 3072 conicto
1408 3072 lineto
end_ol grestore 
gsave 10.927733 6.800000 translate 0.035278 -0.035278 scale
start_ol
2560 2048 moveto
2439 2114 2320 2145 conicto
2201 2176 2080 2176 conicto
1726 2176 1535 1948 conicto
1344 1721 1344 1297 conicto
1344 0 lineto
448 0 lineto
448 2816 lineto
1344 2816 lineto
1344 2368 lineto
1520 2636 1750 2758 conicto
1980 2880 2301 2880 conicto
2347 2880 2401 2876 conicto
2456 2873 2558 2861 conicto
2560 2048 lineto
end_ol grestore 
gsave 11.266400 6.800000 translate 0.035278 -0.035278 scale
start_ol
1764 2240 moveto
1465 2240 1308 2026 conicto
1152 1812 1152 1408 conicto
1152 1004 1308 790 conicto
1465 576 1764 576 conicto
2057 576 2212 790 conicto
2368 1004 2368 1408 conicto
2368 1812 2212 2026 conicto
2057 2240 1764 2240 conicto
1764 2880 moveto
2500 2880 2914 2489 conicto
3328 2099 3328 1408 conicto
3328 717 2914 326 conicto
2500 -64 1764 -64 conicto
1024 -64 608 326 conicto
192 717 192 1408 conicto
192 2099 608 2489 conicto
1024 2880 1764 2880 conicto
end_ol grestore 
gsave 11.740533 6.800000 translate 0.035278 -0.035278 scale
start_ol
64 2816 moveto
964 2816 lineto
1664 870 lineto
2363 2816 lineto
3264 2816 lineto
2157 0 lineto
1169 0 lineto
64 2816 lineto
end_ol grestore 
gsave 12.189267 6.800000 translate 0.035278 -0.035278 scale
start_ol
448 2816 moveto
1344 2816 lineto
1344 0 lineto
448 0 lineto
448 2816 lineto
448 3968 moveto
1344 3968 lineto
1344 3136 lineto
448 3136 lineto
448 3968 lineto
end_ol grestore 
gsave 12.426333 6.800000 translate 0.035278 -0.035278 scale
start_ol
2368 2368 moveto
2368 3968 lineto
3264 3968 lineto
3264 0 lineto
2368 0 lineto
2368 448 lineto
2177 182 1947 59 conicto
1717 -64 1414 -64 conicto
879 -64 535 347 conicto
192 759 192 1408 conicto
192 2057 535 2468 conicto
879 2880 1414 2880 conicto
1714 2880 1945 2755 conicto
2177 2631 2368 2368 conicto
1759 576 moveto
2056 576 2212 789 conicto
2368 1002 2368 1408 conicto
2368 1814 2212 2027 conicto
2056 2240 1759 2240 conicto
1464 2240 1308 2027 conicto
1152 1814 1152 1408 conicto
1152 1002 1308 789 conicto
1464 576 1759 576 conicto
end_ol grestore 
gsave 12.917400 6.800000 translate 0.035278 -0.035278 scale
start_ol
3264 1418 moveto
3264 1152 lineto
1088 1152 lineto
1122 832 1325 672 conicto
1529 512 1895 512 conicto
2190 512 2500 591 conicto
2810 671 3136 832 conicto
3136 128 lineto
2811 33 2485 -15 conicto
2160 -64 1834 -64 conicto
1056 -64 624 323 conicto
192 710 192 1408 conicto
192 2095 615 2487 conicto
1038 2880 1780 2880 conicto
2454 2880 2859 2482 conicto
3264 2084 3264 1418 conicto
2368 1728 moveto
2368 1987 2205 2145 conicto
2043 2304 1781 2304 conicto
1497 2304 1319 2155 conicto
1142 2007 1099 1728 conicto
2368 1728 lineto
end_ol grestore 
gsave 13.383067 6.800000 translate 0.035278 -0.035278 scale
start_ol
2560 2048 moveto
2439 2114 2320 2145 conicto
2201 2176 2080 2176 conicto
1726 2176 1535 1948 conicto
1344 1721 1344 1297 conicto
1344 0 lineto
448 0 lineto
448 2816 lineto
1344 2816 lineto
1344 2368 lineto
1520 2636 1750 2758 conicto
1980 2880 2301 2880 conicto
2347 2880 2401 2876 conicto
2456 2873 2558 2861 conicto
2560 2048 lineto
end_ol grestore 
gsave 13.721733 6.800000 translate 0.035278 -0.035278 scale
start_ol
end_ol grestore 
gsave 13.958800 6.800000 translate 0.035278 -0.035278 scale
start_ol
1494 704 moveto
3136 704 lineto
3136 0 lineto
384 0 lineto
384 704 lineto
1801 1941 lineto
1992 2109 2084 2270 conicto
2176 2431 2176 2605 conicto
2176 2873 1991 3036 conicto
1807 3200 1500 3200 conicto
1264 3200 984 3103 conicto
704 3007 384 2816 conicto
384 3648 lineto
718 3742 1044 3791 conicto
1371 3840 1684 3840 conicto
2373 3840 2754 3542 conicto
3136 3244 3136 2711 conicto
3136 2403 2979 2137 conicto
2823 1871 2322 1424 conicto
1494 704 lineto
end_ol grestore 
gsave 11.378200 11.950000 translate 0.035278 -0.035278 scale
start_ol
2624 1352 moveto
2624 1152 lineto
704 1152 lineto
731 715 960 485 conicto
1189 256 1597 256 conicto
1834 256 2056 320 conicto
2278 384 2496 512 conicto
2496 128 lineto
2273 34 2039 -15 conicto
1805 -64 1565 -64 conicto
961 -64 608 284 conicto
256 632 256 1225 conicto
256 1839 595 2199 conicto
934 2560 1509 2560 conicto
2024 2560 2324 2235 conicto
2624 1910 2624 1352 conicto
2240 1472 moveto
2235 1822 2043 2031 conicto
1852 2240 1537 2240 conicto
1180 2240 965 2038 conicto
750 1836 718 1470 conicto
2240 1472 lineto
end_ol grestore 
gsave 11.750733 11.950000 translate 0.035278 -0.035278 scale
start_ol
832 3200 moveto
832 2496 lineto
1664 2496 lineto
1664 2176 lineto
832 2176 lineto
832 804 lineto
832 495 914 407 conicto
997 320 1248 320 conicto
1664 320 lineto
1664 0 lineto
1248 0 lineto
793 0 620 173 conicto
448 347 448 804 conicto
448 2176 lineto
128 2176 lineto
128 2496 lineto
448 2496 lineto
448 3200 lineto
832 3200 lineto
end_ol grestore 
gsave 11.987800 11.950000 translate 0.035278 -0.035278 scale
start_ol
2560 1509 moveto
2560 0 lineto
2176 0 lineto
2176 1496 lineto
2176 1869 2029 2054 conicto
1883 2240 1590 2240 conicto
1238 2240 1035 2018 conicto
832 1796 832 1413 conicto
832 0 lineto
448 0 lineto
448 3520 lineto
832 3520 lineto
832 2112 lineto
983 2337 1188 2448 conicto
1394 2560 1662 2560 conicto
2106 2560 2333 2293 conicto
2560 2027 2560 1509 conicto
end_ol grestore 
gsave 12.377267 11.950000 translate 0.035278 -0.035278 scale
start_ol
1471 3008 moveto
1120 3008 944 2672 conicto
768 2336 768 1663 conicto
768 992 944 656 conicto
1120 320 1471 320 conicto
1824 320 2000 656 conicto
2176 992 2176 1663 conicto
2176 2336 2000 2672 conicto
1824 3008 1471 3008 conicto
1472 3392 moveto
2033 3392 2328 2949 conicto
2624 2506 2624 1663 conicto
2624 822 2328 379 conicto
2033 -64 1472 -64 conicto
911 -64 615 379 conicto
320 822 320 1663 conicto
320 2506 615 2949 conicto
911 3392 1472 3392 conicto
end_ol grestore 
gsave 12.278200 9.350000 translate 0.035278 -0.035278 scale
start_ol
2624 1352 moveto
2624 1152 lineto
704 1152 lineto
731 715 960 485 conicto
1189 256 1597 256 conicto
1834 256 2056 320 conicto
2278 384 2496 512 conicto
2496 128 lineto
2273 34 2039 -15 conicto
1805 -64 1565 -64 conicto
961 -64 608 284 conicto
256 632 256 1225 conicto
256 1839 595 2199 conicto
934 2560 1509 2560 conicto
2024 2560 2324 2235 conicto
2624 1910 2624 1352 conicto
2240 1472 moveto
2235 1822 2043 2031 conicto
1852 2240 1537 2240 conicto
1180 2240 965 2038 conicto
750 1836 718 1470 conicto
2240 1472 lineto
end_ol grestore 
gsave 12.650733 9.350000 translate 0.035278 -0.035278 scale
start_ol
832 3200 moveto
832 2496 lineto
1664 2496 lineto
1664 2176 lineto
832 2176 lineto
832 804 lineto
832 495 914 407 conicto
997 320 1248 320 conicto
1664 320 lineto
1664 0 lineto
1248 0 lineto
793 0 620 173 conicto
448 347 448 804 conicto
448 2176 lineto
128 2176 lineto
128 2496 lineto
448 2496 lineto
448 3200 lineto
832 3200 lineto
end_ol grestore 
gsave 12.887800 9.350000 translate 0.035278 -0.035278 scale
start_ol
2560 1509 moveto
2560 0 lineto
2176 0 lineto
2176 1496 lineto
2176 1869 2029 2054 conicto
1883 2240 1590 2240 conicto
1238 2240 1035 2018 conicto
832 1796 832 1413 conicto
832 0 lineto
448 0 lineto
448 3520 lineto
832 3520 lineto
832 2112 lineto
983 2337 1188 2448 conicto
1394 2560 1662 2560 conicto
2106 2560 2333 2293 conicto
2560 2027 2560 1509 conicto
end_ol grestore 
gsave 13.277267 9.350000 translate 0.035278 -0.035278 scale
start_ol
576 384 moveto
1344 384 lineto
1344 2944 lineto
512 2752 lineto
512 3136 lineto
1330 3328 lineto
1792 3328 lineto
1792 384 lineto
2560 384 lineto
2560 0 lineto
576 0 lineto
576 384 lineto
end_ol grestore 
gsave 7.178220 12.000000 translate 0.035278 -0.035278 scale
start_ol
576 384 moveto
1344 384 lineto
1344 2944 lineto
512 2752 lineto
512 3136 lineto
1330 3328 lineto
1792 3328 lineto
1792 384 lineto
2560 384 lineto
2560 0 lineto
576 0 lineto
576 384 lineto
end_ol grestore 
gsave 7.567687 12.000000 translate 0.035278 -0.035278 scale
start_ol
512 64 moveto
512 448 lineto
684 386 861 353 conicto
1038 320 1209 320 conicto
1663 320 1902 632 conicto
2142 944 2176 1578 conicto
2046 1372 1847 1262 conicto
1648 1152 1406 1152 conicto
905 1152 612 1451 conicto
320 1750 320 2270 conicto
320 2778 624 3085 conicto
928 3392 1434 3392 conicto
2014 3392 2319 2949 conicto
2624 2506 2624 1663 conicto
2624 875 2245 405 conicto
1866 -64 1226 -64 conicto
1055 -64 878 -32 conicto
702 0 512 64 conicto
1440 1536 moveto
1750 1536 1931 1733 conicto
2112 1930 2112 2272 conicto
2112 2612 1931 2810 conicto
1750 3008 1440 3008 conicto
1130 3008 949 2810 conicto
768 2612 768 2272 conicto
768 1930 949 1733 conicto
1130 1536 1440 1536 conicto
end_ol grestore 
gsave 7.957153 12.000000 translate 0.035278 -0.035278 scale
start_ol
853 384 moveto
2450 384 lineto
2450 0 lineto
320 0 lineto
320 384 lineto
579 648 1027 1094 conicto
1476 1540 1591 1669 conicto
1810 1911 1897 2079 conicto
1984 2247 1984 2409 conicto
1984 2674 1793 2841 conicto
1602 3008 1295 3008 conicto
1078 3008 836 2944 conicto
595 2881 320 2752 conicto
320 3200 lineto
597 3296 838 3344 conicto
1079 3392 1279 3392 conicto
1805 3392 2118 3133 conicto
2432 2875 2432 2443 conicto
2432 2238 2353 2054 conicto
2275 1870 2070 1620 conicto
2012 1556 1708 1247 conicto
1405 939 853 384 conicto
end_ol grestore 
gsave 8.346620 12.000000 translate 0.035278 -0.035278 scale
start_ol
512 576 moveto
960 576 lineto
960 0 lineto
512 0 lineto
512 576 lineto
end_ol grestore 
gsave 8.541353 12.000000 translate 0.035278 -0.035278 scale
start_ol
576 384 moveto
1344 384 lineto
1344 2944 lineto
512 2752 lineto
512 3136 lineto
1330 3328 lineto
1792 3328 lineto
1792 384 lineto
2560 384 lineto
2560 0 lineto
576 0 lineto
576 384 lineto
end_ol grestore 
gsave 8.930820 12.000000 translate 0.035278 -0.035278 scale
start_ol
1504 1792 moveto
1194 1792 1013 1595 conicto
832 1398 832 1056 conicto
832 716 1013 518 conicto
1194 320 1504 320 conicto
1814 320 1995 518 conicto
2176 716 2176 1056 conicto
2176 1398 1995 1595 conicto
1814 1792 1504 1792 conicto
2432 3264 moveto
2432 2880 lineto
2259 2942 2083 2975 conicto
1908 3008 1736 3008 conicto
1282 3008 1042 2695 conicto
802 2382 768 1750 conicto
900 1956 1099 2066 conicto
1298 2176 1537 2176 conicto
2040 2176 2332 1875 conicto
2624 1574 2624 1056 conicto
2624 548 2320 242 conicto
2016 -64 1511 -64 conicto
932 -64 626 379 conicto
320 822 320 1663 conicto
320 2453 700 2922 conicto
1080 3392 1720 3392 conicto
1892 3392 2067 3360 conicto
2242 3328 2432 3264 conicto
end_ol grestore 
gsave 9.320287 12.000000 translate 0.035278 -0.035278 scale
start_ol
1471 1600 moveto
1143 1600 955 1429 conicto
768 1259 768 960 conicto
768 661 955 490 conicto
1143 320 1471 320 conicto
1799 320 1987 492 conicto
2176 664 2176 960 conicto
2176 1259 1988 1429 conicto
1801 1600 1471 1600 conicto
1003 1808 moveto
711 1878 547 2072 conicto
384 2266 384 2546 conicto
384 2937 674 3164 conicto
965 3392 1472 3392 conicto
1981 3392 2270 3164 conicto
2560 2937 2560 2546 conicto
2560 2266 2396 2072 conicto
2232 1878 1941 1808 conicto
2263 1730 2443 1505 conicto
2624 1281 2624 956 conicto
2624 463 2326 199 conicto
2028 -64 1472 -64 conicto
916 -64 618 199 conicto
320 463 320 956 conicto
320 1281 501 1505 conicto
682 1730 1003 1808 conicto
832 2496 moveto
832 2255 999 2119 conicto
1167 1984 1471 1984 conicto
1771 1984 1941 2119 conicto
2112 2255 2112 2496 conicto
2112 2738 1941 2873 conicto
1771 3008 1471 3008 conicto
1167 3008 999 2873 conicto
832 2738 832 2496 conicto
end_ol grestore 
gsave 9.709753 12.000000 translate 0.035278 -0.035278 scale
start_ol
512 576 moveto
960 576 lineto
960 0 lineto
512 0 lineto
512 576 lineto
end_ol grestore 
gsave 9.904487 12.000000 translate 0.035278 -0.035278 scale
start_ol
576 384 moveto
1344 384 lineto
1344 2944 lineto
512 2752 lineto
512 3136 lineto
1330 3328 lineto
1792 3328 lineto
1792 384 lineto
2560 384 lineto
2560 0 lineto
576 0 lineto
576 384 lineto
end_ol grestore 
gsave 10.293953 12.000000 translate 0.035278 -0.035278 scale
start_ol
1471 3008 moveto
1120 3008 944 2672 conicto
768 2336 768 1663 conicto
768 992 944 656 conicto
1120 320 1471 320 conicto
1824 320 2000 656 conicto
2176 992 2176 1663 conicto
2176 2336 2000 2672 conicto
1824 3008 1471 3008 conicto
1472 3392 moveto
2033 3392 2328 2949 conicto
2624 2506 2624 1663 conicto
2624 822 2328 379 conicto
2033 -64 1472 -64 conicto
911 -64 615 379 conicto
320 822 320 1663 conicto
320 2506 615 2949 conicto
911 3392 1472 3392 conicto
end_ol grestore 
gsave 10.683420 12.000000 translate 0.035278 -0.035278 scale
start_ol
512 576 moveto
960 576 lineto
960 0 lineto
512 0 lineto
512 576 lineto
end_ol grestore 
gsave 10.878153 12.000000 translate 0.035278 -0.035278 scale
start_ol
576 384 moveto
1344 384 lineto
1344 2944 lineto
512 2752 lineto
512 3136 lineto
1330 3328 lineto
1792 3328 lineto
1792 384 lineto
2560 384 lineto
2560 0 lineto
576 0 lineto
576 384 lineto
end_ol grestore 
gsave 14.178200 9.350000 translate 0.035278 -0.035278 scale
start_ol
576 384 moveto
1344 384 lineto
1344 2944 lineto
512 2752 lineto
512 3136 lineto
1330 3328 lineto
1792 3328 lineto
1792 384 lineto
2560 384 lineto
2560 0 lineto
576 0 lineto
576 384 lineto
end_ol grestore 
gsave 14.567667 9.350000 translate 0.035278 -0.035278 scale
start_ol
512 64 moveto
512 448 lineto
684 386 861 353 conicto
1038 320 1209 320 conicto
1663 320 1902 632 conicto
2142 944 2176 1578 conicto
2046 1372 1847 1262 conicto
1648 1152 1406 1152 conicto
905 1152 612 1451 conicto
320 1750 320 2270 conicto
320 2778 624 3085 conicto
928 3392 1434 3392 conicto
2014 3392 2319 2949 conicto
2624 2506 2624 1663 conicto
2624 875 2245 405 conicto
1866 -64 1226 -64 conicto
1055 -64 878 -32 conicto
702 0 512 64 conicto
1440 1536 moveto
1750 1536 1931 1733 conicto
2112 1930 2112 2272 conicto
2112 2612 1931 2810 conicto
1750 3008 1440 3008 conicto
1130 3008 949 2810 conicto
768 2612 768 2272 conicto
768 1930 949 1733 conicto
1130 1536 1440 1536 conicto
end_ol grestore 
gsave 14.957133 9.350000 translate 0.035278 -0.035278 scale
start_ol
853 384 moveto
2450 384 lineto
2450 0 lineto
320 0 lineto
320 384 lineto
579 648 1027 1094 conicto
1476 1540 1591 1669 conicto
1810 1911 1897 2079 conicto
1984 2247 1984 2409 conicto
1984 2674 1793 2841 conicto
1602 3008 1295 3008 conicto
1078 3008 836 2944 conicto
595 2881 320 2752 conicto
320 3200 lineto
597 3296 838 3344 conicto
1079 3392 1279 3392 conicto
1805 3392 2118 3133 conicto
2432 2875 2432 2443 conicto
2432 2238 2353 2054 conicto
2275 1870 2070 1620 conicto
2012 1556 1708 1247 conicto
1405 939 853 384 conicto
end_ol grestore 
gsave 15.346600 9.350000 translate 0.035278 -0.035278 scale
start_ol
512 576 moveto
960 576 lineto
960 0 lineto
512 0 lineto
512 576 lineto
end_ol grestore 
gsave 15.541333 9.350000 translate 0.035278 -0.035278 scale
start_ol
576 384 moveto
1344 384 lineto
1344 2944 lineto
512 2752 lineto
512 3136 lineto
1330 3328 lineto
1792 3328 lineto
1792 384 lineto
2560 384 lineto
2560 0 lineto
576 0 lineto
576 384 lineto
end_ol grestore 
gsave 15.930800 9.350000 translate 0.035278 -0.035278 scale
start_ol
1504 1792 moveto
1194 1792 1013 1595 conicto
832 1398 832 1056 conicto
832 716 1013 518 conicto
1194 320 1504 320 conicto
1814 320 1995 518 conicto
2176 716 2176 1056 conicto
2176 1398 1995 1595 conicto
1814 1792 1504 1792 conicto
2432 3264 moveto
2432 2880 lineto
2259 2942 2083 2975 conicto
1908 3008 1736 3008 conicto
1282 3008 1042 2695 conicto
802 2382 768 1750 conicto
900 1956 1099 2066 conicto
1298 2176 1537 2176 conicto
2040 2176 2332 1875 conicto
2624 1574 2624 1056 conicto
2624 548 2320 242 conicto
2016 -64 1511 -64 conicto
932 -64 626 379 conicto
320 822 320 1663 conicto
320 2453 700 2922 conicto
1080 3392 1720 3392 conicto
1892 3392 2067 3360 conicto
2242 3328 2432 3264 conicto
end_ol grestore 
gsave 16.320267 9.350000 translate 0.035278 -0.035278 scale
start_ol
1471 1600 moveto
1143 1600 955 1429 conicto
768 1259 768 960 conicto
768 661 955 490 conicto
1143 320 1471 320 conicto
1799 320 1987 492 conicto
2176 664 2176 960 conicto
2176 1259 1988 1429 conicto
1801 1600 1471 1600 conicto
1003 1808 moveto
711 1878 547 2072 conicto
384 2266 384 2546 conicto
384 2937 674 3164 conicto
965 3392 1472 3392 conicto
1981 3392 2270 3164 conicto
2560 2937 2560 2546 conicto
2560 2266 2396 2072 conicto
2232 1878 1941 1808 conicto
2263 1730 2443 1505 conicto
2624 1281 2624 956 conicto
2624 463 2326 199 conicto
2028 -64 1472 -64 conicto
916 -64 618 199 conicto
320 463 320 956 conicto
320 1281 501 1505 conicto
682 1730 1003 1808 conicto
832 2496 moveto
832 2255 999 2119 conicto
1167 1984 1471 1984 conicto
1771 1984 1941 2119 conicto
2112 2255 2112 2496 conicto
2112 2738 1941 2873 conicto
1771 3008 1471 3008 conicto
1167 3008 999 2873 conicto
832 2738 832 2496 conicto
end_ol grestore 
gsave 16.709733 9.350000 translate 0.035278 -0.035278 scale
start_ol
512 576 moveto
960 576 lineto
960 0 lineto
512 0 lineto
512 576 lineto
end_ol grestore 
gsave 16.904467 9.350000 translate 0.035278 -0.035278 scale
start_ol
853 384 moveto
2450 384 lineto
2450 0 lineto
320 0 lineto
320 384 lineto
579 648 1027 1094 conicto
1476 1540 1591 1669 conicto
1810 1911 1897 2079 conicto
1984 2247 1984 2409 conicto
1984 2674 1793 2841 conicto
1602 3008 1295 3008 conicto
1078 3008 836 2944 conicto
595 2881 320 2752 conicto
320 3200 lineto
597 3296 838 3344 conicto
1079 3392 1279 3392 conicto
1805 3392 2118 3133 conicto
2432 2875 2432 2443 conicto
2432 2238 2353 2054 conicto
2275 1870 2070 1620 conicto
2012 1556 1708 1247 conicto
1405 939 853 384 conicto
end_ol grestore 
gsave 17.293933 9.350000 translate 0.035278 -0.035278 scale
start_ol
1471 3008 moveto
1120 3008 944 2672 conicto
768 2336 768 1663 conicto
768 992 944 656 conicto
1120 320 1471 320 conicto
1824 320 2000 656 conicto
2176 992 2176 1663 conicto
2176 2336 2000 2672 conicto
1824 3008 1471 3008 conicto
1472 3392 moveto
2033 3392 2328 2949 conicto
2624 2506 2624 1663 conicto
2624 822 2328 379 conicto
2033 -64 1472 -64 conicto
911 -64 615 379 conicto
320 822 320 1663 conicto
320 2506 615 2949 conicto
911 3392 1472 3392 conicto
end_ol grestore 
gsave 17.683400 9.350000 translate 0.035278 -0.035278 scale
start_ol
512 576 moveto
960 576 lineto
960 0 lineto
512 0 lineto
512 576 lineto
end_ol grestore 
gsave 17.878133 9.350000 translate 0.035278 -0.035278 scale
start_ol
576 384 moveto
1344 384 lineto
1344 2944 lineto
512 2752 lineto
512 3136 lineto
1330 3328 lineto
1792 3328 lineto
1792 384 lineto
2560 384 lineto
2560 0 lineto
576 0 lineto
576 384 lineto
end_ol grestore 
showpage
