%!PS-Adobe-2.0 EPSF-2.0
%%Title: bilder/ARP-comm.dia
%%Creator: Dia v0.94
%%CreationDate: Tue Apr 18 04:46:40 2006
%%For: dirk
%%Orientation: Portrait
%%Magnification: 1.0000
%%BoundingBox: 0 0 395 251
%%BeginSetup
%%EndSetup
%%EndComments
%%BeginProlog
[ /.notdef /.notdef /.notdef /.notdef /.notdef /.notdef /.notdef /.notdef /.notdef /.notdef
/.notdef /.notdef /.notdef /.notdef /.notdef /.notdef /.notdef /.notdef /.notdef /.notdef
/.notdef /.notdef /.notdef /.notdef /.notdef /.notdef /.notdef /.notdef /.notdef /.notdef
/.notdef /.notdef /space /exclam /quotedbl /numbersign /dollar /percent /ampersand /quoteright
/parenleft /parenright /asterisk /plus /comma /hyphen /period /slash /zero /one
/two /three /four /five /six /seven /eight /nine /colon /semicolon
/less /equal /greater /question /at /A /B /C /D /E
/F /G /H /I /J /K /L /M /N /O
/P /Q /R /S /T /U /V /W /X /Y
/Z /bracketleft /backslash /bracketright /asciicircum /underscore /quoteleft /a /b /c
/d /e /f /g /h /i /j /k /l /m
/n /o /p /q /r /s /t /u /v /w
/x /y /z /braceleft /bar /braceright /asciitilde /.notdef /.notdef /.notdef
/.notdef /.notdef /.notdef /.notdef /.notdef /.notdef /.notdef /.notdef /.notdef /.notdef
/.notdef /.notdef /.notdef /.notdef /.notdef /.notdef /.notdef /.notdef /.notdef /.notdef
/.notdef /.notdef /.notdef /.notdef /.notdef /.notdef /.notdef /.notdef /.notdef /.notdef
/space /exclamdown /cent /sterling /currency /yen /brokenbar /section /dieresis /copyright
/ordfeminine /guillemotleft /logicalnot /hyphen /registered /macron /degree /plusminus /twosuperior /threesuperior
/acute /mu /paragraph /periodcentered /cedilla /onesuperior /ordmasculine /guillemotright /onequarter /onehalf
/threequarters /questiondown /Agrave /Aacute /Acircumflex /Atilde /Adieresis /Aring /AE /Ccedilla
/Egrave /Eacute /Ecircumflex /Edieresis /Igrave /Iacute /Icircumflex /Idieresis /Eth /Ntilde
/Ograve /Oacute /Ocircumflex /Otilde /Odieresis /multiply /Oslash /Ugrave /Uacute /Ucircumflex
/Udieresis /Yacute /Thorn /germandbls /agrave /aacute /acircumflex /atilde /adieresis /aring
/ae /ccedilla /egrave /eacute /ecircumflex /edieresis /igrave /iacute /icircumflex /idieresis
/eth /ntilde /ograve /oacute /ocircumflex /otilde /odieresis /divide /oslash /ugrave
/uacute /ucircumflex /udieresis /yacute /thorn /ydieresis] /isolatin1encoding exch def
/cp {closepath} bind def
/c {curveto} bind def
/f {fill} bind def
/a {arc} bind def
/ef {eofill} bind def
/ex {exch} bind def
/gr {grestore} bind def
/gs {gsave} bind def
/sa {save} bind def
/rs {restore} bind def
/l {lineto} bind def
/m {moveto} bind def
/rm {rmoveto} bind def
/n {newpath} bind def
/s {stroke} bind def
/sh {show} bind def
/slc {setlinecap} bind def
/slj {setlinejoin} bind def
/slw {setlinewidth} bind def
/srgb {setrgbcolor} bind def
/rot {rotate} bind def
/sc {scale} bind def
/sd {setdash} bind def
/ff {findfont} bind def
/sf {setfont} bind def
/scf {scalefont} bind def
/sw {stringwidth pop} bind def
/tr {translate} bind def

/ellipsedict 8 dict def
ellipsedict /mtrx matrix put
/ellipse
{ ellipsedict begin
   /endangle exch def
   /startangle exch def
   /yrad exch def
   /xrad exch def
   /y exch def
   /x exch def   /savematrix mtrx currentmatrix def
   x y tr xrad yrad sc
   0 0 1 startangle endangle arc
   savematrix setmatrix
   end
} def

/mergeprocs {
dup length
3 -1 roll
dup
length
dup
5 1 roll
3 -1 roll
add
array cvx
dup
3 -1 roll
0 exch
putinterval
dup
4 2 roll
putinterval
} bind def
/Times-Roman-latin1
    /Times-Roman findfont
    dup length dict begin
	{1 index /FID ne {def} {pop pop} ifelse} forall
	/Encoding isolatin1encoding def
    currentdict end
definefont pop
/Times-Italic-latin1
    /Times-Italic findfont
    dup length dict begin
	{1 index /FID ne {def} {pop pop} ifelse} forall
	/Encoding isolatin1encoding def
    currentdict end
definefont pop
/Times-Bold-latin1
    /Times-Bold findfont
    dup length dict begin
	{1 index /FID ne {def} {pop pop} ifelse} forall
	/Encoding isolatin1encoding def
    currentdict end
definefont pop
/Times-BoldItalic-latin1
    /Times-BoldItalic findfont
    dup length dict begin
	{1 index /FID ne {def} {pop pop} ifelse} forall
	/Encoding isolatin1encoding def
    currentdict end
definefont pop
/AvantGarde-Book-latin1
    /AvantGarde-Book findfont
    dup length dict begin
	{1 index /FID ne {def} {pop pop} ifelse} forall
	/Encoding isolatin1encoding def
    currentdict end
definefont pop
/AvantGarde-BookOblique-latin1
    /AvantGarde-BookOblique findfont
    dup length dict begin
	{1 index /FID ne {def} {pop pop} ifelse} forall
	/Encoding isolatin1encoding def
    currentdict end
definefont pop
/AvantGarde-Demi-latin1
    /AvantGarde-Demi findfont
    dup length dict begin
	{1 index /FID ne {def} {pop pop} ifelse} forall
	/Encoding isolatin1encoding def
    currentdict end
definefont pop
/AvantGarde-DemiOblique-latin1
    /AvantGarde-DemiOblique findfont
    dup length dict begin
	{1 index /FID ne {def} {pop pop} ifelse} forall
	/Encoding isolatin1encoding def
    currentdict end
definefont pop
/Bookman-Light-latin1
    /Bookman-Light findfont
    dup length dict begin
	{1 index /FID ne {def} {pop pop} ifelse} forall
	/Encoding isolatin1encoding def
    currentdict end
definefont pop
/Bookman-LightItalic-latin1
    /Bookman-LightItalic findfont
    dup length dict begin
	{1 index /FID ne {def} {pop pop} ifelse} forall
	/Encoding isolatin1encoding def
    currentdict end
definefont pop
/Bookman-Demi-latin1
    /Bookman-Demi findfont
    dup length dict begin
	{1 index /FID ne {def} {pop pop} ifelse} forall
	/Encoding isolatin1encoding def
    currentdict end
definefont pop
/Bookman-DemiItalic-latin1
    /Bookman-DemiItalic findfont
    dup length dict begin
	{1 index /FID ne {def} {pop pop} ifelse} forall
	/Encoding isolatin1encoding def
    currentdict end
definefont pop
/Courier-latin1
    /Courier findfont
    dup length dict begin
	{1 index /FID ne {def} {pop pop} ifelse} forall
	/Encoding isolatin1encoding def
    currentdict end
definefont pop
/Courier-Oblique-latin1
    /Courier-Oblique findfont
    dup length dict begin
	{1 index /FID ne {def} {pop pop} ifelse} forall
	/Encoding isolatin1encoding def
    currentdict end
definefont pop
/Courier-Bold-latin1
    /Courier-Bold findfont
    dup length dict begin
	{1 index /FID ne {def} {pop pop} ifelse} forall
	/Encoding isolatin1encoding def
    currentdict end
definefont pop
/Courier-BoldOblique-latin1
    /Courier-BoldOblique findfont
    dup length dict begin
	{1 index /FID ne {def} {pop pop} ifelse} forall
	/Encoding isolatin1encoding def
    currentdict end
definefont pop
/Helvetica-latin1
    /Helvetica findfont
    dup length dict begin
	{1 index /FID ne {def} {pop pop} ifelse} forall
	/Encoding isolatin1encoding def
    currentdict end
definefont pop
/Helvetica-Oblique-latin1
    /Helvetica-Oblique findfont
    dup length dict begin
	{1 index /FID ne {def} {pop pop} ifelse} forall
	/Encoding isolatin1encoding def
    currentdict end
definefont pop
/Helvetica-Bold-latin1
    /Helvetica-Bold findfont
    dup length dict begin
	{1 index /FID ne {def} {pop pop} ifelse} forall
	/Encoding isolatin1encoding def
    currentdict end
definefont pop
/Helvetica-BoldOblique-latin1
    /Helvetica-BoldOblique findfont
    dup length dict begin
	{1 index /FID ne {def} {pop pop} ifelse} forall
	/Encoding isolatin1encoding def
    currentdict end
definefont pop
/Helvetica-Narrow-latin1
    /Helvetica-Narrow findfont
    dup length dict begin
	{1 index /FID ne {def} {pop pop} ifelse} forall
	/Encoding isolatin1encoding def
    currentdict end
definefont pop
/Helvetica-Narrow-Oblique-latin1
    /Helvetica-Narrow-Oblique findfont
    dup length dict begin
	{1 index /FID ne {def} {pop pop} ifelse} forall
	/Encoding isolatin1encoding def
    currentdict end
definefont pop
/Helvetica-Narrow-Bold-latin1
    /Helvetica-Narrow-Bold findfont
    dup length dict begin
	{1 index /FID ne {def} {pop pop} ifelse} forall
	/Encoding isolatin1encoding def
    currentdict end
definefont pop
/Helvetica-Narrow-BoldOblique-latin1
    /Helvetica-Narrow-BoldOblique findfont
    dup length dict begin
	{1 index /FID ne {def} {pop pop} ifelse} forall
	/Encoding isolatin1encoding def
    currentdict end
definefont pop
/NewCenturySchoolbook-Roman-latin1
    /NewCenturySchoolbook-Roman findfont
    dup length dict begin
	{1 index /FID ne {def} {pop pop} ifelse} forall
	/Encoding isolatin1encoding def
    currentdict end
definefont pop
/NewCenturySchoolbook-Italic-latin1
    /NewCenturySchoolbook-Italic findfont
    dup length dict begin
	{1 index /FID ne {def} {pop pop} ifelse} forall
	/Encoding isolatin1encoding def
    currentdict end
definefont pop
/NewCenturySchoolbook-Bold-latin1
    /NewCenturySchoolbook-Bold findfont
    dup length dict begin
	{1 index /FID ne {def} {pop pop} ifelse} forall
	/Encoding isolatin1encoding def
    currentdict end
definefont pop
/NewCenturySchoolbook-BoldItalic-latin1
    /NewCenturySchoolbook-BoldItalic findfont
    dup length dict begin
	{1 index /FID ne {def} {pop pop} ifelse} forall
	/Encoding isolatin1encoding def
    currentdict end
definefont pop
/Palatino-Roman-latin1
    /Palatino-Roman findfont
    dup length dict begin
	{1 index /FID ne {def} {pop pop} ifelse} forall
	/Encoding isolatin1encoding def
    currentdict end
definefont pop
/Palatino-Italic-latin1
    /Palatino-Italic findfont
    dup length dict begin
	{1 index /FID ne {def} {pop pop} ifelse} forall
	/Encoding isolatin1encoding def
    currentdict end
definefont pop
/Palatino-Bold-latin1
    /Palatino-Bold findfont
    dup length dict begin
	{1 index /FID ne {def} {pop pop} ifelse} forall
	/Encoding isolatin1encoding def
    currentdict end
definefont pop
/Palatino-BoldItalic-latin1
    /Palatino-BoldItalic findfont
    dup length dict begin
	{1 index /FID ne {def} {pop pop} ifelse} forall
	/Encoding isolatin1encoding def
    currentdict end
definefont pop
/Symbol-latin1
    /Symbol findfont
definefont pop
/ZapfChancery-MediumItalic-latin1
    /ZapfChancery-MediumItalic findfont
    dup length dict begin
	{1 index /FID ne {def} {pop pop} ifelse} forall
	/Encoding isolatin1encoding def
    currentdict end
definefont pop
/ZapfDingbats-latin1
    /ZapfDingbats findfont
    dup length dict begin
	{1 index /FID ne {def} {pop pop} ifelse} forall
	/Encoding isolatin1encoding def
    currentdict end
definefont pop
28.346000 -28.346000 scale
-9.950000 -14.737500 translate
%%EndProlog


0.150000 slw
[] 0 sd
[] 0 sd
0 slc
0 slj
0.120000 slw
0 slc
0 slj
[] 0 sd
0.701961 0.701961 0.701961 srgb
n 19.294258 5.950000 m 19.294258 9.383014 l 20.765550 9.383014 l 20.765550 5.950000 l f
0.000000 0.000000 0.000000 srgb
n 19.294258 5.950000 m 19.294258 9.383014 l 20.765550 9.383014 l 20.765550 5.950000 l cp s
0.015000 slw
0 slc
0 slj
[] 0 sd
n 19.441388 6.155981 m 19.441388 6.548325 l 20.618421 6.548325 l 20.618421 6.155981 l cp s
0 slc
0 slj
[] 0 sd
n 19.441388 6.548325 m 19.441388 6.940670 l 20.618421 6.940670 l 20.618421 6.548325 l cp s
0 slc
0 slj
[] 0 sd
n 19.441388 6.940670 m 19.441388 7.333014 l 20.618421 7.333014 l 20.618421 6.940670 l cp s
0 slc
0 slj
[] 0 sd
n 19.441388 7.333014 m 19.441388 7.725359 l 20.618421 7.725359 l 20.618421 7.333014 l cp s
0 slc
0 slj
[] 0 sd
n 19.441388 7.803828 m 19.441388 8.039234 l 20.177033 8.039234 l 20.177033 7.803828 l cp s
0 slc
0 slj
[] 0 sd
0.000000 1.000000 0.000000 srgb
n 20.544856 7.843062 0.051495 0.051495 0 360 ellipse f
0.000000 0.000000 0.000000 srgb
n 20.544856 7.843062 0.051495 0.051495 0 360 ellipse cp s
0 slc
0 slj
[] 0 sd
1.000000 1.000000 0.000000 srgb
n 20.544856 8.000000 0.051495 0.051495 0 360 ellipse f
0.000000 0.000000 0.000000 srgb
n 20.544856 8.000000 0.051495 0.051495 0 360 ellipse cp s
0 slc
0 slj
[] 0 sd
1.000000 1.000000 1.000000 srgb
n 20.250598 7.882297 m 20.250598 8.039234 l 20.427153 8.039234 l 20.427153 7.882297 l f
0.000000 0.000000 0.000000 srgb
n 20.250598 7.882297 m 20.250598 8.039234 l 20.427153 8.039234 l 20.427153 7.882297 l cp s
0 slc
0 slj
[] 0 sd
n 19.539474 8.353110 m 19.539474 9.211364 l s
0 slc
0 slj
[] 0 sd
n 19.784689 8.353110 m 19.784689 9.211364 l s
0 slc
0 slj
[] 0 sd
n 20.029904 8.353110 m 20.029904 9.211364 l s
0 slc
0 slj
[] 0 sd
n 20.275120 8.353110 m 20.275120 9.211364 l s
0 slc
0 slj
[] 0 sd
n 20.520335 8.353110 m 20.520335 9.211364 l s
0 slc
0 slj
[] 0 sd
n 20.765550 8.353110 m 20.765550 9.211364 l s
0 slc
0 slj
[] 0 sd
0.600000 0.600000 0.600000 srgb
n 19.000000 9.677273 m 19.294258 9.088756 l 19.294258 9.383014 l 20.765550 9.383014 l 20.765550 9.088756 l 21.157895 9.677273 l ef
0.000000 0.000000 0.000000 srgb
n 19.000000 9.677273 m 19.294258 9.088756 l 19.294258 9.383014 l 20.765550 9.383014 l 20.765550 9.088756 l 21.157895 9.677273 l cp s
/Helvetica-latin1 ff 0.560000 scf sf
0.150000 slw
[] 0 sd
[] 0 sd
0 slc
0 slj
0.120000 slw
0 slc
0 slj
[] 0 sd
0.701961 0.701961 0.701961 srgb
n 10.294258 6.000000 m 10.294258 9.433014 l 11.765550 9.433014 l 11.765550 6.000000 l f
0.000000 0.000000 0.000000 srgb
n 10.294258 6.000000 m 10.294258 9.433014 l 11.765550 9.433014 l 11.765550 6.000000 l cp s
0.015000 slw
0 slc
0 slj
[] 0 sd
n 10.441388 6.205981 m 10.441388 6.598325 l 11.618421 6.598325 l 11.618421 6.205981 l cp s
0 slc
0 slj
[] 0 sd
n 10.441388 6.598325 m 10.441388 6.990670 l 11.618421 6.990670 l 11.618421 6.598325 l cp s
0 slc
0 slj
[] 0 sd
n 10.441388 6.990670 m 10.441388 7.383014 l 11.618421 7.383014 l 11.618421 6.990670 l cp s
0 slc
0 slj
[] 0 sd
n 10.441388 7.383014 m 10.441388 7.775359 l 11.618421 7.775359 l 11.618421 7.383014 l cp s
0 slc
0 slj
[] 0 sd
n 10.441388 7.853828 m 10.441388 8.089234 l 11.177033 8.089234 l 11.177033 7.853828 l cp s
0 slc
0 slj
[] 0 sd
0.000000 1.000000 0.000000 srgb
n 11.544856 7.893062 0.051495 0.051495 0 360 ellipse f
0.000000 0.000000 0.000000 srgb
n 11.544856 7.893062 0.051495 0.051495 0 360 ellipse cp s
0 slc
0 slj
[] 0 sd
1.000000 1.000000 0.000000 srgb
n 11.544856 8.050000 0.051495 0.051495 0 360 ellipse f
0.000000 0.000000 0.000000 srgb
n 11.544856 8.050000 0.051495 0.051495 0 360 ellipse cp s
0 slc
0 slj
[] 0 sd
1.000000 1.000000 1.000000 srgb
n 11.250598 7.932297 m 11.250598 8.089234 l 11.427153 8.089234 l 11.427153 7.932297 l f
0.000000 0.000000 0.000000 srgb
n 11.250598 7.932297 m 11.250598 8.089234 l 11.427153 8.089234 l 11.427153 7.932297 l cp s
0 slc
0 slj
[] 0 sd
n 10.539474 8.403110 m 10.539474 9.261364 l s
0 slc
0 slj
[] 0 sd
n 10.784689 8.403110 m 10.784689 9.261364 l s
0 slc
0 slj
[] 0 sd
n 11.029904 8.403110 m 11.029904 9.261364 l s
0 slc
0 slj
[] 0 sd
n 11.275120 8.403110 m 11.275120 9.261364 l s
0 slc
0 slj
[] 0 sd
n 11.520335 8.403110 m 11.520335 9.261364 l s
0 slc
0 slj
[] 0 sd
n 11.765550 8.403110 m 11.765550 9.261364 l s
0 slc
0 slj
[] 0 sd
0.600000 0.600000 0.600000 srgb
n 10.000000 9.727273 m 10.294258 9.138756 l 10.294258 9.433014 l 11.765550 9.433014 l 11.765550 9.138756 l 12.157895 9.727273 l ef
0.000000 0.000000 0.000000 srgb
n 10.000000 9.727273 m 10.294258 9.138756 l 10.294258 9.433014 l 11.765550 9.433014 l 11.765550 9.138756 l 12.157895 9.727273 l cp s
/Helvetica-latin1 ff 0.560000 scf sf
0.100000 slw
[] 0 sd
0 slc
n 9.950000 11.000000 m 22.050000 11.000000 l s
n 11.714300 11.000000 m 11.714300 12.000000 l s
n 11.078900 11.000000 m 11.078900 9.727270 l s
n 21.000000 11.000000 m 21.000000 12.300000 l s
n 20.078900 11.000000 m 20.078900 9.677270 l s
n 21.000000 11.000000 m 21.000000 12.050000 l s
n 21.000000 11.000000 m 21.000000 12.000000 l s
/Helvetica-latin1 ff 0.840000 scf sf
(A) 12.150000 7.800000 m gs 1 -1 sc sh gr
/Helvetica-latin1 ff 0.840000 scf sf
(B) 21.350000 7.750000 m gs 1 -1 sc sh gr
/Helvetica-latin1 ff 0.630000 scf sf
(10.8.4.1) 12.100000 6.750000 m gs 1 -1 sc sh gr
/Helvetica-latin1 ff 0.630000 scf sf
(10.8.4.2) 21.100000 6.750000 m gs 1 -1 sc sh gr
0.150000 slw
[] 0 sd
[] 0 sd
0 slc
n 11.917705 10.400000 m 18.982295 10.400000 l s
[] 0 sd
0 slj
0 slc
n 11.617705 10.400000 m 12.017705 10.200000 l 11.917705 10.400000 l 12.017705 10.600000 l ef
n 11.617705 10.400000 m 12.017705 10.200000 l 11.917705 10.400000 l 12.017705 10.600000 l cp s
[] 0 sd
0 slj
0 slc
n 19.282295 10.400000 m 18.882295 10.600000 l 18.982295 10.400000 l 18.882295 10.200000 l ef
n 19.282295 10.400000 m 18.882295 10.600000 l 18.982295 10.400000 l 18.882295 10.200000 l cp s
/Helvetica-latin1 ff 0.560000 scf sf
(Ethernet-Kommunikation) 12.500000 11.900000 m gs 1 -1 sc sh gr
(00:01:AA <-> 00:01:BB ) 12.500000 12.700000 m gs 1 -1 sc sh gr
/Helvetica-latin1 ff 0.560000 scf sf
(00:01:AA) 12.100000 8.550000 m gs 1 -1 sc sh gr
/Helvetica-latin1 ff 0.560000 scf sf
(00:01:BB) 21.150000 8.500000 m gs 1 -1 sc sh gr
/Helvetica-latin1 ff 0.560000 scf sf
(IP-Kommunikation) 12.468800 13.587500 m gs 1 -1 sc sh gr
(10.8.4.1 <-> 10.8.4.2 ) 12.468800 14.387500 m gs 1 -1 sc sh gr
showpage
