%!PS-Adobe-2.0 EPSF-2.0
%%Title: Einleitung_Netzwerk/bilder/allg-netw.dia
%%Creator: Dia v0.94
%%CreationDate: Wed Jun 21 17:06:25 2006
%%For: dirk
%%Orientation: Portrait
%%Magnification: 1.0000
%%BoundingBox: 0 0 415 290
%%BeginSetup
%%EndSetup
%%EndComments
%%BeginProlog
[ /.notdef /.notdef /.notdef /.notdef /.notdef /.notdef /.notdef /.notdef /.notdef /.notdef
/.notdef /.notdef /.notdef /.notdef /.notdef /.notdef /.notdef /.notdef /.notdef /.notdef
/.notdef /.notdef /.notdef /.notdef /.notdef /.notdef /.notdef /.notdef /.notdef /.notdef
/.notdef /.notdef /space /exclam /quotedbl /numbersign /dollar /percent /ampersand /quoteright
/parenleft /parenright /asterisk /plus /comma /hyphen /period /slash /zero /one
/two /three /four /five /six /seven /eight /nine /colon /semicolon
/less /equal /greater /question /at /A /B /C /D /E
/F /G /H /I /J /K /L /M /N /O
/P /Q /R /S /T /U /V /W /X /Y
/Z /bracketleft /backslash /bracketright /asciicircum /underscore /quoteleft /a /b /c
/d /e /f /g /h /i /j /k /l /m
/n /o /p /q /r /s /t /u /v /w
/x /y /z /braceleft /bar /braceright /asciitilde /.notdef /.notdef /.notdef
/.notdef /.notdef /.notdef /.notdef /.notdef /.notdef /.notdef /.notdef /.notdef /.notdef
/.notdef /.notdef /.notdef /.notdef /.notdef /.notdef /.notdef /.notdef /.notdef /.notdef
/.notdef /.notdef /.notdef /.notdef /.notdef /.notdef /.notdef /.notdef /.notdef /.notdef
/space /exclamdown /cent /sterling /currency /yen /brokenbar /section /dieresis /copyright
/ordfeminine /guillemotleft /logicalnot /hyphen /registered /macron /degree /plusminus /twosuperior /threesuperior
/acute /mu /paragraph /periodcentered /cedilla /onesuperior /ordmasculine /guillemotright /onequarter /onehalf
/threequarters /questiondown /Agrave /Aacute /Acircumflex /Atilde /Adieresis /Aring /AE /Ccedilla
/Egrave /Eacute /Ecircumflex /Edieresis /Igrave /Iacute /Icircumflex /Idieresis /Eth /Ntilde
/Ograve /Oacute /Ocircumflex /Otilde /Odieresis /multiply /Oslash /Ugrave /Uacute /Ucircumflex
/Udieresis /Yacute /Thorn /germandbls /agrave /aacute /acircumflex /atilde /adieresis /aring
/ae /ccedilla /egrave /eacute /ecircumflex /edieresis /igrave /iacute /icircumflex /idieresis
/eth /ntilde /ograve /oacute /ocircumflex /otilde /odieresis /divide /oslash /ugrave
/uacute /ucircumflex /udieresis /yacute /thorn /ydieresis] /isolatin1encoding exch def
/cp {closepath} bind def
/c {curveto} bind def
/f {fill} bind def
/a {arc} bind def
/ef {eofill} bind def
/ex {exch} bind def
/gr {grestore} bind def
/gs {gsave} bind def
/sa {save} bind def
/rs {restore} bind def
/l {lineto} bind def
/m {moveto} bind def
/rm {rmoveto} bind def
/n {newpath} bind def
/s {stroke} bind def
/sh {show} bind def
/slc {setlinecap} bind def
/slj {setlinejoin} bind def
/slw {setlinewidth} bind def
/srgb {setrgbcolor} bind def
/rot {rotate} bind def
/sc {scale} bind def
/sd {setdash} bind def
/ff {findfont} bind def
/sf {setfont} bind def
/scf {scalefont} bind def
/sw {stringwidth pop} bind def
/tr {translate} bind def

/ellipsedict 8 dict def
ellipsedict /mtrx matrix put
/ellipse
{ ellipsedict begin
   /endangle exch def
   /startangle exch def
   /yrad exch def
   /xrad exch def
   /y exch def
   /x exch def   /savematrix mtrx currentmatrix def
   x y tr xrad yrad sc
   0 0 1 startangle endangle arc
   savematrix setmatrix
   end
} def

/mergeprocs {
dup length
3 -1 roll
dup
length
dup
5 1 roll
3 -1 roll
add
array cvx
dup
3 -1 roll
0 exch
putinterval
dup
4 2 roll
putinterval
} bind def
/Times-Roman-latin1
    /Times-Roman findfont
    dup length dict begin
	{1 index /FID ne {def} {pop pop} ifelse} forall
	/Encoding isolatin1encoding def
    currentdict end
definefont pop
/Times-Italic-latin1
    /Times-Italic findfont
    dup length dict begin
	{1 index /FID ne {def} {pop pop} ifelse} forall
	/Encoding isolatin1encoding def
    currentdict end
definefont pop
/Times-Bold-latin1
    /Times-Bold findfont
    dup length dict begin
	{1 index /FID ne {def} {pop pop} ifelse} forall
	/Encoding isolatin1encoding def
    currentdict end
definefont pop
/Times-BoldItalic-latin1
    /Times-BoldItalic findfont
    dup length dict begin
	{1 index /FID ne {def} {pop pop} ifelse} forall
	/Encoding isolatin1encoding def
    currentdict end
definefont pop
/AvantGarde-Book-latin1
    /AvantGarde-Book findfont
    dup length dict begin
	{1 index /FID ne {def} {pop pop} ifelse} forall
	/Encoding isolatin1encoding def
    currentdict end
definefont pop
/AvantGarde-BookOblique-latin1
    /AvantGarde-BookOblique findfont
    dup length dict begin
	{1 index /FID ne {def} {pop pop} ifelse} forall
	/Encoding isolatin1encoding def
    currentdict end
definefont pop
/AvantGarde-Demi-latin1
    /AvantGarde-Demi findfont
    dup length dict begin
	{1 index /FID ne {def} {pop pop} ifelse} forall
	/Encoding isolatin1encoding def
    currentdict end
definefont pop
/AvantGarde-DemiOblique-latin1
    /AvantGarde-DemiOblique findfont
    dup length dict begin
	{1 index /FID ne {def} {pop pop} ifelse} forall
	/Encoding isolatin1encoding def
    currentdict end
definefont pop
/Bookman-Light-latin1
    /Bookman-Light findfont
    dup length dict begin
	{1 index /FID ne {def} {pop pop} ifelse} forall
	/Encoding isolatin1encoding def
    currentdict end
definefont pop
/Bookman-LightItalic-latin1
    /Bookman-LightItalic findfont
    dup length dict begin
	{1 index /FID ne {def} {pop pop} ifelse} forall
	/Encoding isolatin1encoding def
    currentdict end
definefont pop
/Bookman-Demi-latin1
    /Bookman-Demi findfont
    dup length dict begin
	{1 index /FID ne {def} {pop pop} ifelse} forall
	/Encoding isolatin1encoding def
    currentdict end
definefont pop
/Bookman-DemiItalic-latin1
    /Bookman-DemiItalic findfont
    dup length dict begin
	{1 index /FID ne {def} {pop pop} ifelse} forall
	/Encoding isolatin1encoding def
    currentdict end
definefont pop
/Courier-latin1
    /Courier findfont
    dup length dict begin
	{1 index /FID ne {def} {pop pop} ifelse} forall
	/Encoding isolatin1encoding def
    currentdict end
definefont pop
/Courier-Oblique-latin1
    /Courier-Oblique findfont
    dup length dict begin
	{1 index /FID ne {def} {pop pop} ifelse} forall
	/Encoding isolatin1encoding def
    currentdict end
definefont pop
/Courier-Bold-latin1
    /Courier-Bold findfont
    dup length dict begin
	{1 index /FID ne {def} {pop pop} ifelse} forall
	/Encoding isolatin1encoding def
    currentdict end
definefont pop
/Courier-BoldOblique-latin1
    /Courier-BoldOblique findfont
    dup length dict begin
	{1 index /FID ne {def} {pop pop} ifelse} forall
	/Encoding isolatin1encoding def
    currentdict end
definefont pop
/Helvetica-latin1
    /Helvetica findfont
    dup length dict begin
	{1 index /FID ne {def} {pop pop} ifelse} forall
	/Encoding isolatin1encoding def
    currentdict end
definefont pop
/Helvetica-Oblique-latin1
    /Helvetica-Oblique findfont
    dup length dict begin
	{1 index /FID ne {def} {pop pop} ifelse} forall
	/Encoding isolatin1encoding def
    currentdict end
definefont pop
/Helvetica-Bold-latin1
    /Helvetica-Bold findfont
    dup length dict begin
	{1 index /FID ne {def} {pop pop} ifelse} forall
	/Encoding isolatin1encoding def
    currentdict end
definefont pop
/Helvetica-BoldOblique-latin1
    /Helvetica-BoldOblique findfont
    dup length dict begin
	{1 index /FID ne {def} {pop pop} ifelse} forall
	/Encoding isolatin1encoding def
    currentdict end
definefont pop
/Helvetica-Narrow-latin1
    /Helvetica-Narrow findfont
    dup length dict begin
	{1 index /FID ne {def} {pop pop} ifelse} forall
	/Encoding isolatin1encoding def
    currentdict end
definefont pop
/Helvetica-Narrow-Oblique-latin1
    /Helvetica-Narrow-Oblique findfont
    dup length dict begin
	{1 index /FID ne {def} {pop pop} ifelse} forall
	/Encoding isolatin1encoding def
    currentdict end
definefont pop
/Helvetica-Narrow-Bold-latin1
    /Helvetica-Narrow-Bold findfont
    dup length dict begin
	{1 index /FID ne {def} {pop pop} ifelse} forall
	/Encoding isolatin1encoding def
    currentdict end
definefont pop
/Helvetica-Narrow-BoldOblique-latin1
    /Helvetica-Narrow-BoldOblique findfont
    dup length dict begin
	{1 index /FID ne {def} {pop pop} ifelse} forall
	/Encoding isolatin1encoding def
    currentdict end
definefont pop
/NewCenturySchoolbook-Roman-latin1
    /NewCenturySchoolbook-Roman findfont
    dup length dict begin
	{1 index /FID ne {def} {pop pop} ifelse} forall
	/Encoding isolatin1encoding def
    currentdict end
definefont pop
/NewCenturySchoolbook-Italic-latin1
    /NewCenturySchoolbook-Italic findfont
    dup length dict begin
	{1 index /FID ne {def} {pop pop} ifelse} forall
	/Encoding isolatin1encoding def
    currentdict end
definefont pop
/NewCenturySchoolbook-Bold-latin1
    /NewCenturySchoolbook-Bold findfont
    dup length dict begin
	{1 index /FID ne {def} {pop pop} ifelse} forall
	/Encoding isolatin1encoding def
    currentdict end
definefont pop
/NewCenturySchoolbook-BoldItalic-latin1
    /NewCenturySchoolbook-BoldItalic findfont
    dup length dict begin
	{1 index /FID ne {def} {pop pop} ifelse} forall
	/Encoding isolatin1encoding def
    currentdict end
definefont pop
/Palatino-Roman-latin1
    /Palatino-Roman findfont
    dup length dict begin
	{1 index /FID ne {def} {pop pop} ifelse} forall
	/Encoding isolatin1encoding def
    currentdict end
definefont pop
/Palatino-Italic-latin1
    /Palatino-Italic findfont
    dup length dict begin
	{1 index /FID ne {def} {pop pop} ifelse} forall
	/Encoding isolatin1encoding def
    currentdict end
definefont pop
/Palatino-Bold-latin1
    /Palatino-Bold findfont
    dup length dict begin
	{1 index /FID ne {def} {pop pop} ifelse} forall
	/Encoding isolatin1encoding def
    currentdict end
definefont pop
/Palatino-BoldItalic-latin1
    /Palatino-BoldItalic findfont
    dup length dict begin
	{1 index /FID ne {def} {pop pop} ifelse} forall
	/Encoding isolatin1encoding def
    currentdict end
definefont pop
/Symbol-latin1
    /Symbol findfont
definefont pop
/ZapfChancery-MediumItalic-latin1
    /ZapfChancery-MediumItalic findfont
    dup length dict begin
	{1 index /FID ne {def} {pop pop} ifelse} forall
	/Encoding isolatin1encoding def
    currentdict end
definefont pop
/ZapfDingbats-latin1
    /ZapfDingbats findfont
    dup length dict begin
	{1 index /FID ne {def} {pop pop} ifelse} forall
	/Encoding isolatin1encoding def
    currentdict end
definefont pop
28.346000 -28.346000 scale
-5.000000 -16.176542 translate
%%EndProlog


0.100000 slw
[] 0 sd
[] 0 sd
0 slc
0 slj
0.080000 slw
0 slc
0 slj
[] 0 sd
0.701961 0.701961 0.701961 srgb
n 8.715312 11.999998 m 8.715312 14.511961 l 9.791868 14.511961 l 9.791868 11.999998 l f
0.000000 0.000000 0.000000 srgb
n 8.715312 11.999998 m 8.715312 14.511961 l 9.791868 14.511961 l 9.791868 11.999998 l cp s
0.010000 slw
0 slc
0 slj
[] 0 sd
n 8.822968 12.150716 m 8.822968 12.437797 l 9.684212 12.437797 l 9.684212 12.150716 l cp s
0 slc
0 slj
[] 0 sd
n 8.822968 12.437797 m 8.822968 12.724879 l 9.684212 12.724879 l 9.684212 12.437797 l cp s
0 slc
0 slj
[] 0 sd
n 8.822968 12.724879 m 8.822968 13.011960 l 9.684212 13.011960 l 9.684212 12.724879 l cp s
0 slc
0 slj
[] 0 sd
n 8.822968 13.011960 m 8.822968 13.299042 l 9.684212 13.299042 l 9.684212 13.011960 l cp s
0 slc
0 slj
[] 0 sd
n 8.822968 13.356458 m 8.822968 13.528707 l 9.361245 13.528707 l 9.361245 13.356458 l cp s
0 slc
0 slj
[] 0 sd
0.000000 1.000000 0.000000 srgb
n 9.630384 13.385166 0.037679 0.037679 0 360 ellipse f
0.000000 0.000000 0.000000 srgb
n 9.630384 13.385166 0.037679 0.037679 0 360 ellipse cp s
0 slc
0 slj
[] 0 sd
1.000000 1.000000 0.000000 srgb
n 9.630384 13.499999 0.037679 0.037679 0 360 ellipse f
0.000000 0.000000 0.000000 srgb
n 9.630384 13.499999 0.037679 0.037679 0 360 ellipse cp s
0 slc
0 slj
[] 0 sd
1.000000 1.000000 1.000000 srgb
n 9.415073 13.413874 m 9.415073 13.528707 l 9.544260 13.528707 l 9.544260 13.413874 l f
0.000000 0.000000 0.000000 srgb
n 9.415073 13.413874 m 9.415073 13.528707 l 9.544260 13.528707 l 9.544260 13.413874 l cp s
0 slc
0 slj
[] 0 sd
n 8.894738 13.758372 m 8.894738 14.386363 l s
0 slc
0 slj
[] 0 sd
n 9.074164 13.758372 m 9.074164 14.386363 l s
0 slc
0 slj
[] 0 sd
n 9.253590 13.758372 m 9.253590 14.386363 l s
0 slc
0 slj
[] 0 sd
n 9.433016 13.758372 m 9.433016 14.386363 l s
0 slc
0 slj
[] 0 sd
n 9.612442 13.758372 m 9.612442 14.386363 l s
0 slc
0 slj
[] 0 sd
n 9.791868 13.758372 m 9.791868 14.386363 l s
0 slc
0 slj
[] 0 sd
0.600000 0.600000 0.600000 srgb
n 8.500001 14.727272 m 8.715312 14.296650 l 8.715312 14.511961 l 9.791868 14.511961 l 9.791868 14.296650 l 10.078949 14.727272 l ef
0.000000 0.000000 0.000000 srgb
n 8.500001 14.727272 m 8.715312 14.296650 l 8.715312 14.511961 l 9.791868 14.511961 l 9.791868 14.296650 l 10.078949 14.727272 l cp s
/Courier-latin1 ff 0.420000 scf sf
(hera) dup sw 2 div 9.289475 ex sub 15.199042 m gs 1 -1 sc sh gr
(.dom.site) dup sw 2 div 9.289475 ex sub 15.799042 m gs 1 -1 sc sh gr
0.100000 slw
[] 0 sd
[] 0 sd
0 slc
0 slj
0.080000 slw
0 slc
0 slj
[] 0 sd
0.701961 0.701961 0.701961 srgb
n 12.215312 11.999998 m 12.215312 14.511961 l 13.291868 14.511961 l 13.291868 11.999998 l f
0.000000 0.000000 0.000000 srgb
n 12.215312 11.999998 m 12.215312 14.511961 l 13.291868 14.511961 l 13.291868 11.999998 l cp s
0.010000 slw
0 slc
0 slj
[] 0 sd
n 12.322968 12.150716 m 12.322968 12.437797 l 13.184212 12.437797 l 13.184212 12.150716 l cp s
0 slc
0 slj
[] 0 sd
n 12.322968 12.437797 m 12.322968 12.724879 l 13.184212 12.724879 l 13.184212 12.437797 l cp s
0 slc
0 slj
[] 0 sd
n 12.322968 12.724879 m 12.322968 13.011960 l 13.184212 13.011960 l 13.184212 12.724879 l cp s
0 slc
0 slj
[] 0 sd
n 12.322968 13.011960 m 12.322968 13.299042 l 13.184212 13.299042 l 13.184212 13.011960 l cp s
0 slc
0 slj
[] 0 sd
n 12.322968 13.356458 m 12.322968 13.528707 l 12.861245 13.528707 l 12.861245 13.356458 l cp s
0 slc
0 slj
[] 0 sd
0.000000 1.000000 0.000000 srgb
n 13.130384 13.385166 0.037679 0.037679 0 360 ellipse f
0.000000 0.000000 0.000000 srgb
n 13.130384 13.385166 0.037679 0.037679 0 360 ellipse cp s
0 slc
0 slj
[] 0 sd
1.000000 1.000000 0.000000 srgb
n 13.130384 13.499999 0.037679 0.037679 0 360 ellipse f
0.000000 0.000000 0.000000 srgb
n 13.130384 13.499999 0.037679 0.037679 0 360 ellipse cp s
0 slc
0 slj
[] 0 sd
1.000000 1.000000 1.000000 srgb
n 12.915073 13.413874 m 12.915073 13.528707 l 13.044260 13.528707 l 13.044260 13.413874 l f
0.000000 0.000000 0.000000 srgb
n 12.915073 13.413874 m 12.915073 13.528707 l 13.044260 13.528707 l 13.044260 13.413874 l cp s
0 slc
0 slj
[] 0 sd
n 12.394738 13.758372 m 12.394738 14.386363 l s
0 slc
0 slj
[] 0 sd
n 12.574164 13.758372 m 12.574164 14.386363 l s
0 slc
0 slj
[] 0 sd
n 12.753590 13.758372 m 12.753590 14.386363 l s
0 slc
0 slj
[] 0 sd
n 12.933016 13.758372 m 12.933016 14.386363 l s
0 slc
0 slj
[] 0 sd
n 13.112442 13.758372 m 13.112442 14.386363 l s
0 slc
0 slj
[] 0 sd
n 13.291868 13.758372 m 13.291868 14.386363 l s
0 slc
0 slj
[] 0 sd
0.600000 0.600000 0.600000 srgb
n 12.000001 14.727272 m 12.215312 14.296650 l 12.215312 14.511961 l 13.291868 14.511961 l 13.291868 14.296650 l 13.578949 14.727272 l ef
0.000000 0.000000 0.000000 srgb
n 12.000001 14.727272 m 12.215312 14.296650 l 12.215312 14.511961 l 13.291868 14.511961 l 13.291868 14.296650 l 13.578949 14.727272 l cp s
/Courier-latin1 ff 0.420000 scf sf
(zeus) dup sw 2 div 12.789475 ex sub 15.199042 m gs 1 -1 sc sh gr
(.dom.site) dup sw 2 div 12.789475 ex sub 15.799042 m gs 1 -1 sc sh gr
0.100000 slw
[] 0 sd
[] 0 sd
0 slc
0 slj
0 slc
0 slj
[] 0 sd
1.000000 1.000000 1.000000 srgb
n 6.707477 6.862618 m 6.126582 6.852337 5.000000 7.068226 5.158426 7.530844 c 5.316850 7.993462 6.073774 8.096262 6.390626 7.962621 c 6.707477 7.828975 5.897745 8.610282 7.446798 8.815890 c 8.995837 9.021498 9.787967 8.692525 9.559129 8.456076 c 9.330292 8.219627 10.914551 9.011217 11.653872 8.558880 c 12.393193 8.106542 10.896948 7.674769 11.213800 7.736452 c 11.530652 7.798134 12.498810 7.715891 12.181958 6.944861 c 11.865106 6.173831 9.013440 6.770094 9.330292 6.657010 c 9.647144 6.543925 8.855014 5.978502 7.869267 6.091587 c 6.883506 6.204672 6.813588 6.409879 6.707970 6.862217 c 6.707477 6.862618 l ef
0.000000 0.000000 0.000000 srgb
n 6.707477 6.862618 m 6.126582 6.852337 5.000000 7.068226 5.158426 7.530844 c 5.316850 7.993462 6.073774 8.096262 6.390626 7.962621 c 6.707477 7.828975 5.897745 8.610282 7.446798 8.815890 c 8.995837 9.021498 9.787967 8.692525 9.559129 8.456076 c 9.330292 8.219627 10.914551 9.011217 11.653872 8.558880 c 12.393193 8.106542 10.896948 7.674769 11.213800 7.736452 c 11.530652 7.798134 12.498810 7.715891 12.181958 6.944861 c 11.865106 6.173831 9.013440 6.770094 9.330292 6.657010 c 9.647144 6.543925 8.855014 5.978502 7.869267 6.091587 c 6.883506 6.204672 6.813588 6.409879 6.707970 6.862217 c 6.707477 6.862618 l s
/Courier-latin1 ff 0.490000 scf sf
(Internet) dup sw 2 div 8.950422 ex sub 7.653642 m gs 1 -1 sc sh gr
0.100000 slw
[] 0 sd
[] 0 sd
0 slc
0 slj
0.080000 slw
0 slc
0 slj
[] 0 sd
0.701961 0.701961 0.701961 srgb
n 13.000001 8.000000 m 13.000001 9.440000 l 16.272729 9.440000 l 16.272729 8.000000 l f
0.000000 0.000000 0.000000 srgb
n 13.000001 8.000000 m 13.000001 9.440000 l 16.272729 9.440000 l 16.272729 8.000000 l cp s
0.100000 slw
0 slc
0 slj
[] 0 sd
n 13.327274 8.490909 m 13.327274 8.648000 l 13.490910 8.648000 l 13.490910 8.490909 l f
0 slc
0 slj
[] 0 sd
n 13.654546 8.490909 m 13.654546 8.648000 l 13.818183 8.648000 l 13.818183 8.490909 l f
0 slc
0 slj
[] 0 sd
n 13.981819 8.490909 m 13.981819 8.648000 l 14.145456 8.648000 l 14.145456 8.490909 l f
0 slc
0 slj
[] 0 sd
n 14.309092 8.490909 m 14.309092 8.648000 l 14.472729 8.648000 l 14.472729 8.490909 l f
0 slc
0 slj
[] 0 sd
n 14.636365 8.490909 m 14.636365 8.648000 l 14.800001 8.648000 l 14.800001 8.490909 l f
0 slc
0 slj
[] 0 sd
n 14.963638 8.490909 m 14.963638 8.648000 l 15.127274 8.648000 l 15.127274 8.490909 l f
0 slc
0 slj
[] 0 sd
n 15.290911 8.490909 m 15.290911 8.648000 l 15.454547 8.648000 l 15.454547 8.490909 l f
0 slc
0 slj
[] 0 sd
n 15.618184 8.490909 m 15.618184 8.648000 l 15.781820 8.648000 l 15.781820 8.490909 l f
/Courier-latin1 ff 0.560000 scf sf
0.100000 slw
[] 0 sd
[] 0 sd
0 slc
0 slj
0.080000 slw
0 slc
0 slj
[] 0 sd
0.701961 0.701961 0.701961 srgb
n 6.352001 10.696665 m 6.264001 10.733332 l 6.000001 11.393331 l 6.000001 11.723331 l 6.132001 11.833331 l 8.067999 11.833331 l 8.199999 11.723331 l 8.199999 11.393331 l 7.935999 10.733332 l 7.847999 10.696665 l ef
0.000000 0.000000 0.000000 srgb
n 6.352001 10.696665 m 6.264001 10.733332 l 6.000001 11.393331 l 6.000001 11.723331 l 6.132001 11.833331 l 8.067999 11.833331 l 8.199999 11.723331 l 8.199999 11.393331 l 7.935999 10.733332 l 7.847999 10.696665 l cp s
0 slc
0 slj
[] 0 sd
n 6.044001 11.283331 m 6.132001 11.319998 l 8.067999 11.319998 l 8.155999 11.283331 l s
0 slc
0 slj
[] 0 sd
n 8.067999 11.319998 m 8.199999 11.393331 l s
0 slc
0 slj
[] 0 sd
n 6.000001 11.393331 m 6.132001 11.319998 l s
0 slc
0 slj
[] 0 sd
1.000000 1.000000 1.000000 srgb
n 6.616000 9.999999 m 6.572000 10.879998 l 7.628000 10.879998 l 7.584000 9.999999 l ef
0.000000 0.000000 0.000000 srgb
n 6.616000 9.999999 m 6.572000 10.879998 l 7.628000 10.879998 l 7.584000 9.999999 l cp s
0 slc
0 slj
[] 0 sd
n 6.440001 10.879998 m 6.352001 11.136665 l 7.847999 11.136665 l 7.759999 10.879998 l ef
n 6.440001 10.879998 m 6.352001 11.136665 l 7.847999 11.136665 l 7.759999 10.879998 l cp s
0.020000 slw
0 slc
0 slj
[] 0 sd
0.000000 0.000000 1.000000 srgb
n 6.440001 11.448331 0.022000 0.022000 0 360 ellipse f
0.000000 0.000000 0.000000 srgb
n 6.440001 11.448331 0.022000 0.022000 0 360 ellipse cp s
0 slc
0 slj
[] 0 sd
0.000000 0.000000 1.000000 srgb
n 6.660000 11.448331 0.022000 0.022000 0 360 ellipse f
0.000000 0.000000 0.000000 srgb
n 6.660000 11.448331 0.022000 0.022000 0 360 ellipse cp s
0 slc
0 slj
[] 0 sd
0.000000 0.000000 1.000000 srgb
n 6.880000 11.448331 0.022000 0.022000 0 360 ellipse f
0.000000 0.000000 0.000000 srgb
n 6.880000 11.448331 0.022000 0.022000 0 360 ellipse cp s
0 slc
0 slj
[] 0 sd
0.000000 0.000000 1.000000 srgb
n 6.440001 11.539998 0.022000 0.022000 0 360 ellipse f
0.000000 0.000000 0.000000 srgb
n 6.440001 11.539998 0.022000 0.022000 0 360 ellipse cp s
0 slc
0 slj
[] 0 sd
0.000000 0.000000 1.000000 srgb
n 6.660000 11.539998 0.022000 0.022000 0 360 ellipse f
0.000000 0.000000 0.000000 srgb
n 6.660000 11.539998 0.022000 0.022000 0 360 ellipse cp s
0 slc
0 slj
[] 0 sd
0.000000 0.000000 1.000000 srgb
n 6.880000 11.539998 0.022000 0.022000 0 360 ellipse f
0.000000 0.000000 0.000000 srgb
n 6.880000 11.539998 0.022000 0.022000 0 360 ellipse cp s
0 slc
0 slj
[] 0 sd
0.000000 0.000000 1.000000 srgb
n 6.440001 11.631664 0.022000 0.022000 0 360 ellipse f
0.000000 0.000000 0.000000 srgb
n 6.440001 11.631664 0.022000 0.022000 0 360 ellipse cp s
0 slc
0 slj
[] 0 sd
0.000000 0.000000 1.000000 srgb
n 6.660000 11.631664 0.022000 0.022000 0 360 ellipse f
0.000000 0.000000 0.000000 srgb
n 6.660000 11.631664 0.022000 0.022000 0 360 ellipse cp s
0 slc
0 slj
[] 0 sd
0.000000 0.000000 1.000000 srgb
n 6.880000 11.631664 0.022000 0.022000 0 360 ellipse f
0.000000 0.000000 0.000000 srgb
n 6.880000 11.631664 0.022000 0.022000 0 360 ellipse cp s
0 slc
0 slj
[] 0 sd
0.000000 0.000000 1.000000 srgb
n 6.440001 11.723331 0.022000 0.022000 0 360 ellipse f
0.000000 0.000000 0.000000 srgb
n 6.440001 11.723331 0.022000 0.022000 0 360 ellipse cp s
0 slc
0 slj
[] 0 sd
0.000000 0.000000 1.000000 srgb
n 6.660000 11.723331 0.022000 0.022000 0 360 ellipse f
0.000000 0.000000 0.000000 srgb
n 6.660000 11.723331 0.022000 0.022000 0 360 ellipse cp s
0 slc
0 slj
[] 0 sd
0.000000 0.000000 1.000000 srgb
n 6.880000 11.723331 0.022000 0.022000 0 360 ellipse f
0.000000 0.000000 0.000000 srgb
n 6.880000 11.723331 0.022000 0.022000 0 360 ellipse cp s
0 slc
0 slj
[] 0 sd
0.560784 0.560784 0.560784 srgb
n 7.100000 11.466665 0.275000 0.088000 0 360 ellipse f
0.000000 0.000000 0.000000 srgb
n 7.100000 11.466665 0.275000 0.088000 0 360 ellipse cp s
0 slc
0 slj
[] 0 sd
0.560784 0.560784 0.560784 srgb
n 7.649999 11.466665 0.275000 0.088000 0 360 ellipse f
0.000000 0.000000 0.000000 srgb
n 7.649999 11.466665 0.275000 0.088000 0 360 ellipse cp s
/Courier-latin1 ff 0.420000 scf sf
(printer) dup sw 2 div 7.100000 ex sub 12.306664 m gs 1 -1 sc sh gr
0.100000 slw
[] 0 sd
[] 0 sd
0 slc
0 slj
0 slc
0 slj
[] 0 sd
0.850980 0.850980 0.803922 srgb
n 15.000000 13.000000 m 15.000000 14.125000 l 19.500000 14.125000 l 19.500000 13.000000 l f
0.000000 0.000000 0.000000 srgb
n 15.000000 13.000000 m 15.000000 14.125000 l 19.500000 14.125000 l 19.500000 13.000000 l cp s
0.010000 slw
0 slc
0 slj
[] 0 sd
n 15.000000 13.000000 m 15.000000 14.125000 l 19.500000 14.125000 l 19.500000 13.000000 l cp s
0 slc
0 slj
[] 0 sd
n 15.787500 13.450000 m 15.675000 13.562500 l s
0 slc
0 slj
[] 0 sd
n 15.675000 13.562500 m 15.787500 13.675000 l s
0 slc
0 slj
[] 0 sd
n 16.237500 13.450000 m 16.125000 13.562500 l s
0 slc
0 slj
[] 0 sd
n 16.125000 13.562500 m 16.237500 13.675000 l s
0 slc
0 slj
[] 0 sd
n 16.687500 13.450000 m 16.575000 13.562500 l s
0 slc
0 slj
[] 0 sd
n 16.575000 13.562500 m 16.687500 13.675000 l s
0 slc
0 slj
[] 0 sd
n 17.137500 13.450000 m 17.025000 13.562500 l s
0 slc
0 slj
[] 0 sd
n 17.025000 13.562500 m 17.137500 13.675000 l s
0 slc
0 slj
[] 0 sd
n 17.587500 13.450000 m 17.475000 13.562500 l s
0 slc
0 slj
[] 0 sd
n 17.475000 13.562500 m 17.587500 13.675000 l s
0 slc
0 slj
[] 0 sd
n 18.037500 13.450000 m 17.925000 13.562500 l s
0 slc
0 slj
[] 0 sd
n 17.925000 13.562500 m 18.037500 13.675000 l s
0 slc
0 slj
[] 0 sd
n 18.487500 13.450000 m 18.375000 13.562500 l s
0 slc
0 slj
[] 0 sd
n 18.375000 13.562500 m 18.487500 13.675000 l s
0 slc
0 slj
[] 0 sd
n 18.937500 13.450000 m 18.825000 13.562500 l s
0 slc
0 slj
[] 0 sd
n 18.825000 13.562500 m 18.937500 13.675000 l s
0 slc
0 slj
[] 0 sd
n 19.162500 13.787500 m 19.050000 13.900000 l s
0 slc
0 slj
[] 0 sd
n 19.050000 13.900000 m 19.162500 14.012500 l s
0 slc
0 slj
[] 0 sd
n 18.712500 13.787500 m 18.600000 13.900000 l s
0 slc
0 slj
[] 0 sd
n 18.600000 13.900000 m 18.712500 14.012500 l s
0 slc
0 slj
[] 0 sd
n 18.262500 13.787500 m 18.150000 13.900000 l s
0 slc
0 slj
[] 0 sd
n 18.150000 13.900000 m 18.262500 14.012500 l s
0 slc
0 slj
[] 0 sd
n 17.812500 13.787500 m 17.700000 13.900000 l s
0 slc
0 slj
[] 0 sd
n 17.700000 13.900000 m 17.812500 14.012500 l s
0 slc
0 slj
[] 0 sd
n 17.362500 13.787500 m 17.250000 13.900000 l s
0 slc
0 slj
[] 0 sd
n 17.250000 13.900000 m 17.362500 14.012500 l s
0 slc
0 slj
[] 0 sd
n 16.912500 13.787500 m 16.800000 13.900000 l s
0 slc
0 slj
[] 0 sd
n 16.800000 13.900000 m 16.912500 14.012500 l s
0 slc
0 slj
[] 0 sd
n 16.462500 13.787500 m 16.350000 13.900000 l s
0 slc
0 slj
[] 0 sd
n 16.350000 13.900000 m 16.462500 14.012500 l s
0.100000 slw
0 slc
0 slj
[] 0 sd
0.850980 0.850980 0.803922 srgb
n 15.787500 13.900000 m 15.787500 14.012500 l 16.237500 14.012500 l 16.237500 13.900000 l f
0.000000 0.000000 0.000000 srgb
n 15.787500 13.900000 m 15.787500 14.012500 l 16.237500 14.012500 l 16.237500 13.900000 l cp s
0.010000 slw
0 slc
0 slj
[] 0 sd
n 15.787500 13.900000 m 15.787500 14.012500 l 16.237500 14.012500 l 16.237500 13.900000 l cp s
0.100000 slw
0 slc
0 slj
[] 0 sd
0.803922 0.803922 0.803922 srgb
n 15.337500 13.562500 m 15.562500 13.787500 l 15.337500 14.012500 l 15.112500 13.787500 l ef
0.000000 0.000000 0.000000 srgb
n 15.337500 13.562500 m 15.562500 13.787500 l 15.337500 14.012500 l 15.112500 13.787500 l cp s
0.010000 slw
0 slc
0 slj
[] 0 sd
n 15.337500 13.562500 m 15.562500 13.787500 l 15.337500 14.012500 l 15.112500 13.787500 l cp s
0.100000 slw
0 slc
0 slj
[] 0 sd
0.850980 0.850980 0.803922 srgb
n 15.000000 13.225000 m 15.000000 13.337500 l 19.500000 13.337500 l 19.500000 13.225000 l f
0.000000 0.000000 0.000000 srgb
n 15.000000 13.225000 m 15.000000 13.337500 l 19.500000 13.337500 l 19.500000 13.225000 l cp s
0.010000 slw
0 slc
0 slj
[] 0 sd
n 15.000000 13.225000 m 15.000000 13.337500 l 19.500000 13.337500 l 19.500000 13.225000 l cp s
0.100000 slw
0 slc
0 slj
[] 0 sd
0.803922 0.803922 0.803922 srgb
n 15.562500 13.225000 m 15.562500 13.337500 l 16.575000 13.337500 l 16.575000 13.225000 l f
0.000000 0.000000 0.000000 srgb
n 15.562500 13.225000 m 15.562500 13.337500 l 16.575000 13.337500 l 16.575000 13.225000 l cp s
0.010000 slw
0 slc
0 slj
[] 0 sd
n 15.562500 13.225000 m 15.562500 13.337500 l 16.575000 13.337500 l 16.575000 13.225000 l cp s
0.100000 slw
[] 0 sd
[] 0 sd
0 slc
0 slj
0 slc
0 slj
[] 0 sd
1.000000 1.000000 1.000000 srgb
n 17.999999 9.679998 m 18.666665 9.319998 l 19.333331 9.679998 l 18.666665 9.999997 l ef
0 slc
0 slj
[] 0 sd
0.000000 0.000000 0.000000 srgb
n 18.599998 6.973335 m 18.666665 7.000001 l s
0 slc
0 slj
[] 0 sd
n 18.533332 7.253334 m 18.666665 7.320001 l s
0 slc
0 slj
[] 0 sd
n 18.466665 7.560001 m 18.666665 7.680000 l s
0 slc
0 slj
[] 0 sd
n 18.399999 7.866667 m 18.666665 8.000000 l s
0 slc
0 slj
[] 0 sd
n 18.333332 8.160000 m 18.666665 8.320000 l s
0 slc
0 slj
[] 0 sd
n 18.266665 8.466666 m 18.666665 8.679999 l s
0 slc
0 slj
[] 0 sd
n 18.199999 8.773332 m 18.666665 8.999999 l s
0 slc
0 slj
[] 0 sd
n 18.133332 9.066665 m 18.666665 9.319998 l s
0 slc
0 slj
[] 0 sd
n 18.066666 9.359998 m 18.666665 9.679998 l s
0 slc
0 slj
[] 0 sd
n 18.733332 6.973335 m 18.666665 7.000001 l s
0 slc
0 slj
[] 0 sd
n 18.799998 7.253334 m 18.666665 7.320001 l s
0 slc
0 slj
[] 0 sd
n 18.866665 7.573334 m 18.666665 7.680000 l s
0 slc
0 slj
[] 0 sd
n 18.919998 7.866667 m 18.666665 8.000000 l s
0 slc
0 slj
[] 0 sd
n 18.999998 8.160000 m 18.666665 8.320000 l s
0 slc
0 slj
[] 0 sd
n 19.079998 8.466666 m 18.666665 8.679999 l s
0 slc
0 slj
[] 0 sd
n 19.133331 8.773332 m 18.666665 8.999999 l s
0 slc
0 slj
[] 0 sd
n 19.199998 9.066665 m 18.666665 9.319998 l s
0 slc
0 slj
[] 0 sd
n 19.266664 9.359998 m 18.666665 9.679998 l s
0 slc
0 slj
[] 0 sd
n 18.666665 6.680002 m 18.586665 6.320002 l 18.666665 6.500002 l 18.499999 6.000002 l s
0.200000 slw
0 slc
0 slj
[] 0 sd
n 18.666665 6.680002 m 19.333331 9.679998 l 18.666665 9.999997 l 17.999999 9.679998 l cp s
0 slc
0 slj
[] 0 sd
n 17.999999 9.679998 m 18.666665 9.319998 l 19.333331 9.679998 l s
0 slc
0 slj
[] 0 sd
n 18.666665 6.680002 m 18.666665 9.999997 l s
/Courier-latin1 ff 0.560000 scf sf
0.100000 slw
[] 0 sd
[] 0 sd
0 slj
0 slc
n 13.736400 8.569450 m 13.736400 10.050000 l 8.365100 10.050000 l 8.365100 8.862510 l s
0.080000 slw
0 slj
[] 0 sd
n 9.850000 10.050000 m 11.110000 10.050000 l 11.110000 9.610000 l 12.650000 10.050000 l 11.390000 10.050000 l 11.390000 10.490000 l ef
n 9.850000 10.050000 m 11.110000 10.050000 l 11.110000 9.610000 l 12.650000 10.050000 l 11.390000 10.050000 l 11.390000 10.490000 l cp s
0.100000 slw
[] 0 sd
0 slc
n 8.050001 11.000238 m 18.710360 10.949474 l s
n 9.284686 10.994359 m 9.289475 11.999998 l s
n 18.600000 10.950000 m 18.600000 10.950000 l s
n 12.784607 10.977692 m 12.789475 11.999998 l s
n 15.384109 10.965314 m 15.372700 8.569450 l s
n 17.240269 10.956475 m 17.250000 13.000000 l s
n 18.660361 10.949713 m 18.655600 9.950000 l s
/Courier-latin1 ff 0.560000 scf sf
(LAN) dup sw 2 div 15.300000 ex sub 11.678502 m gs 1 -1 sc sh gr
(\(Ethernet\)) dup sw 2 div 15.300000 ex sub 12.478502 m gs 1 -1 sc sh gr
/Courier-latin1 ff 0.560000 scf sf
(WAN \(DSL, ...\)) dup sw 2 div 9.450000 ex sub 9.528502 m gs 1 -1 sc sh gr
/Courier-latin1 ff 0.560000 scf sf
(WLAN) dup sw 2 div 17.000000 ex sub 6.678502 m gs 1 -1 sc sh gr
(802.11) dup sw 2 div 17.000000 ex sub 7.478502 m gs 1 -1 sc sh gr
/Courier-latin1 ff 0.420000 scf sf
(aphrodite) dup sw 2 div 17.250000 ex sub 14.700000 m gs 1 -1 sc sh gr
(.dom.site) dup sw 2 div 17.250000 ex sub 15.300000 m gs 1 -1 sc sh gr
/Courier-latin1 ff 0.420000 scf sf
(192.168.1.0/24) dup sw 2 div 15.250000 ex sub 10.700000 m gs 1 -1 sc sh gr
showpage
