%!PS-Adobe-2.0 EPSF-2.0
%%Title: ARP-Network.dia
%%Creator: Dia v0.94
%%CreationDate: Tue Mar  7 12:03:32 2006
%%For: dirk
%%Orientation: Portrait
%%Magnification: 1.0000
%%BoundingBox: 0 0 517 172
%%BeginSetup
%%EndSetup
%%EndComments
%%BeginProlog
[ /.notdef /.notdef /.notdef /.notdef /.notdef /.notdef /.notdef /.notdef /.notdef /.notdef
/.notdef /.notdef /.notdef /.notdef /.notdef /.notdef /.notdef /.notdef /.notdef /.notdef
/.notdef /.notdef /.notdef /.notdef /.notdef /.notdef /.notdef /.notdef /.notdef /.notdef
/.notdef /.notdef /space /exclam /quotedbl /numbersign /dollar /percent /ampersand /quoteright
/parenleft /parenright /asterisk /plus /comma /hyphen /period /slash /zero /one
/two /three /four /five /six /seven /eight /nine /colon /semicolon
/less /equal /greater /question /at /A /B /C /D /E
/F /G /H /I /J /K /L /M /N /O
/P /Q /R /S /T /U /V /W /X /Y
/Z /bracketleft /backslash /bracketright /asciicircum /underscore /quoteleft /a /b /c
/d /e /f /g /h /i /j /k /l /m
/n /o /p /q /r /s /t /u /v /w
/x /y /z /braceleft /bar /braceright /asciitilde /.notdef /.notdef /.notdef
/.notdef /.notdef /.notdef /.notdef /.notdef /.notdef /.notdef /.notdef /.notdef /.notdef
/.notdef /.notdef /.notdef /.notdef /.notdef /.notdef /.notdef /.notdef /.notdef /.notdef
/.notdef /.notdef /.notdef /.notdef /.notdef /.notdef /.notdef /.notdef /.notdef /.notdef
/space /exclamdown /cent /sterling /currency /yen /brokenbar /section /dieresis /copyright
/ordfeminine /guillemotleft /logicalnot /hyphen /registered /macron /degree /plusminus /twosuperior /threesuperior
/acute /mu /paragraph /periodcentered /cedilla /onesuperior /ordmasculine /guillemotright /onequarter /onehalf
/threequarters /questiondown /Agrave /Aacute /Acircumflex /Atilde /Adieresis /Aring /AE /Ccedilla
/Egrave /Eacute /Ecircumflex /Edieresis /Igrave /Iacute /Icircumflex /Idieresis /Eth /Ntilde
/Ograve /Oacute /Ocircumflex /Otilde /Odieresis /multiply /Oslash /Ugrave /Uacute /Ucircumflex
/Udieresis /Yacute /Thorn /germandbls /agrave /aacute /acircumflex /atilde /adieresis /aring
/ae /ccedilla /egrave /eacute /ecircumflex /edieresis /igrave /iacute /icircumflex /idieresis
/eth /ntilde /ograve /oacute /ocircumflex /otilde /odieresis /divide /oslash /ugrave
/uacute /ucircumflex /udieresis /yacute /thorn /ydieresis] /isolatin1encoding exch def
/cp {closepath} bind def
/c {curveto} bind def
/f {fill} bind def
/a {arc} bind def
/ef {eofill} bind def
/ex {exch} bind def
/gr {grestore} bind def
/gs {gsave} bind def
/sa {save} bind def
/rs {restore} bind def
/l {lineto} bind def
/m {moveto} bind def
/rm {rmoveto} bind def
/n {newpath} bind def
/s {stroke} bind def
/sh {show} bind def
/slc {setlinecap} bind def
/slj {setlinejoin} bind def
/slw {setlinewidth} bind def
/srgb {setrgbcolor} bind def
/rot {rotate} bind def
/sc {scale} bind def
/sd {setdash} bind def
/ff {findfont} bind def
/sf {setfont} bind def
/scf {scalefont} bind def
/sw {stringwidth pop} bind def
/tr {translate} bind def

/ellipsedict 8 dict def
ellipsedict /mtrx matrix put
/ellipse
{ ellipsedict begin
   /endangle exch def
   /startangle exch def
   /yrad exch def
   /xrad exch def
   /y exch def
   /x exch def   /savematrix mtrx currentmatrix def
   x y tr xrad yrad sc
   0 0 1 startangle endangle arc
   savematrix setmatrix
   end
} def

/mergeprocs {
dup length
3 -1 roll
dup
length
dup
5 1 roll
3 -1 roll
add
array cvx
dup
3 -1 roll
0 exch
putinterval
dup
4 2 roll
putinterval
} bind def
/dpi_x 300 def
/dpi_y 300 def
/conicto {
    /to_y exch def
    /to_x exch def
    /conic_cntrl_y exch def
    /conic_cntrl_x exch def
    currentpoint
    /p0_y exch def
    /p0_x exch def
    /p1_x p0_x conic_cntrl_x p0_x sub 2 3 div mul add def
    /p1_y p0_y conic_cntrl_y p0_y sub 2 3 div mul add def
    /p2_x p1_x to_x p0_x sub 1 3 div mul add def
    /p2_y p1_y to_y p0_y sub 1 3 div mul add def
    p1_x p1_y p2_x p2_y to_x to_y curveto
} bind def
/start_ol { gsave 1.1 dpi_x div dup scale} bind def
/end_ol { closepath fill grestore } bind def
28,346000 -28,346000 scale
-8,950000 -12,000000 translate
%%EndProlog


0,150000 slw
[] 0 sd
[] 0 sd
0 slc
0 slj
0,120000 slw
0 slc
0 slj
[] 0 sd
0,701961 0,701961 0,701961 srgb
n 17,294258 6,000000 m 17,294258 9,433014 l 18,765550 9,433014 l 18,765550 6,000000 l f
0,000000 0,000000 0,000000 srgb
n 17,294258 6,000000 m 17,294258 9,433014 l 18,765550 9,433014 l 18,765550 6,000000 l cp s
0,015000 slw
0 slc
0 slj
[] 0 sd
n 17,441388 6,205981 m 17,441388 6,598325 l 18,618421 6,598325 l 18,618421 6,205981 l cp s
0 slc
0 slj
[] 0 sd
n 17,441388 6,598325 m 17,441388 6,990670 l 18,618421 6,990670 l 18,618421 6,598325 l cp s
0 slc
0 slj
[] 0 sd
n 17,441388 6,990670 m 17,441388 7,383014 l 18,618421 7,383014 l 18,618421 6,990670 l cp s
0 slc
0 slj
[] 0 sd
n 17,441388 7,383014 m 17,441388 7,775359 l 18,618421 7,775359 l 18,618421 7,383014 l cp s
0 slc
0 slj
[] 0 sd
n 17,441388 7,853828 m 17,441388 8,089234 l 18,177033 8,089234 l 18,177033 7,853828 l cp s
0 slc
0 slj
[] 0 sd
0,000000 1,000000 0,000000 srgb
n 18,544856 7,893062 0,051495 0,051495 0 360 ellipse f
0,000000 0,000000 0,000000 srgb
n 18,544856 7,893062 0,051495 0,051495 0 360 ellipse cp s
0 slc
0 slj
[] 0 sd
1,000000 1,000000 0,000000 srgb
n 18,544856 8,050000 0,051495 0,051495 0 360 ellipse f
0,000000 0,000000 0,000000 srgb
n 18,544856 8,050000 0,051495 0,051495 0 360 ellipse cp s
0 slc
0 slj
[] 0 sd
1,000000 1,000000 1,000000 srgb
n 18,250598 7,932297 m 18,250598 8,089234 l 18,427153 8,089234 l 18,427153 7,932297 l f
0,000000 0,000000 0,000000 srgb
n 18,250598 7,932297 m 18,250598 8,089234 l 18,427153 8,089234 l 18,427153 7,932297 l cp s
0 slc
0 slj
[] 0 sd
n 17,539474 8,403110 m 17,539474 9,261364 l s
0 slc
0 slj
[] 0 sd
n 17,784689 8,403110 m 17,784689 9,261364 l s
0 slc
0 slj
[] 0 sd
n 18,029904 8,403110 m 18,029904 9,261364 l s
0 slc
0 slj
[] 0 sd
n 18,275120 8,403110 m 18,275120 9,261364 l s
0 slc
0 slj
[] 0 sd
n 18,520335 8,403110 m 18,520335 9,261364 l s
0 slc
0 slj
[] 0 sd
n 18,765550 8,403110 m 18,765550 9,261364 l s
0 slc
0 slj
[] 0 sd
0,600000 0,600000 0,600000 srgb
n 17,000000 9,727273 m 17,294258 9,138756 l 17,294258 9,433014 l 18,765550 9,433014 l 18,765550 9,138756 l 19,157895 9,727273 l ef
0,000000 0,000000 0,000000 srgb
n 17,000000 9,727273 m 17,294258 9,138756 l 17,294258 9,433014 l 18,765550 9,433014 l 18,765550 9,138756 l 19,157895 9,727273 l cp s
0,150000 slw
[] 0 sd
[] 0 sd
0 slc
0 slj
0,120000 slw
0 slc
0 slj
[] 0 sd
0,701961 0,701961 0,701961 srgb
n 9,294258 6,000000 m 9,294258 9,433014 l 10,765550 9,433014 l 10,765550 6,000000 l f
0,000000 0,000000 0,000000 srgb
n 9,294258 6,000000 m 9,294258 9,433014 l 10,765550 9,433014 l 10,765550 6,000000 l cp s
0,015000 slw
0 slc
0 slj
[] 0 sd
n 9,441388 6,205981 m 9,441388 6,598325 l 10,618421 6,598325 l 10,618421 6,205981 l cp s
0 slc
0 slj
[] 0 sd
n 9,441388 6,598325 m 9,441388 6,990670 l 10,618421 6,990670 l 10,618421 6,598325 l cp s
0 slc
0 slj
[] 0 sd
n 9,441388 6,990670 m 9,441388 7,383014 l 10,618421 7,383014 l 10,618421 6,990670 l cp s
0 slc
0 slj
[] 0 sd
n 9,441388 7,383014 m 9,441388 7,775359 l 10,618421 7,775359 l 10,618421 7,383014 l cp s
0 slc
0 slj
[] 0 sd
n 9,441388 7,853828 m 9,441388 8,089234 l 10,177033 8,089234 l 10,177033 7,853828 l cp s
0 slc
0 slj
[] 0 sd
0,000000 1,000000 0,000000 srgb
n 10,544856 7,893062 0,051495 0,051495 0 360 ellipse f
0,000000 0,000000 0,000000 srgb
n 10,544856 7,893062 0,051495 0,051495 0 360 ellipse cp s
0 slc
0 slj
[] 0 sd
1,000000 1,000000 0,000000 srgb
n 10,544856 8,050000 0,051495 0,051495 0 360 ellipse f
0,000000 0,000000 0,000000 srgb
n 10,544856 8,050000 0,051495 0,051495 0 360 ellipse cp s
0 slc
0 slj
[] 0 sd
1,000000 1,000000 1,000000 srgb
n 10,250598 7,932297 m 10,250598 8,089234 l 10,427153 8,089234 l 10,427153 7,932297 l f
0,000000 0,000000 0,000000 srgb
n 10,250598 7,932297 m 10,250598 8,089234 l 10,427153 8,089234 l 10,427153 7,932297 l cp s
0 slc
0 slj
[] 0 sd
n 9,539474 8,403110 m 9,539474 9,261364 l s
0 slc
0 slj
[] 0 sd
n 9,784689 8,403110 m 9,784689 9,261364 l s
0 slc
0 slj
[] 0 sd
n 10,029904 8,403110 m 10,029904 9,261364 l s
0 slc
0 slj
[] 0 sd
n 10,275120 8,403110 m 10,275120 9,261364 l s
0 slc
0 slj
[] 0 sd
n 10,520335 8,403110 m 10,520335 9,261364 l s
0 slc
0 slj
[] 0 sd
n 10,765550 8,403110 m 10,765550 9,261364 l s
0 slc
0 slj
[] 0 sd
0,600000 0,600000 0,600000 srgb
n 9,000000 9,727273 m 9,294258 9,138756 l 9,294258 9,433014 l 10,765550 9,433014 l 10,765550 9,138756 l 11,157895 9,727273 l ef
0,000000 0,000000 0,000000 srgb
n 9,000000 9,727273 m 9,294258 9,138756 l 9,294258 9,433014 l 10,765550 9,433014 l 10,765550 9,138756 l 11,157895 9,727273 l cp s
0,150000 slw
[] 0 sd
[] 0 sd
0 slc
0 slj
0,120000 slw
0 slc
0 slj
[] 0 sd
0,701961 0,701961 0,701961 srgb
n 25,294258 6,000000 m 25,294258 9,433014 l 26,765550 9,433014 l 26,765550 6,000000 l f
0,000000 0,000000 0,000000 srgb
n 25,294258 6,000000 m 25,294258 9,433014 l 26,765550 9,433014 l 26,765550 6,000000 l cp s
0,015000 slw
0 slc
0 slj
[] 0 sd
n 25,441388 6,205981 m 25,441388 6,598325 l 26,618421 6,598325 l 26,618421 6,205981 l cp s
0 slc
0 slj
[] 0 sd
n 25,441388 6,598325 m 25,441388 6,990670 l 26,618421 6,990670 l 26,618421 6,598325 l cp s
0 slc
0 slj
[] 0 sd
n 25,441388 6,990670 m 25,441388 7,383014 l 26,618421 7,383014 l 26,618421 6,990670 l cp s
0 slc
0 slj
[] 0 sd
n 25,441388 7,383014 m 25,441388 7,775359 l 26,618421 7,775359 l 26,618421 7,383014 l cp s
0 slc
0 slj
[] 0 sd
n 25,441388 7,853828 m 25,441388 8,089234 l 26,177033 8,089234 l 26,177033 7,853828 l cp s
0 slc
0 slj
[] 0 sd
0,000000 1,000000 0,000000 srgb
n 26,544856 7,893062 0,051495 0,051495 0 360 ellipse f
0,000000 0,000000 0,000000 srgb
n 26,544856 7,893062 0,051495 0,051495 0 360 ellipse cp s
0 slc
0 slj
[] 0 sd
1,000000 1,000000 0,000000 srgb
n 26,544856 8,050000 0,051495 0,051495 0 360 ellipse f
0,000000 0,000000 0,000000 srgb
n 26,544856 8,050000 0,051495 0,051495 0 360 ellipse cp s
0 slc
0 slj
[] 0 sd
1,000000 1,000000 1,000000 srgb
n 26,250598 7,932297 m 26,250598 8,089234 l 26,427153 8,089234 l 26,427153 7,932297 l f
0,000000 0,000000 0,000000 srgb
n 26,250598 7,932297 m 26,250598 8,089234 l 26,427153 8,089234 l 26,427153 7,932297 l cp s
0 slc
0 slj
[] 0 sd
n 25,539474 8,403110 m 25,539474 9,261364 l s
0 slc
0 slj
[] 0 sd
n 25,784689 8,403110 m 25,784689 9,261364 l s
0 slc
0 slj
[] 0 sd
n 26,029904 8,403110 m 26,029904 9,261364 l s
0 slc
0 slj
[] 0 sd
n 26,275120 8,403110 m 26,275120 9,261364 l s
0 slc
0 slj
[] 0 sd
n 26,520335 8,403110 m 26,520335 9,261364 l s
0 slc
0 slj
[] 0 sd
n 26,765550 8,403110 m 26,765550 9,261364 l s
0 slc
0 slj
[] 0 sd
0,600000 0,600000 0,600000 srgb
n 25,000000 9,727273 m 25,294258 9,138756 l 25,294258 9,433014 l 26,765550 9,433014 l 26,765550 9,138756 l 27,157895 9,727273 l ef
0,000000 0,000000 0,000000 srgb
n 25,000000 9,727273 m 25,294258 9,138756 l 25,294258 9,433014 l 26,765550 9,433014 l 26,765550 9,138756 l 27,157895 9,727273 l cp s
0,100000 slw
[] 0 sd
0 slc
n 8,950000 11,000000 m 27,050000 11,000000 l s
n 11,571400 11,000000 m 11,571400 12,000000 l s
n 10,078900 11,000000 m 10,078900 9,727270 l s
n 16,714300 11,000000 m 16,714300 12,000000 l s
n 18,078900 11,000000 m 18,078900 9,727270 l s
n 21,857100 11,000000 m 21,857100 12,000000 l s
n 26,078900 11,000000 m 26,078900 9,727270 l s
gsave 11,500000 9,950000 translate 0,035278 -0,035278 scale
start_ol
5261 0 moveto
3927 0 lineto
3581 1018 lineto
1727 1018 lineto
1381 0 lineto
81 0 lineto
1928 5037 lineto
3413 5037 lineto
5261 0 lineto
3269 1942 moveto
2654 3748 lineto
2039 1942 lineto
3269 1942 lineto
end_ol grestore 
gsave 19,550000 9,950000 translate 0,035278 -0,035278 scale
start_ol
4928 1540 moveto
4928 1174 4782 887 conicto
4637 601 4383 412 conicto
4089 189 3736 94 conicto
3383 0 2841 0 conicto
667 0 lineto
667 5026 lineto
2606 5026 lineto
3209 5026 3489 4985 conicto
3769 4945 4044 4806 conicto
4329 4662 4468 4417 conicto
4608 4172 4608 3859 conicto
4608 3493 4410 3215 conicto
4212 2937 3851 2781 conicto
3851 2754 lineto
4348 2656 4638 2349 conicto
4928 2043 4928 1540 conicto
3287 3592 moveto
3287 3719 3224 3847 conicto
3161 3975 3000 4037 conicto
2856 4092 2642 4097 conicto
2429 4102 2043 4102 conicto
1920 4102 lineto
1920 3015 lineto
2125 3015 lineto
2436 3015 2655 3025 conicto
2874 3035 3000 3094 conicto
3178 3173 3232 3299 conicto
3287 3425 3287 3592 conicto
3591 1564 moveto
3591 1804 3498 1934 conicto
3405 2064 3182 2129 conicto
3029 2173 2762 2176 conicto
2495 2180 2204 2180 conicto
1920 2180 lineto
1920 923 lineto
2015 923 lineto
2563 923 2799 926 conicto
3036 930 3235 1015 conicto
3439 1099 3515 1239 conicto
3591 1380 3591 1564 conicto
end_ol grestore 
gsave 24,050000 9,900000 translate 0,035278 -0,035278 scale
start_ol
3456 3493 moveto
3456 3683 3378 3818 conicto
3300 3953 3111 4031 conicto
2978 4085 2801 4097 conicto
2625 4109 2392 4109 conicto
1920 4109 lineto
1920 2754 lineto
2320 2754 lineto
2632 2754 2842 2784 conicto
3053 2814 3195 2923 conicto
3331 3028 3393 3154 conicto
3456 3281 3456 3493 conicto
5469 0 moveto
3886 0 lineto
2517 1847 lineto
1920 1847 lineto
1920 0 lineto
667 0 lineto
667 5036 lineto
2823 5036 lineto
3264 5036 3581 4985 conicto
3899 4934 4177 4765 conicto
4458 4596 4624 4327 conicto
4790 4058 4790 3652 conicto
4790 3094 4533 2743 conicto
4276 2392 3799 2158 conicto
5469 0 lineto
end_ol grestore 
gsave 11,000000 9,000000 translate 0,035278 -0,035278 scale
start_ol
2735 -13 moveto
704 -13 lineto
704 395 lineto
1500 395 lineto
1500 2880 lineto
704 2880 lineto
704 3223 lineto
866 3223 1050 3249 conicto
1235 3276 1330 3326 conicto
1448 3389 1516 3486 conicto
1584 3583 1594 3747 conicto
1984 3747 lineto
1984 395 lineto
2735 395 lineto
2735 -13 lineto
end_ol grestore 
gsave 11,431800 9,000000 translate 0,035278 -0,035278 scale
start_ol
2921 1886 moveto
2921 873 2607 399 conicto
2293 -74 1632 -74 conicto
962 -74 652 405 conicto
343 885 343 1880 conicto
343 2883 656 3361 conicto
969 3840 1632 3840 conicto
2303 3840 2612 3354 conicto
2921 2868 2921 1886 conicto
2278 732 moveto
2368 938 2400 1216 conicto
2432 1494 2432 1886 conicto
2432 2272 2400 2556 conicto
2368 2840 2275 3039 conicto
2186 3234 2030 3333 conicto
1875 3432 1632 3432 conicto
1391 3432 1233 3333 conicto
1075 3234 983 3034 conicto
896 2845 864 2543 conicto
832 2241 832 1880 conicto
832 1484 860 1217 conicto
888 951 981 740 conicto
1065 542 1220 438 conicto
1376 334 1632 334 conicto
1873 334 2032 433 conicto
2191 532 2278 732 conicto
end_ol grestore 
gsave 11,863600 9,000000 translate 0,035278 -0,035278 scale
start_ol
1240 0 moveto
637 0 lineto
637 718 lineto
1240 718 lineto
1240 0 lineto
end_ol grestore 
gsave 12,109133 9,000000 translate 0,035278 -0,035278 scale
start_ol
2944 1050 moveto
2944 560 2571 236 conicto
2198 -88 1632 -88 conicto
1032 -88 676 228 conicto
320 545 320 1040 conicto
320 1354 494 1608 conicto
668 1862 984 2012 conicto
984 2027 lineto
690 2189 548 2381 conicto
407 2574 407 2864 conicto
407 3289 756 3572 conicto
1106 3856 1644 3856 conicto
2208 3856 2544 3585 conicto
2880 3314 2880 2896 conicto
2880 2641 2723 2394 conicto
2566 2147 2260 2007 conicto
2260 1992 lineto
2593 1840 2768 1617 conicto
2944 1394 2944 1050 conicto
2391 2867 moveto
2391 3133 2178 3290 conicto
1965 3448 1636 3448 conicto
1310 3448 1103 3299 conicto
896 3151 896 2898 conicto
896 2719 1000 2589 conicto
1105 2459 1316 2356 conicto
1411 2312 1590 2240 conicto
1770 2168 1940 2121 conicto
2195 2284 2293 2460 conicto
2391 2637 2391 2867 conicto
2455 1017 moveto
2455 1246 2352 1383 conicto
2250 1521 1952 1660 conicto
1832 1715 1690 1761 conicto
1549 1808 1313 1893 conicto
1085 1772 947 1563 conicto
809 1354 809 1091 conicto
809 756 1044 538 conicto
1280 320 1642 320 conicto
2012 320 2233 506 conicto
2455 692 2455 1017 conicto
end_ol grestore 
gsave 12,540933 9,000000 translate 0,035278 -0,035278 scale
start_ol
1240 0 moveto
637 0 lineto
637 718 lineto
1240 718 lineto
1240 0 lineto
end_ol grestore 
gsave 12,786467 9,000000 translate 0,035278 -0,035278 scale
start_ol
3030 1064 moveto
2473 1064 lineto
2473 0 lineto
1984 0 lineto
1984 1064 lineto
188 1064 lineto
188 1641 lineto
2009 3752 lineto
2473 3752 lineto
2473 1472 lineto
3030 1472 lineto
3030 1064 lineto
1984 1472 moveto
1984 3156 lineto
531 1472 lineto
1984 1472 lineto
end_ol grestore 
gsave 13,218267 9,000000 translate 0,035278 -0,035278 scale
start_ol
1240 0 moveto
637 0 lineto
637 718 lineto
1240 718 lineto
1240 0 lineto
end_ol grestore 
gsave 13,463800 9,000000 translate 0,035278 -0,035278 scale
start_ol
2735 -13 moveto
704 -13 lineto
704 395 lineto
1500 395 lineto
1500 2880 lineto
704 2880 lineto
704 3223 lineto
866 3223 1050 3249 conicto
1235 3276 1330 3326 conicto
1448 3389 1516 3486 conicto
1584 3583 1594 3747 conicto
1984 3747 lineto
1984 395 lineto
2735 395 lineto
2735 -13 lineto
end_ol grestore 
gsave 19,000000 9,000000 translate 0,035278 -0,035278 scale
start_ol
2735 -13 moveto
704 -13 lineto
704 395 lineto
1500 395 lineto
1500 2880 lineto
704 2880 lineto
704 3223 lineto
866 3223 1050 3249 conicto
1235 3276 1330 3326 conicto
1448 3389 1516 3486 conicto
1584 3583 1594 3747 conicto
1984 3747 lineto
1984 395 lineto
2735 395 lineto
2735 -13 lineto
end_ol grestore 
gsave 19,431800 9,000000 translate 0,035278 -0,035278 scale
start_ol
2921 1886 moveto
2921 873 2607 399 conicto
2293 -74 1632 -74 conicto
962 -74 652 405 conicto
343 885 343 1880 conicto
343 2883 656 3361 conicto
969 3840 1632 3840 conicto
2303 3840 2612 3354 conicto
2921 2868 2921 1886 conicto
2278 732 moveto
2368 938 2400 1216 conicto
2432 1494 2432 1886 conicto
2432 2272 2400 2556 conicto
2368 2840 2275 3039 conicto
2186 3234 2030 3333 conicto
1875 3432 1632 3432 conicto
1391 3432 1233 3333 conicto
1075 3234 983 3034 conicto
896 2845 864 2543 conicto
832 2241 832 1880 conicto
832 1484 860 1217 conicto
888 951 981 740 conicto
1065 542 1220 438 conicto
1376 334 1632 334 conicto
1873 334 2032 433 conicto
2191 532 2278 732 conicto
end_ol grestore 
gsave 19,863600 9,000000 translate 0,035278 -0,035278 scale
start_ol
1240 0 moveto
637 0 lineto
637 718 lineto
1240 718 lineto
1240 0 lineto
end_ol grestore 
gsave 20,109133 9,000000 translate 0,035278 -0,035278 scale
start_ol
2944 1050 moveto
2944 560 2571 236 conicto
2198 -88 1632 -88 conicto
1032 -88 676 228 conicto
320 545 320 1040 conicto
320 1354 494 1608 conicto
668 1862 984 2012 conicto
984 2027 lineto
690 2189 548 2381 conicto
407 2574 407 2864 conicto
407 3289 756 3572 conicto
1106 3856 1644 3856 conicto
2208 3856 2544 3585 conicto
2880 3314 2880 2896 conicto
2880 2641 2723 2394 conicto
2566 2147 2260 2007 conicto
2260 1992 lineto
2593 1840 2768 1617 conicto
2944 1394 2944 1050 conicto
2391 2867 moveto
2391 3133 2178 3290 conicto
1965 3448 1636 3448 conicto
1310 3448 1103 3299 conicto
896 3151 896 2898 conicto
896 2719 1000 2589 conicto
1105 2459 1316 2356 conicto
1411 2312 1590 2240 conicto
1770 2168 1940 2121 conicto
2195 2284 2293 2460 conicto
2391 2637 2391 2867 conicto
2455 1017 moveto
2455 1246 2352 1383 conicto
2250 1521 1952 1660 conicto
1832 1715 1690 1761 conicto
1549 1808 1313 1893 conicto
1085 1772 947 1563 conicto
809 1354 809 1091 conicto
809 756 1044 538 conicto
1280 320 1642 320 conicto
2012 320 2233 506 conicto
2455 692 2455 1017 conicto
end_ol grestore 
gsave 20,540933 9,000000 translate 0,035278 -0,035278 scale
start_ol
1240 0 moveto
637 0 lineto
637 718 lineto
1240 718 lineto
1240 0 lineto
end_ol grestore 
gsave 20,786467 9,000000 translate 0,035278 -0,035278 scale
start_ol
3030 1064 moveto
2473 1064 lineto
2473 0 lineto
1984 0 lineto
1984 1064 lineto
188 1064 lineto
188 1641 lineto
2009 3752 lineto
2473 3752 lineto
2473 1472 lineto
3030 1472 lineto
3030 1064 lineto
1984 1472 moveto
1984 3156 lineto
531 1472 lineto
1984 1472 lineto
end_ol grestore 
gsave 21,218267 9,000000 translate 0,035278 -0,035278 scale
start_ol
1240 0 moveto
637 0 lineto
637 718 lineto
1240 718 lineto
1240 0 lineto
end_ol grestore 
gsave 21,463800 9,000000 translate 0,035278 -0,035278 scale
start_ol
2944 0 moveto
405 0 lineto
405 527 lineto
674 753 944 979 conicto
1215 1206 1448 1430 conicto
1940 1899 2122 2175 conicto
2304 2451 2304 2769 conicto
2304 3062 2107 3227 conicto
1911 3392 1561 3392 conicto
1328 3392 1056 3311 conicto
785 3230 525 3062 conicto
500 3062 lineto
500 3573 lineto
679 3659 978 3729 conicto
1278 3800 1558 3800 conicto
2137 3800 2465 3522 conicto
2793 3244 2793 2769 conicto
2793 2556 2738 2370 conicto
2684 2185 2578 2020 conicto
2481 1864 2349 1713 conicto
2217 1562 2028 1378 conicto
1759 1115 1472 867 conicto
1186 619 936 408 conicto
2944 408 lineto
2944 0 lineto
end_ol grestore 
gsave 22,100000 10,700000 translate 0,035278 -0,035278 scale
start_ol
2735 -13 moveto
704 -13 lineto
704 395 lineto
1500 395 lineto
1500 2880 lineto
704 2880 lineto
704 3223 lineto
866 3223 1050 3249 conicto
1235 3276 1330 3326 conicto
1448 3389 1516 3486 conicto
1584 3583 1594 3747 conicto
1984 3747 lineto
1984 395 lineto
2735 395 lineto
2735 -13 lineto
end_ol grestore 
gsave 22,531800 10,700000 translate 0,035278 -0,035278 scale
start_ol
2921 1886 moveto
2921 873 2607 399 conicto
2293 -74 1632 -74 conicto
962 -74 652 405 conicto
343 885 343 1880 conicto
343 2883 656 3361 conicto
969 3840 1632 3840 conicto
2303 3840 2612 3354 conicto
2921 2868 2921 1886 conicto
2278 732 moveto
2368 938 2400 1216 conicto
2432 1494 2432 1886 conicto
2432 2272 2400 2556 conicto
2368 2840 2275 3039 conicto
2186 3234 2030 3333 conicto
1875 3432 1632 3432 conicto
1391 3432 1233 3333 conicto
1075 3234 983 3034 conicto
896 2845 864 2543 conicto
832 2241 832 1880 conicto
832 1484 860 1217 conicto
888 951 981 740 conicto
1065 542 1220 438 conicto
1376 334 1632 334 conicto
1873 334 2032 433 conicto
2191 532 2278 732 conicto
end_ol grestore 
gsave 22,963600 10,700000 translate 0,035278 -0,035278 scale
start_ol
1240 0 moveto
637 0 lineto
637 718 lineto
1240 718 lineto
1240 0 lineto
end_ol grestore 
gsave 23,209133 10,700000 translate 0,035278 -0,035278 scale
start_ol
2944 1050 moveto
2944 560 2571 236 conicto
2198 -88 1632 -88 conicto
1032 -88 676 228 conicto
320 545 320 1040 conicto
320 1354 494 1608 conicto
668 1862 984 2012 conicto
984 2027 lineto
690 2189 548 2381 conicto
407 2574 407 2864 conicto
407 3289 756 3572 conicto
1106 3856 1644 3856 conicto
2208 3856 2544 3585 conicto
2880 3314 2880 2896 conicto
2880 2641 2723 2394 conicto
2566 2147 2260 2007 conicto
2260 1992 lineto
2593 1840 2768 1617 conicto
2944 1394 2944 1050 conicto
2391 2867 moveto
2391 3133 2178 3290 conicto
1965 3448 1636 3448 conicto
1310 3448 1103 3299 conicto
896 3151 896 2898 conicto
896 2719 1000 2589 conicto
1105 2459 1316 2356 conicto
1411 2312 1590 2240 conicto
1770 2168 1940 2121 conicto
2195 2284 2293 2460 conicto
2391 2637 2391 2867 conicto
2455 1017 moveto
2455 1246 2352 1383 conicto
2250 1521 1952 1660 conicto
1832 1715 1690 1761 conicto
1549 1808 1313 1893 conicto
1085 1772 947 1563 conicto
809 1354 809 1091 conicto
809 756 1044 538 conicto
1280 320 1642 320 conicto
2012 320 2233 506 conicto
2455 692 2455 1017 conicto
end_ol grestore 
gsave 23,640933 10,700000 translate 0,035278 -0,035278 scale
start_ol
1240 0 moveto
637 0 lineto
637 718 lineto
1240 718 lineto
1240 0 lineto
end_ol grestore 
gsave 23,886467 10,700000 translate 0,035278 -0,035278 scale
start_ol
3030 1064 moveto
2473 1064 lineto
2473 0 lineto
1984 0 lineto
1984 1064 lineto
188 1064 lineto
188 1641 lineto
2009 3752 lineto
2473 3752 lineto
2473 1472 lineto
3030 1472 lineto
3030 1064 lineto
1984 1472 moveto
1984 3156 lineto
531 1472 lineto
1984 1472 lineto
end_ol grestore 
gsave 24,318267 10,700000 translate 0,035278 -0,035278 scale
start_ol
1240 0 moveto
637 0 lineto
637 718 lineto
1240 718 lineto
1240 0 lineto
end_ol grestore 
gsave 24,563800 10,700000 translate 0,035278 -0,035278 scale
start_ol
2944 0 moveto
405 0 lineto
405 527 lineto
674 753 944 979 conicto
1215 1206 1448 1430 conicto
1940 1899 2122 2175 conicto
2304 2451 2304 2769 conicto
2304 3062 2107 3227 conicto
1911 3392 1561 3392 conicto
1328 3392 1056 3311 conicto
785 3230 525 3062 conicto
500 3062 lineto
500 3573 lineto
679 3659 978 3729 conicto
1278 3800 1558 3800 conicto
2137 3800 2465 3522 conicto
2793 3244 2793 2769 conicto
2793 2556 2738 2370 conicto
2684 2185 2578 2020 conicto
2481 1864 2349 1713 conicto
2217 1562 2028 1378 conicto
1759 1115 1472 867 conicto
1186 619 936 408 conicto
2944 408 lineto
2944 0 lineto
end_ol grestore 
gsave 24,995600 10,700000 translate 0,035278 -0,035278 scale
start_ol
2921 1196 moveto
2921 936 2825 698 conicto
2730 461 2563 298 conicto
2382 124 2132 30 conicto
1882 -64 1551 -64 conicto
1244 -64 960 -2 conicto
676 60 479 148 conicto
479 663 lineto
514 663 lineto
724 530 1003 437 conicto
1283 344 1553 344 conicto
1734 344 1903 395 conicto
2072 446 2205 574 conicto
2317 683 2374 836 conicto
2432 989 2432 1190 conicto
2432 1387 2364 1522 conicto
2296 1657 2177 1739 conicto
2045 1836 1854 1875 conicto
1664 1915 1430 1915 conicto
1206 1915 998 1884 conicto
791 1853 640 1823 conicto
640 3735 lineto
2897 3735 lineto
2897 3327 lineto
1129 3327 lineto
1129 2308 lineto
1237 2318 1350 2323 conicto
1463 2328 1546 2328 conicto
1850 2328 2078 2277 conicto
2307 2226 2499 2096 conicto
2699 1958 2810 1740 conicto
2921 1523 2921 1196 conicto
end_ol grestore 
gsave 25,427400 10,700000 translate 0,035278 -0,035278 scale
start_ol
3030 1064 moveto
2473 1064 lineto
2473 0 lineto
1984 0 lineto
1984 1064 lineto
188 1064 lineto
188 1641 lineto
2009 3752 lineto
2473 3752 lineto
2473 1472 lineto
3030 1472 lineto
3030 1064 lineto
1984 1472 moveto
1984 3156 lineto
531 1472 lineto
1984 1472 lineto
end_ol grestore 
showpage
