%!PS-Adobe-2.0 EPSF-2.0
%%Title: /data/SharedFiles/artikel/lm/articles/diskless_concepts/cowloop.dia
%%Creator: Dia v0.94
%%CreationDate: Wed May  3 07:32:48 2006
%%For: dirk
%%Orientation: Portrait
%%Magnification: 1.0000
%%BoundingBox: 0 0 743 725
%%BeginSetup
%%EndSetup
%%EndComments
%%BeginProlog
[ /.notdef /.notdef /.notdef /.notdef /.notdef /.notdef /.notdef /.notdef /.notdef /.notdef
/.notdef /.notdef /.notdef /.notdef /.notdef /.notdef /.notdef /.notdef /.notdef /.notdef
/.notdef /.notdef /.notdef /.notdef /.notdef /.notdef /.notdef /.notdef /.notdef /.notdef
/.notdef /.notdef /space /exclam /quotedbl /numbersign /dollar /percent /ampersand /quoteright
/parenleft /parenright /asterisk /plus /comma /hyphen /period /slash /zero /one
/two /three /four /five /six /seven /eight /nine /colon /semicolon
/less /equal /greater /question /at /A /B /C /D /E
/F /G /H /I /J /K /L /M /N /O
/P /Q /R /S /T /U /V /W /X /Y
/Z /bracketleft /backslash /bracketright /asciicircum /underscore /quoteleft /a /b /c
/d /e /f /g /h /i /j /k /l /m
/n /o /p /q /r /s /t /u /v /w
/x /y /z /braceleft /bar /braceright /asciitilde /.notdef /.notdef /.notdef
/.notdef /.notdef /.notdef /.notdef /.notdef /.notdef /.notdef /.notdef /.notdef /.notdef
/.notdef /.notdef /.notdef /.notdef /.notdef /.notdef /.notdef /.notdef /.notdef /.notdef
/.notdef /.notdef /.notdef /.notdef /.notdef /.notdef /.notdef /.notdef /.notdef /.notdef
/space /exclamdown /cent /sterling /currency /yen /brokenbar /section /dieresis /copyright
/ordfeminine /guillemotleft /logicalnot /hyphen /registered /macron /degree /plusminus /twosuperior /threesuperior
/acute /mu /paragraph /periodcentered /cedilla /onesuperior /ordmasculine /guillemotright /onequarter /onehalf
/threequarters /questiondown /Agrave /Aacute /Acircumflex /Atilde /Adieresis /Aring /AE /Ccedilla
/Egrave /Eacute /Ecircumflex /Edieresis /Igrave /Iacute /Icircumflex /Idieresis /Eth /Ntilde
/Ograve /Oacute /Ocircumflex /Otilde /Odieresis /multiply /Oslash /Ugrave /Uacute /Ucircumflex
/Udieresis /Yacute /Thorn /germandbls /agrave /aacute /acircumflex /atilde /adieresis /aring
/ae /ccedilla /egrave /eacute /ecircumflex /edieresis /igrave /iacute /icircumflex /idieresis
/eth /ntilde /ograve /oacute /ocircumflex /otilde /odieresis /divide /oslash /ugrave
/uacute /ucircumflex /udieresis /yacute /thorn /ydieresis] /isolatin1encoding exch def
/cp {closepath} bind def
/c {curveto} bind def
/f {fill} bind def
/a {arc} bind def
/ef {eofill} bind def
/ex {exch} bind def
/gr {grestore} bind def
/gs {gsave} bind def
/sa {save} bind def
/rs {restore} bind def
/l {lineto} bind def
/m {moveto} bind def
/rm {rmoveto} bind def
/n {newpath} bind def
/s {stroke} bind def
/sh {show} bind def
/slc {setlinecap} bind def
/slj {setlinejoin} bind def
/slw {setlinewidth} bind def
/srgb {setrgbcolor} bind def
/rot {rotate} bind def
/sc {scale} bind def
/sd {setdash} bind def
/ff {findfont} bind def
/sf {setfont} bind def
/scf {scalefont} bind def
/sw {stringwidth pop} bind def
/tr {translate} bind def

/ellipsedict 8 dict def
ellipsedict /mtrx matrix put
/ellipse
{ ellipsedict begin
   /endangle exch def
   /startangle exch def
   /yrad exch def
   /xrad exch def
   /y exch def
   /x exch def   /savematrix mtrx currentmatrix def
   x y tr xrad yrad sc
   0 0 1 startangle endangle arc
   savematrix setmatrix
   end
} def

/mergeprocs {
dup length
3 -1 roll
dup
length
dup
5 1 roll
3 -1 roll
add
array cvx
dup
3 -1 roll
0 exch
putinterval
dup
4 2 roll
putinterval
} bind def
/Times-Roman-latin1
    /Times-Roman findfont
    dup length dict begin
	{1 index /FID ne {def} {pop pop} ifelse} forall
	/Encoding isolatin1encoding def
    currentdict end
definefont pop
/Times-Italic-latin1
    /Times-Italic findfont
    dup length dict begin
	{1 index /FID ne {def} {pop pop} ifelse} forall
	/Encoding isolatin1encoding def
    currentdict end
definefont pop
/Times-Bold-latin1
    /Times-Bold findfont
    dup length dict begin
	{1 index /FID ne {def} {pop pop} ifelse} forall
	/Encoding isolatin1encoding def
    currentdict end
definefont pop
/Times-BoldItalic-latin1
    /Times-BoldItalic findfont
    dup length dict begin
	{1 index /FID ne {def} {pop pop} ifelse} forall
	/Encoding isolatin1encoding def
    currentdict end
definefont pop
/AvantGarde-Book-latin1
    /AvantGarde-Book findfont
    dup length dict begin
	{1 index /FID ne {def} {pop pop} ifelse} forall
	/Encoding isolatin1encoding def
    currentdict end
definefont pop
/AvantGarde-BookOblique-latin1
    /AvantGarde-BookOblique findfont
    dup length dict begin
	{1 index /FID ne {def} {pop pop} ifelse} forall
	/Encoding isolatin1encoding def
    currentdict end
definefont pop
/AvantGarde-Demi-latin1
    /AvantGarde-Demi findfont
    dup length dict begin
	{1 index /FID ne {def} {pop pop} ifelse} forall
	/Encoding isolatin1encoding def
    currentdict end
definefont pop
/AvantGarde-DemiOblique-latin1
    /AvantGarde-DemiOblique findfont
    dup length dict begin
	{1 index /FID ne {def} {pop pop} ifelse} forall
	/Encoding isolatin1encoding def
    currentdict end
definefont pop
/Bookman-Light-latin1
    /Bookman-Light findfont
    dup length dict begin
	{1 index /FID ne {def} {pop pop} ifelse} forall
	/Encoding isolatin1encoding def
    currentdict end
definefont pop
/Bookman-LightItalic-latin1
    /Bookman-LightItalic findfont
    dup length dict begin
	{1 index /FID ne {def} {pop pop} ifelse} forall
	/Encoding isolatin1encoding def
    currentdict end
definefont pop
/Bookman-Demi-latin1
    /Bookman-Demi findfont
    dup length dict begin
	{1 index /FID ne {def} {pop pop} ifelse} forall
	/Encoding isolatin1encoding def
    currentdict end
definefont pop
/Bookman-DemiItalic-latin1
    /Bookman-DemiItalic findfont
    dup length dict begin
	{1 index /FID ne {def} {pop pop} ifelse} forall
	/Encoding isolatin1encoding def
    currentdict end
definefont pop
/Courier-latin1
    /Courier findfont
    dup length dict begin
	{1 index /FID ne {def} {pop pop} ifelse} forall
	/Encoding isolatin1encoding def
    currentdict end
definefont pop
/Courier-Oblique-latin1
    /Courier-Oblique findfont
    dup length dict begin
	{1 index /FID ne {def} {pop pop} ifelse} forall
	/Encoding isolatin1encoding def
    currentdict end
definefont pop
/Courier-Bold-latin1
    /Courier-Bold findfont
    dup length dict begin
	{1 index /FID ne {def} {pop pop} ifelse} forall
	/Encoding isolatin1encoding def
    currentdict end
definefont pop
/Courier-BoldOblique-latin1
    /Courier-BoldOblique findfont
    dup length dict begin
	{1 index /FID ne {def} {pop pop} ifelse} forall
	/Encoding isolatin1encoding def
    currentdict end
definefont pop
/Helvetica-latin1
    /Helvetica findfont
    dup length dict begin
	{1 index /FID ne {def} {pop pop} ifelse} forall
	/Encoding isolatin1encoding def
    currentdict end
definefont pop
/Helvetica-Oblique-latin1
    /Helvetica-Oblique findfont
    dup length dict begin
	{1 index /FID ne {def} {pop pop} ifelse} forall
	/Encoding isolatin1encoding def
    currentdict end
definefont pop
/Helvetica-Bold-latin1
    /Helvetica-Bold findfont
    dup length dict begin
	{1 index /FID ne {def} {pop pop} ifelse} forall
	/Encoding isolatin1encoding def
    currentdict end
definefont pop
/Helvetica-BoldOblique-latin1
    /Helvetica-BoldOblique findfont
    dup length dict begin
	{1 index /FID ne {def} {pop pop} ifelse} forall
	/Encoding isolatin1encoding def
    currentdict end
definefont pop
/Helvetica-Narrow-latin1
    /Helvetica-Narrow findfont
    dup length dict begin
	{1 index /FID ne {def} {pop pop} ifelse} forall
	/Encoding isolatin1encoding def
    currentdict end
definefont pop
/Helvetica-Narrow-Oblique-latin1
    /Helvetica-Narrow-Oblique findfont
    dup length dict begin
	{1 index /FID ne {def} {pop pop} ifelse} forall
	/Encoding isolatin1encoding def
    currentdict end
definefont pop
/Helvetica-Narrow-Bold-latin1
    /Helvetica-Narrow-Bold findfont
    dup length dict begin
	{1 index /FID ne {def} {pop pop} ifelse} forall
	/Encoding isolatin1encoding def
    currentdict end
definefont pop
/Helvetica-Narrow-BoldOblique-latin1
    /Helvetica-Narrow-BoldOblique findfont
    dup length dict begin
	{1 index /FID ne {def} {pop pop} ifelse} forall
	/Encoding isolatin1encoding def
    currentdict end
definefont pop
/NewCenturySchoolbook-Roman-latin1
    /NewCenturySchoolbook-Roman findfont
    dup length dict begin
	{1 index /FID ne {def} {pop pop} ifelse} forall
	/Encoding isolatin1encoding def
    currentdict end
definefont pop
/NewCenturySchoolbook-Italic-latin1
    /NewCenturySchoolbook-Italic findfont
    dup length dict begin
	{1 index /FID ne {def} {pop pop} ifelse} forall
	/Encoding isolatin1encoding def
    currentdict end
definefont pop
/NewCenturySchoolbook-Bold-latin1
    /NewCenturySchoolbook-Bold findfont
    dup length dict begin
	{1 index /FID ne {def} {pop pop} ifelse} forall
	/Encoding isolatin1encoding def
    currentdict end
definefont pop
/NewCenturySchoolbook-BoldItalic-latin1
    /NewCenturySchoolbook-BoldItalic findfont
    dup length dict begin
	{1 index /FID ne {def} {pop pop} ifelse} forall
	/Encoding isolatin1encoding def
    currentdict end
definefont pop
/Palatino-Roman-latin1
    /Palatino-Roman findfont
    dup length dict begin
	{1 index /FID ne {def} {pop pop} ifelse} forall
	/Encoding isolatin1encoding def
    currentdict end
definefont pop
/Palatino-Italic-latin1
    /Palatino-Italic findfont
    dup length dict begin
	{1 index /FID ne {def} {pop pop} ifelse} forall
	/Encoding isolatin1encoding def
    currentdict end
definefont pop
/Palatino-Bold-latin1
    /Palatino-Bold findfont
    dup length dict begin
	{1 index /FID ne {def} {pop pop} ifelse} forall
	/Encoding isolatin1encoding def
    currentdict end
definefont pop
/Palatino-BoldItalic-latin1
    /Palatino-BoldItalic findfont
    dup length dict begin
	{1 index /FID ne {def} {pop pop} ifelse} forall
	/Encoding isolatin1encoding def
    currentdict end
definefont pop
/Symbol-latin1
    /Symbol findfont
definefont pop
/ZapfChancery-MediumItalic-latin1
    /ZapfChancery-MediumItalic findfont
    dup length dict begin
	{1 index /FID ne {def} {pop pop} ifelse} forall
	/Encoding isolatin1encoding def
    currentdict end
definefont pop
/ZapfDingbats-latin1
    /ZapfDingbats findfont
    dup length dict begin
	{1 index /FID ne {def} {pop pop} ifelse} forall
	/Encoding isolatin1encoding def
    currentdict end
definefont pop
28.346000 -28.346000 scale
-4.850000 -22.008824 translate
%%EndProlog


0.100000 slw
[] 0 sd
[] 0 sd
0 slc
0 slj
0 slc
0 slj
[] 0 sd
1.000000 1.000000 1.000000 srgb
n 11.000000 14.882353 m 11.000000 20.176471 l 17.000000 20.176471 l 17.000000 14.882353 l f
0 slc
0 slj
[] 0 sd
n 14.000000 20.176471 3.000000 0.882353 0 360 ellipse f
0 slc
0 slj
[] 0 sd
n 14.000000 14.882353 3.000000 0.882353 0 360 ellipse f
0.000000 0.000000 0.000000 srgb
n 14.000000 14.882353 3.000000 0.882353 0 360 ellipse cp s
0 slc
0 slj
[] 0 sd
n 17.000000 14.882353 m 17.000000 20.176471 l 17.000000 20.663781 15.656854 21.058824 14.000000 21.058824 c 12.343146 21.058824 11.000000 20.663781 11.000000 20.176471 c 11.000000 14.882353 l s
/Helvetica-latin1 ff 0.560000 scf sf
0.100000 slw
[] 0 sd
[] 0 sd
0 slc
0 slj
0 slc
0 slj
[] 0 sd
1.000000 1.000000 1.000000 srgb
n 19.000000 14.882353 m 19.000000 20.176471 l 25.000000 20.176471 l 25.000000 14.882353 l f
0 slc
0 slj
[] 0 sd
n 22.000000 20.176471 3.000000 0.882353 0 360 ellipse f
0 slc
0 slj
[] 0 sd
n 22.000000 14.882353 3.000000 0.882353 0 360 ellipse f
0.000000 0.000000 0.000000 srgb
n 22.000000 14.882353 3.000000 0.882353 0 360 ellipse cp s
0 slc
0 slj
[] 0 sd
n 25.000000 14.882353 m 25.000000 20.176471 l 25.000000 20.663781 23.656854 21.058824 22.000000 21.058824 c 20.343146 21.058824 19.000000 20.663781 19.000000 20.176471 c 19.000000 14.882353 l s
/Helvetica-latin1 ff 0.560000 scf sf
0.100000 slw
[] 0 sd
[] 0 sd
0 slc
n 15.000000 13.000000 m 16.729970 10.405045 l s
[] 0 sd
0 slj
0 slc
n 16.937983 10.093026 m 16.868645 10.647726 l 16.729970 10.405045 l 16.452620 10.370376 l ef
n 16.937983 10.093026 m 16.868645 10.647726 l 16.729970 10.405045 l 16.452620 10.370376 l cp s
0.100000 slw
[] 0 sd
[] 0 sd
0 slc
n 20.729970 12.594955 m 19.270030 10.405045 l s
[] 0 sd
0 slj
0 slc
n 20.937983 12.906974 m 20.452620 12.629624 l 20.729970 12.594955 l 20.868645 12.352274 l ef
n 20.937983 12.906974 m 20.452620 12.629624 l 20.729970 12.594955 l 20.868645 12.352274 l cp s
[] 0 sd
0 slj
0 slc
n 19.062017 10.093026 m 19.547380 10.370376 l 19.270030 10.405045 l 19.131355 10.647726 l ef
n 19.062017 10.093026 m 19.547380 10.370376 l 19.270030 10.405045 l 19.131355 10.647726 l cp s
0.100000 slw
[] 0 sd
[] 0 sd
0 slc
0 slj
0 slc
0 slj
[] 0 sd
1.000000 1.000000 1.000000 srgb
n 15.000000 2.882353 m 15.000000 8.176471 l 21.000000 8.176471 l 21.000000 2.882353 l f
0 slc
0 slj
[] 0 sd
n 18.000000 8.176471 3.000000 0.882353 0 360 ellipse f
0 slc
0 slj
[] 0 sd
n 18.000000 2.882353 3.000000 0.882353 0 360 ellipse f
0.000000 0.000000 0.000000 srgb
n 18.000000 2.882353 3.000000 0.882353 0 360 ellipse cp s
0 slc
0 slj
[] 0 sd
n 21.000000 2.882353 m 21.000000 8.176471 l 21.000000 8.663781 19.656854 9.058824 18.000000 9.058824 c 16.343146 9.058824 15.000000 8.663781 15.000000 8.176471 c 15.000000 2.882353 l s
/Helvetica-latin1 ff 0.560000 scf sf
0.839216 0.125490 0.125490 srgb
n 12.000000 16.000000 m 12.000000 17.000000 l 13.000000 17.000000 l 13.000000 16.000000 l f
0.100000 slw
[] 0 sd
[] 0 sd
0 slj
0.000000 0.000000 0.000000 srgb
n 12.000000 16.000000 m 12.000000 17.000000 l 13.000000 17.000000 l 13.000000 16.000000 l cp s
0.839216 0.125490 0.125490 srgb
n 13.000000 16.000000 m 13.000000 17.000000 l 14.000000 17.000000 l 14.000000 16.000000 l f
0.100000 slw
[] 0 sd
[] 0 sd
0 slj
0.000000 0.000000 0.000000 srgb
n 13.000000 16.000000 m 13.000000 17.000000 l 14.000000 17.000000 l 14.000000 16.000000 l cp s
0.839216 0.125490 0.125490 srgb
n 12.000000 17.000000 m 12.000000 18.000000 l 13.000000 18.000000 l 13.000000 17.000000 l f
0.100000 slw
[] 0 sd
[] 0 sd
0 slj
0.000000 0.000000 0.000000 srgb
n 12.000000 17.000000 m 12.000000 18.000000 l 13.000000 18.000000 l 13.000000 17.000000 l cp s
0.839216 0.125490 0.125490 srgb
n 13.000000 17.000000 m 13.000000 18.000000 l 14.000000 18.000000 l 14.000000 17.000000 l f
0.100000 slw
[] 0 sd
[] 0 sd
0 slj
0.000000 0.000000 0.000000 srgb
n 13.000000 17.000000 m 13.000000 18.000000 l 14.000000 18.000000 l 14.000000 17.000000 l cp s
0.839216 0.125490 0.125490 srgb
n 14.000000 16.000000 m 14.000000 17.000000 l 15.000000 17.000000 l 15.000000 16.000000 l f
0.100000 slw
[] 0 sd
[] 0 sd
0 slj
0.000000 0.000000 0.000000 srgb
n 14.000000 16.000000 m 14.000000 17.000000 l 15.000000 17.000000 l 15.000000 16.000000 l cp s
0.839216 0.125490 0.125490 srgb
n 15.000000 16.000000 m 15.000000 17.000000 l 16.000000 17.000000 l 16.000000 16.000000 l f
0.100000 slw
[] 0 sd
[] 0 sd
0 slj
0.000000 0.000000 0.000000 srgb
n 15.000000 16.000000 m 15.000000 17.000000 l 16.000000 17.000000 l 16.000000 16.000000 l cp s
0.839216 0.125490 0.125490 srgb
n 14.000000 17.000000 m 14.000000 18.000000 l 15.000000 18.000000 l 15.000000 17.000000 l f
0.100000 slw
[] 0 sd
[] 0 sd
0 slj
0.000000 0.000000 0.000000 srgb
n 14.000000 17.000000 m 14.000000 18.000000 l 15.000000 18.000000 l 15.000000 17.000000 l cp s
0.839216 0.125490 0.125490 srgb
n 15.000000 17.000000 m 15.000000 18.000000 l 16.000000 18.000000 l 16.000000 17.000000 l f
0.100000 slw
[] 0 sd
[] 0 sd
0 slj
0.000000 0.000000 0.000000 srgb
n 15.000000 17.000000 m 15.000000 18.000000 l 16.000000 18.000000 l 16.000000 17.000000 l cp s
0.839216 0.125490 0.125490 srgb
n 12.000000 18.000000 m 12.000000 19.000000 l 13.000000 19.000000 l 13.000000 18.000000 l f
0.100000 slw
[] 0 sd
[] 0 sd
0 slj
0.000000 0.000000 0.000000 srgb
n 12.000000 18.000000 m 12.000000 19.000000 l 13.000000 19.000000 l 13.000000 18.000000 l cp s
0.839216 0.125490 0.125490 srgb
n 13.000000 18.000000 m 13.000000 19.000000 l 14.000000 19.000000 l 14.000000 18.000000 l f
0.100000 slw
[] 0 sd
[] 0 sd
0 slj
0.000000 0.000000 0.000000 srgb
n 13.000000 18.000000 m 13.000000 19.000000 l 14.000000 19.000000 l 14.000000 18.000000 l cp s
0.839216 0.125490 0.125490 srgb
n 12.000000 19.000000 m 12.000000 20.000000 l 13.000000 20.000000 l 13.000000 19.000000 l f
0.100000 slw
[] 0 sd
[] 0 sd
0 slj
0.000000 0.000000 0.000000 srgb
n 12.000000 19.000000 m 12.000000 20.000000 l 13.000000 20.000000 l 13.000000 19.000000 l cp s
0.839216 0.125490 0.125490 srgb
n 13.000000 19.000000 m 13.000000 20.000000 l 14.000000 20.000000 l 14.000000 19.000000 l f
0.100000 slw
[] 0 sd
[] 0 sd
0 slj
0.000000 0.000000 0.000000 srgb
n 13.000000 19.000000 m 13.000000 20.000000 l 14.000000 20.000000 l 14.000000 19.000000 l cp s
0.839216 0.125490 0.125490 srgb
n 14.000000 18.000000 m 14.000000 19.000000 l 15.000000 19.000000 l 15.000000 18.000000 l f
0.100000 slw
[] 0 sd
[] 0 sd
0 slj
0.000000 0.000000 0.000000 srgb
n 14.000000 18.000000 m 14.000000 19.000000 l 15.000000 19.000000 l 15.000000 18.000000 l cp s
0.839216 0.125490 0.125490 srgb
n 15.000000 18.000000 m 15.000000 19.000000 l 16.000000 19.000000 l 16.000000 18.000000 l f
0.100000 slw
[] 0 sd
[] 0 sd
0 slj
0.000000 0.000000 0.000000 srgb
n 15.000000 18.000000 m 15.000000 19.000000 l 16.000000 19.000000 l 16.000000 18.000000 l cp s
1.000000 1.000000 1.000000 srgb
n 14.000000 19.000000 m 14.000000 20.000000 l 15.000000 20.000000 l 15.000000 19.000000 l f
0.100000 slw
[] 0 sd
[] 0 sd
0 slj
0.000000 0.000000 0.000000 srgb
n 14.000000 19.000000 m 14.000000 20.000000 l 15.000000 20.000000 l 15.000000 19.000000 l cp s
1.000000 1.000000 1.000000 srgb
n 15.000000 19.000000 m 15.000000 20.000000 l 16.000000 20.000000 l 16.000000 19.000000 l f
0.100000 slw
[] 0 sd
[] 0 sd
0 slj
0.000000 0.000000 0.000000 srgb
n 15.000000 19.000000 m 15.000000 20.000000 l 16.000000 20.000000 l 16.000000 19.000000 l cp s
0.839216 0.125490 0.125490 srgb
n 16.000000 4.000000 m 16.000000 5.000000 l 17.000000 5.000000 l 17.000000 4.000000 l f
0.100000 slw
[] 0 sd
[] 0 sd
0 slj
0.000000 0.000000 0.000000 srgb
n 16.000000 4.000000 m 16.000000 5.000000 l 17.000000 5.000000 l 17.000000 4.000000 l cp s
0.839216 0.125490 0.125490 srgb
n 16.000000 5.000000 m 16.000000 6.000000 l 17.000000 6.000000 l 17.000000 5.000000 l f
0.100000 slw
[] 0 sd
[] 0 sd
0 slj
0.000000 0.000000 0.000000 srgb
n 16.000000 5.000000 m 16.000000 6.000000 l 17.000000 6.000000 l 17.000000 5.000000 l cp s
0.839216 0.125490 0.125490 srgb
n 18.000000 4.000000 m 18.000000 5.000000 l 19.000000 5.000000 l 19.000000 4.000000 l f
0.100000 slw
[] 0 sd
[] 0 sd
0 slj
0.000000 0.000000 0.000000 srgb
n 18.000000 4.000000 m 18.000000 5.000000 l 19.000000 5.000000 l 19.000000 4.000000 l cp s
0.839216 0.125490 0.125490 srgb
n 19.000000 4.000000 m 19.000000 5.000000 l 20.000000 5.000000 l 20.000000 4.000000 l f
0.100000 slw
[] 0 sd
[] 0 sd
0 slj
0.000000 0.000000 0.000000 srgb
n 19.000000 4.000000 m 19.000000 5.000000 l 20.000000 5.000000 l 20.000000 4.000000 l cp s
0.839216 0.125490 0.125490 srgb
n 18.000000 5.000000 m 18.000000 6.000000 l 19.000000 6.000000 l 19.000000 5.000000 l f
0.100000 slw
[] 0 sd
[] 0 sd
0 slj
0.000000 0.000000 0.000000 srgb
n 18.000000 5.000000 m 18.000000 6.000000 l 19.000000 6.000000 l 19.000000 5.000000 l cp s
0.839216 0.125490 0.125490 srgb
n 16.000000 6.000000 m 16.000000 7.000000 l 17.000000 7.000000 l 17.000000 6.000000 l f
0.100000 slw
[] 0 sd
[] 0 sd
0 slj
0.000000 0.000000 0.000000 srgb
n 16.000000 6.000000 m 16.000000 7.000000 l 17.000000 7.000000 l 17.000000 6.000000 l cp s
0.839216 0.125490 0.125490 srgb
n 17.000000 6.000000 m 17.000000 7.000000 l 18.000000 7.000000 l 18.000000 6.000000 l f
0.100000 slw
[] 0 sd
[] 0 sd
0 slj
0.000000 0.000000 0.000000 srgb
n 17.000000 6.000000 m 17.000000 7.000000 l 18.000000 7.000000 l 18.000000 6.000000 l cp s
0.839216 0.125490 0.125490 srgb
n 16.000000 7.000000 m 16.000000 8.000000 l 17.000000 8.000000 l 17.000000 7.000000 l f
0.100000 slw
[] 0 sd
[] 0 sd
0 slj
0.000000 0.000000 0.000000 srgb
n 16.000000 7.000000 m 16.000000 8.000000 l 17.000000 8.000000 l 17.000000 7.000000 l cp s
0.839216 0.125490 0.125490 srgb
n 17.000000 7.000000 m 17.000000 8.000000 l 18.000000 8.000000 l 18.000000 7.000000 l f
0.100000 slw
[] 0 sd
[] 0 sd
0 slj
0.000000 0.000000 0.000000 srgb
n 17.000000 7.000000 m 17.000000 8.000000 l 18.000000 8.000000 l 18.000000 7.000000 l cp s
0.839216 0.125490 0.125490 srgb
n 18.000000 6.000000 m 18.000000 7.000000 l 19.000000 7.000000 l 19.000000 6.000000 l f
0.100000 slw
[] 0 sd
[] 0 sd
0 slj
0.000000 0.000000 0.000000 srgb
n 18.000000 6.000000 m 18.000000 7.000000 l 19.000000 7.000000 l 19.000000 6.000000 l cp s
0.839216 0.125490 0.125490 srgb
n 19.000000 6.000000 m 19.000000 7.000000 l 20.000000 7.000000 l 20.000000 6.000000 l f
0.100000 slw
[] 0 sd
[] 0 sd
0 slj
0.000000 0.000000 0.000000 srgb
n 19.000000 6.000000 m 19.000000 7.000000 l 20.000000 7.000000 l 20.000000 6.000000 l cp s
1.000000 1.000000 1.000000 srgb
n 18.000000 7.000000 m 18.000000 8.000000 l 19.000000 8.000000 l 19.000000 7.000000 l f
0.100000 slw
[] 0 sd
[] 0 sd
0 slj
0.000000 0.000000 0.000000 srgb
n 18.000000 7.000000 m 18.000000 8.000000 l 19.000000 8.000000 l 19.000000 7.000000 l cp s
1.000000 1.000000 1.000000 srgb
n 19.000000 7.000000 m 19.000000 8.000000 l 20.000000 8.000000 l 20.000000 7.000000 l f
0.100000 slw
[] 0 sd
[] 0 sd
0 slj
0.000000 0.000000 0.000000 srgb
n 19.000000 7.000000 m 19.000000 8.000000 l 20.000000 8.000000 l 20.000000 7.000000 l cp s
1.000000 1.000000 1.000000 srgb
n 20.000000 16.000000 m 20.000000 17.000000 l 21.000000 17.000000 l 21.000000 16.000000 l f
0.100000 slw
[] 0 sd
[] 0 sd
0 slj
0.000000 0.000000 0.000000 srgb
n 20.000000 16.000000 m 20.000000 17.000000 l 21.000000 17.000000 l 21.000000 16.000000 l cp s
1.000000 1.000000 1.000000 srgb
n 20.000000 17.000000 m 20.000000 18.000000 l 21.000000 18.000000 l 21.000000 17.000000 l f
0.100000 slw
[] 0 sd
[] 0 sd
0 slj
0.000000 0.000000 0.000000 srgb
n 20.000000 17.000000 m 20.000000 18.000000 l 21.000000 18.000000 l 21.000000 17.000000 l cp s
0.239216 0.717647 0.168627 srgb
n 21.000000 17.000000 m 21.000000 18.000000 l 22.000000 18.000000 l 22.000000 17.000000 l f
0.100000 slw
[] 0 sd
[] 0 sd
0 slj
0.000000 0.000000 0.000000 srgb
n 21.000000 17.000000 m 21.000000 18.000000 l 22.000000 18.000000 l 22.000000 17.000000 l cp s
1.000000 1.000000 1.000000 srgb
n 22.000000 16.000000 m 22.000000 17.000000 l 23.000000 17.000000 l 23.000000 16.000000 l f
0.100000 slw
[] 0 sd
[] 0 sd
0 slj
0.000000 0.000000 0.000000 srgb
n 22.000000 16.000000 m 22.000000 17.000000 l 23.000000 17.000000 l 23.000000 16.000000 l cp s
1.000000 1.000000 1.000000 srgb
n 23.000000 16.000000 m 23.000000 17.000000 l 24.000000 17.000000 l 24.000000 16.000000 l f
0.100000 slw
[] 0 sd
[] 0 sd
0 slj
0.000000 0.000000 0.000000 srgb
n 23.000000 16.000000 m 23.000000 17.000000 l 24.000000 17.000000 l 24.000000 16.000000 l cp s
1.000000 1.000000 1.000000 srgb
n 22.000000 17.000000 m 22.000000 18.000000 l 23.000000 18.000000 l 23.000000 17.000000 l f
0.100000 slw
[] 0 sd
[] 0 sd
0 slj
0.000000 0.000000 0.000000 srgb
n 22.000000 17.000000 m 22.000000 18.000000 l 23.000000 18.000000 l 23.000000 17.000000 l cp s
1.000000 1.000000 1.000000 srgb
n 20.000000 18.000000 m 20.000000 19.000000 l 21.000000 19.000000 l 21.000000 18.000000 l f
0.100000 slw
[] 0 sd
[] 0 sd
0 slj
0.000000 0.000000 0.000000 srgb
n 20.000000 18.000000 m 20.000000 19.000000 l 21.000000 19.000000 l 21.000000 18.000000 l cp s
1.000000 1.000000 1.000000 srgb
n 21.000000 18.000000 m 21.000000 19.000000 l 22.000000 19.000000 l 22.000000 18.000000 l f
0.100000 slw
[] 0 sd
[] 0 sd
0 slj
0.000000 0.000000 0.000000 srgb
n 21.000000 18.000000 m 21.000000 19.000000 l 22.000000 19.000000 l 22.000000 18.000000 l cp s
1.000000 1.000000 1.000000 srgb
n 20.000000 19.000000 m 20.000000 20.000000 l 21.000000 20.000000 l 21.000000 19.000000 l f
0.100000 slw
[] 0 sd
[] 0 sd
0 slj
0.000000 0.000000 0.000000 srgb
n 20.000000 19.000000 m 20.000000 20.000000 l 21.000000 20.000000 l 21.000000 19.000000 l cp s
1.000000 1.000000 1.000000 srgb
n 21.000000 19.000000 m 21.000000 20.000000 l 22.000000 20.000000 l 22.000000 19.000000 l f
0.100000 slw
[] 0 sd
[] 0 sd
0 slj
0.000000 0.000000 0.000000 srgb
n 21.000000 19.000000 m 21.000000 20.000000 l 22.000000 20.000000 l 22.000000 19.000000 l cp s
1.000000 1.000000 1.000000 srgb
n 22.000000 18.000000 m 22.000000 19.000000 l 23.000000 19.000000 l 23.000000 18.000000 l f
0.100000 slw
[] 0 sd
[] 0 sd
0 slj
0.000000 0.000000 0.000000 srgb
n 22.000000 18.000000 m 22.000000 19.000000 l 23.000000 19.000000 l 23.000000 18.000000 l cp s
1.000000 1.000000 1.000000 srgb
n 23.000000 18.000000 m 23.000000 19.000000 l 24.000000 19.000000 l 24.000000 18.000000 l f
0.100000 slw
[] 0 sd
[] 0 sd
0 slj
0.000000 0.000000 0.000000 srgb
n 23.000000 18.000000 m 23.000000 19.000000 l 24.000000 19.000000 l 24.000000 18.000000 l cp s
1.000000 1.000000 1.000000 srgb
n 22.000000 19.000000 m 22.000000 20.000000 l 23.000000 20.000000 l 23.000000 19.000000 l f
0.100000 slw
[] 0 sd
[] 0 sd
0 slj
0.000000 0.000000 0.000000 srgb
n 22.000000 19.000000 m 22.000000 20.000000 l 23.000000 20.000000 l 23.000000 19.000000 l cp s
1.000000 1.000000 1.000000 srgb
n 23.000000 19.000000 m 23.000000 20.000000 l 24.000000 20.000000 l 24.000000 19.000000 l f
0.100000 slw
[] 0 sd
[] 0 sd
0 slj
0.000000 0.000000 0.000000 srgb
n 23.000000 19.000000 m 23.000000 20.000000 l 24.000000 20.000000 l 24.000000 19.000000 l cp s
0.239216 0.717647 0.168627 srgb
n 17.000000 5.000000 m 17.000000 6.000000 l 18.000000 6.000000 l 18.000000 5.000000 l f
0.100000 slw
[] 0 sd
[] 0 sd
0 slj
0.000000 0.000000 0.000000 srgb
n 17.000000 5.000000 m 17.000000 6.000000 l 18.000000 6.000000 l 18.000000 5.000000 l cp s
0.239216 0.717647 0.168627 srgb
n 17.000000 4.000000 m 17.000000 5.000000 l 18.000000 5.000000 l 18.000000 4.000000 l f
0.100000 slw
[] 0 sd
[] 0 sd
0 slj
0.000000 0.000000 0.000000 srgb
n 17.000000 4.000000 m 17.000000 5.000000 l 18.000000 5.000000 l 18.000000 4.000000 l cp s
0.239216 0.717647 0.168627 srgb
n 21.000000 16.000000 m 21.000000 17.000000 l 22.000000 17.000000 l 22.000000 16.000000 l f
0.100000 slw
[] 0 sd
[] 0 sd
0 slj
0.000000 0.000000 0.000000 srgb
n 21.000000 16.000000 m 21.000000 17.000000 l 22.000000 17.000000 l 22.000000 16.000000 l cp s
0.239216 0.717647 0.168627 srgb
n 23.000000 17.000000 m 23.000000 18.000000 l 24.000000 18.000000 l 24.000000 17.000000 l f
0.100000 slw
[] 0 sd
[] 0 sd
0 slj
0.000000 0.000000 0.000000 srgb
n 23.000000 17.000000 m 23.000000 18.000000 l 24.000000 18.000000 l 24.000000 17.000000 l cp s
0.239216 0.717647 0.168627 srgb
n 19.000000 5.000000 m 19.000000 6.000000 l 20.000000 6.000000 l 20.000000 5.000000 l f
0.100000 slw
[] 0 sd
[] 0 sd
0 slj
0.000000 0.000000 0.000000 srgb
n 19.000000 5.000000 m 19.000000 6.000000 l 20.000000 6.000000 l 20.000000 5.000000 l cp s
/Helvetica-latin1 ff 1.050000 scf sf
(copy-on-write) dup sw 14.000000 ex sub 5.500000 m gs 1 -1 sc sh gr
(Blockgerät) dup sw 14.000000 ex sub 7.000000 m gs 1 -1 sc sh gr
/Times-Roman-latin1 ff 1.050000 scf sf
(nur lesbares) dup sw 10.000000 ex sub 17.000000 m gs 1 -1 sc sh gr
(Blockgerät) dup sw 10.000000 ex sub 18.500000 m gs 1 -1 sc sh gr
/Times-Roman-latin1 ff 1.050000 scf sf
(schreibbare) 26.000000 17.000000 m gs 1 -1 sc sh gr
(Datei) 26.000000 18.500000 m gs 1 -1 sc sh gr
/Times-Roman-latin1 ff 1.050000 scf sf
(Lesen) dup sw 14.000000 ex sub 12.000000 m gs 1 -1 sc sh gr
/Times-Roman-latin1 ff 1.050000 scf sf
(Lesen und Schreiben) 22.000000 12.000000 m gs 1 -1 sc sh gr
1.000000 1.000000 1.000000 srgb
n 14.000000 -3.500000 m 14.000000 -1.000000 l 22.000000 -1.000000 l 22.000000 -3.500000 l f
n 14.000000 -3.000000 m 14.000000 -3.000000 0.500000 0.500000 180.000000 270.000000 ellipse f
n 22.000000 -3.000000 m 22.000000 -3.000000 0.500000 0.500000 270.000000 360.000000 ellipse f
n 13.500000 -3.000000 m 13.500000 -1.500000 l 22.500000 -1.500000 l 22.500000 -3.000000 l f
n 14.000000 -1.500000 m 14.000000 -1.500000 0.500000 0.500000 90.000000 180.000000 ellipse f
n 22.000000 -1.500000 m 22.000000 -1.500000 0.500000 0.500000 0.000000 90.000000 ellipse f
0.100000 slw
[] 0 sd
[] 0 sd
0 slj
0.000000 0.000000 0.000000 srgb
n 14.000000 -3.500000 m 22.000000 -3.500000 l s
n 14.000000 -1.000000 m 22.000000 -1.000000 l s
n 14.000000 -3.000000 0.500000 0.500000 180.000000 270.000000 ellipse s
n 22.000000 -3.000000 0.500000 0.500000 270.000000 360.000000 ellipse s
n 13.500000 -3.000000 m 13.500000 -1.500000 l s
n 22.500000 -3.000000 m 22.500000 -1.500000 l s
n 14.000000 -1.500000 0.500000 0.500000 90.000000 180.000000 ellipse s
n 22.000000 -1.500000 0.500000 0.500000 0.000000 90.000000 ellipse s
/Times-Roman-latin1 ff 1.050000 scf sf
(Dateisystem) dup sw 2 div 18.000000 ex sub -2.000000 m gs 1 -1 sc sh gr
0.100000 slw
[] 0 sd
[] 0 sd
0 slc
n 18.000000 1.013197 m 18.000000 -0.013197 l s
[] 0 sd
0 slj
0 slc
n 18.000000 1.388197 m 17.750000 0.888197 l 18.000000 1.013197 l 18.250000 0.888197 l ef
n 18.000000 1.388197 m 17.750000 0.888197 l 18.000000 1.013197 l 18.250000 0.888197 l cp s
[] 0 sd
0 slj
0 slc
n 18.000000 -0.388197 m 18.250000 0.111803 l 18.000000 -0.013197 l 17.750000 0.111803 l ef
n 18.000000 -0.388197 m 18.250000 0.111803 l 18.000000 -0.013197 l 17.750000 0.111803 l cp s
showpage
