%!PS-Adobe-2.0 EPSF-2.0
%%Title: bilder/nw-speicher.dia
%%Creator: Dia v0.94
%%CreationDate: Mon Apr 17 00:19:12 2006
%%For: dirk
%%Orientation: Portrait
%%Magnification: 1.0000
%%BoundingBox: 0 0 840 427
%%BeginSetup
%%EndSetup
%%EndComments
%%BeginProlog
[ /.notdef /.notdef /.notdef /.notdef /.notdef /.notdef /.notdef /.notdef /.notdef /.notdef
/.notdef /.notdef /.notdef /.notdef /.notdef /.notdef /.notdef /.notdef /.notdef /.notdef
/.notdef /.notdef /.notdef /.notdef /.notdef /.notdef /.notdef /.notdef /.notdef /.notdef
/.notdef /.notdef /space /exclam /quotedbl /numbersign /dollar /percent /ampersand /quoteright
/parenleft /parenright /asterisk /plus /comma /hyphen /period /slash /zero /one
/two /three /four /five /six /seven /eight /nine /colon /semicolon
/less /equal /greater /question /at /A /B /C /D /E
/F /G /H /I /J /K /L /M /N /O
/P /Q /R /S /T /U /V /W /X /Y
/Z /bracketleft /backslash /bracketright /asciicircum /underscore /quoteleft /a /b /c
/d /e /f /g /h /i /j /k /l /m
/n /o /p /q /r /s /t /u /v /w
/x /y /z /braceleft /bar /braceright /asciitilde /.notdef /.notdef /.notdef
/.notdef /.notdef /.notdef /.notdef /.notdef /.notdef /.notdef /.notdef /.notdef /.notdef
/.notdef /.notdef /.notdef /.notdef /.notdef /.notdef /.notdef /.notdef /.notdef /.notdef
/.notdef /.notdef /.notdef /.notdef /.notdef /.notdef /.notdef /.notdef /.notdef /.notdef
/space /exclamdown /cent /sterling /currency /yen /brokenbar /section /dieresis /copyright
/ordfeminine /guillemotleft /logicalnot /hyphen /registered /macron /degree /plusminus /twosuperior /threesuperior
/acute /mu /paragraph /periodcentered /cedilla /onesuperior /ordmasculine /guillemotright /onequarter /onehalf
/threequarters /questiondown /Agrave /Aacute /Acircumflex /Atilde /Adieresis /Aring /AE /Ccedilla
/Egrave /Eacute /Ecircumflex /Edieresis /Igrave /Iacute /Icircumflex /Idieresis /Eth /Ntilde
/Ograve /Oacute /Ocircumflex /Otilde /Odieresis /multiply /Oslash /Ugrave /Uacute /Ucircumflex
/Udieresis /Yacute /Thorn /germandbls /agrave /aacute /acircumflex /atilde /adieresis /aring
/ae /ccedilla /egrave /eacute /ecircumflex /edieresis /igrave /iacute /icircumflex /idieresis
/eth /ntilde /ograve /oacute /ocircumflex /otilde /odieresis /divide /oslash /ugrave
/uacute /ucircumflex /udieresis /yacute /thorn /ydieresis] /isolatin1encoding exch def
/cp {closepath} bind def
/c {curveto} bind def
/f {fill} bind def
/a {arc} bind def
/ef {eofill} bind def
/ex {exch} bind def
/gr {grestore} bind def
/gs {gsave} bind def
/sa {save} bind def
/rs {restore} bind def
/l {lineto} bind def
/m {moveto} bind def
/rm {rmoveto} bind def
/n {newpath} bind def
/s {stroke} bind def
/sh {show} bind def
/slc {setlinecap} bind def
/slj {setlinejoin} bind def
/slw {setlinewidth} bind def
/srgb {setrgbcolor} bind def
/rot {rotate} bind def
/sc {scale} bind def
/sd {setdash} bind def
/ff {findfont} bind def
/sf {setfont} bind def
/scf {scalefont} bind def
/sw {stringwidth pop} bind def
/tr {translate} bind def

/ellipsedict 8 dict def
ellipsedict /mtrx matrix put
/ellipse
{ ellipsedict begin
   /endangle exch def
   /startangle exch def
   /yrad exch def
   /xrad exch def
   /y exch def
   /x exch def   /savematrix mtrx currentmatrix def
   x y tr xrad yrad sc
   0 0 1 startangle endangle arc
   savematrix setmatrix
   end
} def

/mergeprocs {
dup length
3 -1 roll
dup
length
dup
5 1 roll
3 -1 roll
add
array cvx
dup
3 -1 roll
0 exch
putinterval
dup
4 2 roll
putinterval
} bind def
/Times-Roman-latin1
    /Times-Roman findfont
    dup length dict begin
	{1 index /FID ne {def} {pop pop} ifelse} forall
	/Encoding isolatin1encoding def
    currentdict end
definefont pop
/Times-Italic-latin1
    /Times-Italic findfont
    dup length dict begin
	{1 index /FID ne {def} {pop pop} ifelse} forall
	/Encoding isolatin1encoding def
    currentdict end
definefont pop
/Times-Bold-latin1
    /Times-Bold findfont
    dup length dict begin
	{1 index /FID ne {def} {pop pop} ifelse} forall
	/Encoding isolatin1encoding def
    currentdict end
definefont pop
/Times-BoldItalic-latin1
    /Times-BoldItalic findfont
    dup length dict begin
	{1 index /FID ne {def} {pop pop} ifelse} forall
	/Encoding isolatin1encoding def
    currentdict end
definefont pop
/AvantGarde-Book-latin1
    /AvantGarde-Book findfont
    dup length dict begin
	{1 index /FID ne {def} {pop pop} ifelse} forall
	/Encoding isolatin1encoding def
    currentdict end
definefont pop
/AvantGarde-BookOblique-latin1
    /AvantGarde-BookOblique findfont
    dup length dict begin
	{1 index /FID ne {def} {pop pop} ifelse} forall
	/Encoding isolatin1encoding def
    currentdict end
definefont pop
/AvantGarde-Demi-latin1
    /AvantGarde-Demi findfont
    dup length dict begin
	{1 index /FID ne {def} {pop pop} ifelse} forall
	/Encoding isolatin1encoding def
    currentdict end
definefont pop
/AvantGarde-DemiOblique-latin1
    /AvantGarde-DemiOblique findfont
    dup length dict begin
	{1 index /FID ne {def} {pop pop} ifelse} forall
	/Encoding isolatin1encoding def
    currentdict end
definefont pop
/Bookman-Light-latin1
    /Bookman-Light findfont
    dup length dict begin
	{1 index /FID ne {def} {pop pop} ifelse} forall
	/Encoding isolatin1encoding def
    currentdict end
definefont pop
/Bookman-LightItalic-latin1
    /Bookman-LightItalic findfont
    dup length dict begin
	{1 index /FID ne {def} {pop pop} ifelse} forall
	/Encoding isolatin1encoding def
    currentdict end
definefont pop
/Bookman-Demi-latin1
    /Bookman-Demi findfont
    dup length dict begin
	{1 index /FID ne {def} {pop pop} ifelse} forall
	/Encoding isolatin1encoding def
    currentdict end
definefont pop
/Bookman-DemiItalic-latin1
    /Bookman-DemiItalic findfont
    dup length dict begin
	{1 index /FID ne {def} {pop pop} ifelse} forall
	/Encoding isolatin1encoding def
    currentdict end
definefont pop
/Courier-latin1
    /Courier findfont
    dup length dict begin
	{1 index /FID ne {def} {pop pop} ifelse} forall
	/Encoding isolatin1encoding def
    currentdict end
definefont pop
/Courier-Oblique-latin1
    /Courier-Oblique findfont
    dup length dict begin
	{1 index /FID ne {def} {pop pop} ifelse} forall
	/Encoding isolatin1encoding def
    currentdict end
definefont pop
/Courier-Bold-latin1
    /Courier-Bold findfont
    dup length dict begin
	{1 index /FID ne {def} {pop pop} ifelse} forall
	/Encoding isolatin1encoding def
    currentdict end
definefont pop
/Courier-BoldOblique-latin1
    /Courier-BoldOblique findfont
    dup length dict begin
	{1 index /FID ne {def} {pop pop} ifelse} forall
	/Encoding isolatin1encoding def
    currentdict end
definefont pop
/Helvetica-latin1
    /Helvetica findfont
    dup length dict begin
	{1 index /FID ne {def} {pop pop} ifelse} forall
	/Encoding isolatin1encoding def
    currentdict end
definefont pop
/Helvetica-Oblique-latin1
    /Helvetica-Oblique findfont
    dup length dict begin
	{1 index /FID ne {def} {pop pop} ifelse} forall
	/Encoding isolatin1encoding def
    currentdict end
definefont pop
/Helvetica-Bold-latin1
    /Helvetica-Bold findfont
    dup length dict begin
	{1 index /FID ne {def} {pop pop} ifelse} forall
	/Encoding isolatin1encoding def
    currentdict end
definefont pop
/Helvetica-BoldOblique-latin1
    /Helvetica-BoldOblique findfont
    dup length dict begin
	{1 index /FID ne {def} {pop pop} ifelse} forall
	/Encoding isolatin1encoding def
    currentdict end
definefont pop
/Helvetica-Narrow-latin1
    /Helvetica-Narrow findfont
    dup length dict begin
	{1 index /FID ne {def} {pop pop} ifelse} forall
	/Encoding isolatin1encoding def
    currentdict end
definefont pop
/Helvetica-Narrow-Oblique-latin1
    /Helvetica-Narrow-Oblique findfont
    dup length dict begin
	{1 index /FID ne {def} {pop pop} ifelse} forall
	/Encoding isolatin1encoding def
    currentdict end
definefont pop
/Helvetica-Narrow-Bold-latin1
    /Helvetica-Narrow-Bold findfont
    dup length dict begin
	{1 index /FID ne {def} {pop pop} ifelse} forall
	/Encoding isolatin1encoding def
    currentdict end
definefont pop
/Helvetica-Narrow-BoldOblique-latin1
    /Helvetica-Narrow-BoldOblique findfont
    dup length dict begin
	{1 index /FID ne {def} {pop pop} ifelse} forall
	/Encoding isolatin1encoding def
    currentdict end
definefont pop
/NewCenturySchoolbook-Roman-latin1
    /NewCenturySchoolbook-Roman findfont
    dup length dict begin
	{1 index /FID ne {def} {pop pop} ifelse} forall
	/Encoding isolatin1encoding def
    currentdict end
definefont pop
/NewCenturySchoolbook-Italic-latin1
    /NewCenturySchoolbook-Italic findfont
    dup length dict begin
	{1 index /FID ne {def} {pop pop} ifelse} forall
	/Encoding isolatin1encoding def
    currentdict end
definefont pop
/NewCenturySchoolbook-Bold-latin1
    /NewCenturySchoolbook-Bold findfont
    dup length dict begin
	{1 index /FID ne {def} {pop pop} ifelse} forall
	/Encoding isolatin1encoding def
    currentdict end
definefont pop
/NewCenturySchoolbook-BoldItalic-latin1
    /NewCenturySchoolbook-BoldItalic findfont
    dup length dict begin
	{1 index /FID ne {def} {pop pop} ifelse} forall
	/Encoding isolatin1encoding def
    currentdict end
definefont pop
/Palatino-Roman-latin1
    /Palatino-Roman findfont
    dup length dict begin
	{1 index /FID ne {def} {pop pop} ifelse} forall
	/Encoding isolatin1encoding def
    currentdict end
definefont pop
/Palatino-Italic-latin1
    /Palatino-Italic findfont
    dup length dict begin
	{1 index /FID ne {def} {pop pop} ifelse} forall
	/Encoding isolatin1encoding def
    currentdict end
definefont pop
/Palatino-Bold-latin1
    /Palatino-Bold findfont
    dup length dict begin
	{1 index /FID ne {def} {pop pop} ifelse} forall
	/Encoding isolatin1encoding def
    currentdict end
definefont pop
/Palatino-BoldItalic-latin1
    /Palatino-BoldItalic findfont
    dup length dict begin
	{1 index /FID ne {def} {pop pop} ifelse} forall
	/Encoding isolatin1encoding def
    currentdict end
definefont pop
/Symbol-latin1
    /Symbol findfont
definefont pop
/ZapfChancery-MediumItalic-latin1
    /ZapfChancery-MediumItalic findfont
    dup length dict begin
	{1 index /FID ne {def} {pop pop} ifelse} forall
	/Encoding isolatin1encoding def
    currentdict end
definefont pop
/ZapfDingbats-latin1
    /ZapfDingbats findfont
    dup length dict begin
	{1 index /FID ne {def} {pop pop} ifelse} forall
	/Encoding isolatin1encoding def
    currentdict end
definefont pop
28.346000 -28.346000 scale
-3.700000 -11.050000 translate
%%EndProlog


0.901961 0.901961 0.980392 srgb
n 4.250000 -2.500000 m 4.250000 11.000000 l 12.750000 11.000000 l 12.750000 -2.500000 l f
n 4.250000 -2.000000 m 4.250000 -2.000000 0.500000 0.500000 180.000000 270.000000 ellipse f
n 12.750000 -2.000000 m 12.750000 -2.000000 0.500000 0.500000 270.000000 360.000000 ellipse f
n 3.750000 -2.000000 m 3.750000 10.500000 l 13.250000 10.500000 l 13.250000 -2.000000 l f
n 4.250000 10.500000 m 4.250000 10.500000 0.500000 0.500000 90.000000 180.000000 ellipse f
n 12.750000 10.500000 m 12.750000 10.500000 0.500000 0.500000 0.000000 90.000000 ellipse f
0.100000 slw
[] 0 sd
[] 0 sd
0 slj
0.000000 0.000000 0.000000 srgb
n 4.250000 -2.500000 m 12.750000 -2.500000 l s
n 4.250000 11.000000 m 12.750000 11.000000 l s
n 4.250000 -2.000000 0.500000 0.500000 180.000000 270.000000 ellipse s
n 12.750000 -2.000000 0.500000 0.500000 270.000000 360.000000 ellipse s
n 3.750000 -2.000000 m 3.750000 10.500000 l s
n 13.250000 -2.000000 m 13.250000 10.500000 l s
n 4.250000 10.500000 0.500000 0.500000 90.000000 180.000000 ellipse s
n 12.750000 10.500000 0.500000 0.500000 0.000000 90.000000 ellipse s
0.901961 0.901961 0.980392 srgb
n 24.250000 -2.500000 m 24.250000 11.000000 l 32.750000 11.000000 l 32.750000 -2.500000 l f
n 24.250000 -2.000000 m 24.250000 -2.000000 0.500000 0.500000 180.000000 270.000000 ellipse f
n 32.750000 -2.000000 m 32.750000 -2.000000 0.500000 0.500000 270.000000 360.000000 ellipse f
n 23.750000 -2.000000 m 23.750000 10.500000 l 33.250000 10.500000 l 33.250000 -2.000000 l f
n 24.250000 10.500000 m 24.250000 10.500000 0.500000 0.500000 90.000000 180.000000 ellipse f
n 32.750000 10.500000 m 32.750000 10.500000 0.500000 0.500000 0.000000 90.000000 ellipse f
0.100000 slw
[] 0 sd
[] 0 sd
0 slj
0.000000 0.000000 0.000000 srgb
n 24.250000 -2.500000 m 32.750000 -2.500000 l s
n 24.250000 11.000000 m 32.750000 11.000000 l s
n 24.250000 -2.000000 0.500000 0.500000 180.000000 270.000000 ellipse s
n 32.750000 -2.000000 0.500000 0.500000 270.000000 360.000000 ellipse s
n 23.750000 -2.000000 m 23.750000 10.500000 l s
n 33.250000 -2.000000 m 33.250000 10.500000 l s
n 24.250000 10.500000 0.500000 0.500000 90.000000 180.000000 ellipse s
n 32.750000 10.500000 0.500000 0.500000 0.000000 90.000000 ellipse s
0.117647 0.564706 1.000000 srgb
n 5.500000 1.500000 m 5.500000 3.500000 l 11.500000 3.500000 l 11.500000 1.500000 l f
n 5.500000 2.000000 m 5.500000 2.000000 0.500000 0.500000 180.000000 270.000000 ellipse f
n 11.500000 2.000000 m 11.500000 2.000000 0.500000 0.500000 270.000000 360.000000 ellipse f
n 5.000000 2.000000 m 5.000000 3.000000 l 12.000000 3.000000 l 12.000000 2.000000 l f
n 5.500000 3.000000 m 5.500000 3.000000 0.500000 0.500000 90.000000 180.000000 ellipse f
n 11.500000 3.000000 m 11.500000 3.000000 0.500000 0.500000 0.000000 90.000000 ellipse f
0.100000 slw
[] 0 sd
[] 0 sd
0 slj
0.000000 0.000000 0.000000 srgb
n 5.500000 1.500000 m 11.500000 1.500000 l s
n 5.500000 3.500000 m 11.500000 3.500000 l s
n 5.500000 2.000000 0.500000 0.500000 180.000000 270.000000 ellipse s
n 11.500000 2.000000 0.500000 0.500000 270.000000 360.000000 ellipse s
n 5.000000 2.000000 m 5.000000 3.000000 l s
n 12.000000 2.000000 m 12.000000 3.000000 l s
n 5.500000 3.000000 0.500000 0.500000 90.000000 180.000000 ellipse s
n 11.500000 3.000000 0.500000 0.500000 0.000000 90.000000 ellipse s
1.000000 1.000000 0.000000 srgb
n 5.500000 5.000000 m 5.500000 7.000000 l 11.500000 7.000000 l 11.500000 5.000000 l f
n 5.500000 5.500000 m 5.500000 5.500000 0.500000 0.500000 180.000000 270.000000 ellipse f
n 11.500000 5.500000 m 11.500000 5.500000 0.500000 0.500000 270.000000 360.000000 ellipse f
n 5.000000 5.500000 m 5.000000 6.500000 l 12.000000 6.500000 l 12.000000 5.500000 l f
n 5.500000 6.500000 m 5.500000 6.500000 0.500000 0.500000 90.000000 180.000000 ellipse f
n 11.500000 6.500000 m 11.500000 6.500000 0.500000 0.500000 0.000000 90.000000 ellipse f
0.100000 slw
[] 0 sd
[] 0 sd
0 slj
0.000000 0.000000 0.000000 srgb
n 5.500000 5.000000 m 11.500000 5.000000 l s
n 5.500000 7.000000 m 11.500000 7.000000 l s
n 5.500000 5.500000 0.500000 0.500000 180.000000 270.000000 ellipse s
n 11.500000 5.500000 0.500000 0.500000 270.000000 360.000000 ellipse s
n 5.000000 5.500000 m 5.000000 6.500000 l s
n 12.000000 5.500000 m 12.000000 6.500000 l s
n 5.500000 6.500000 0.500000 0.500000 90.000000 180.000000 ellipse s
n 11.500000 6.500000 0.500000 0.500000 0.000000 90.000000 ellipse s
0.000000 1.000000 0.000000 srgb
n 5.500000 8.500000 m 5.500000 10.500000 l 11.500000 10.500000 l 11.500000 8.500000 l f
n 5.500000 9.000000 m 5.500000 9.000000 0.500000 0.500000 180.000000 270.000000 ellipse f
n 11.500000 9.000000 m 11.500000 9.000000 0.500000 0.500000 270.000000 360.000000 ellipse f
n 5.000000 9.000000 m 5.000000 10.000000 l 12.000000 10.000000 l 12.000000 9.000000 l f
n 5.500000 10.000000 m 5.500000 10.000000 0.500000 0.500000 90.000000 180.000000 ellipse f
n 11.500000 10.000000 m 11.500000 10.000000 0.500000 0.500000 0.000000 90.000000 ellipse f
0.100000 slw
[] 0 sd
[] 0 sd
0 slj
0.000000 0.000000 0.000000 srgb
n 5.500000 8.500000 m 11.500000 8.500000 l s
n 5.500000 10.500000 m 11.500000 10.500000 l s
n 5.500000 9.000000 0.500000 0.500000 180.000000 270.000000 ellipse s
n 11.500000 9.000000 0.500000 0.500000 270.000000 360.000000 ellipse s
n 5.000000 9.000000 m 5.000000 10.000000 l s
n 12.000000 9.000000 m 12.000000 10.000000 l s
n 5.500000 10.000000 0.500000 0.500000 90.000000 180.000000 ellipse s
n 11.500000 10.000000 0.500000 0.500000 0.000000 90.000000 ellipse s
1.000000 0.647059 0.000000 srgb
n 5.500000 -2.000000 m 5.500000 0.000000 l 11.500000 0.000000 l 11.500000 -2.000000 l f
n 5.500000 -1.500000 m 5.500000 -1.500000 0.500000 0.500000 180.000000 270.000000 ellipse f
n 11.500000 -1.500000 m 11.500000 -1.500000 0.500000 0.500000 270.000000 360.000000 ellipse f
n 5.000000 -1.500000 m 5.000000 -0.500000 l 12.000000 -0.500000 l 12.000000 -1.500000 l f
n 5.500000 -0.500000 m 5.500000 -0.500000 0.500000 0.500000 90.000000 180.000000 ellipse f
n 11.500000 -0.500000 m 11.500000 -0.500000 0.500000 0.500000 0.000000 90.000000 ellipse f
0.100000 slw
[] 0 sd
[] 0 sd
0 slj
0.000000 0.000000 0.000000 srgb
n 5.500000 -2.000000 m 11.500000 -2.000000 l s
n 5.500000 0.000000 m 11.500000 0.000000 l s
n 5.500000 -1.500000 0.500000 0.500000 180.000000 270.000000 ellipse s
n 11.500000 -1.500000 0.500000 0.500000 270.000000 360.000000 ellipse s
n 5.000000 -1.500000 m 5.000000 -0.500000 l s
n 12.000000 -1.500000 m 12.000000 -0.500000 l s
n 5.500000 -0.500000 0.500000 0.500000 90.000000 180.000000 ellipse s
n 11.500000 -0.500000 0.500000 0.500000 0.000000 90.000000 ellipse s
/Helvetica-latin1 ff 0.560000 scf sf
(Anwendung) dup sw 2 div 8.500000 ex sub -0.750000 m gs 1 -1 sc sh gr
/Helvetica-latin1 ff 0.560000 scf sf
( VFS ) dup sw 2 div 8.500000 ex sub 2.750000 m gs 1 -1 sc sh gr
/Helvetica-latin1 ff 0.560000 scf sf
(Dateisystem) dup sw 2 div 8.500000 ex sub 6.250000 m gs 1 -1 sc sh gr
/Helvetica-latin1 ff 0.560000 scf sf
(Blockgerät) dup sw 2 div 8.500000 ex sub 9.750000 m gs 1 -1 sc sh gr
0.100000 slw
[0.200000] 0 sd
[0.200000] 0 sd
0 slc
n 4.500000 0.750000 m 32.500000 0.750000 l s
0.100000 slw
[] 0 sd
[] 0 sd
0 slc
n 8.500000 7.223607 m 8.500000 8.276393 l s
0.100000 slw
[] 0 sd
0 slj
0 slc
n 8.750000 7.611803 m 8.500000 7.111803 l 8.250000 7.611803 l s
0.100000 slw
[] 0 sd
0 slj
0 slc
n 8.250000 7.888197 m 8.500000 8.388197 l 8.750000 7.888197 l s
0.100000 slw
[] 0 sd
[] 0 sd
0 slc
n 8.500000 3.723607 m 8.500000 4.776393 l s
0.100000 slw
[] 0 sd
0 slj
0 slc
n 8.750000 4.111803 m 8.500000 3.611803 l 8.250000 4.111803 l s
0.100000 slw
[] 0 sd
0 slj
0 slc
n 8.250000 4.388197 m 8.500000 4.888197 l 8.750000 4.388197 l s
0.100000 slw
[] 0 sd
[] 0 sd
0 slc
n 8.500000 0.223607 m 8.500000 1.276393 l s
0.100000 slw
[] 0 sd
0 slj
0 slc
n 8.750000 0.611803 m 8.500000 0.111803 l 8.250000 0.611803 l s
0.100000 slw
[] 0 sd
0 slj
0 slc
n 8.250000 0.888197 m 8.500000 1.388197 l 8.750000 0.888197 l s
0.117647 0.564706 1.000000 srgb
n 25.500000 1.500000 m 25.500000 3.500000 l 31.500000 3.500000 l 31.500000 1.500000 l f
n 25.500000 2.000000 m 25.500000 2.000000 0.500000 0.500000 180.000000 270.000000 ellipse f
n 31.500000 2.000000 m 31.500000 2.000000 0.500000 0.500000 270.000000 360.000000 ellipse f
n 25.000000 2.000000 m 25.000000 3.000000 l 32.000000 3.000000 l 32.000000 2.000000 l f
n 25.500000 3.000000 m 25.500000 3.000000 0.500000 0.500000 90.000000 180.000000 ellipse f
n 31.500000 3.000000 m 31.500000 3.000000 0.500000 0.500000 0.000000 90.000000 ellipse f
0.100000 slw
[] 0 sd
[] 0 sd
0 slj
0.000000 0.000000 0.000000 srgb
n 25.500000 1.500000 m 31.500000 1.500000 l s
n 25.500000 3.500000 m 31.500000 3.500000 l s
n 25.500000 2.000000 0.500000 0.500000 180.000000 270.000000 ellipse s
n 31.500000 2.000000 0.500000 0.500000 270.000000 360.000000 ellipse s
n 25.000000 2.000000 m 25.000000 3.000000 l s
n 32.000000 2.000000 m 32.000000 3.000000 l s
n 25.500000 3.000000 0.500000 0.500000 90.000000 180.000000 ellipse s
n 31.500000 3.000000 0.500000 0.500000 0.000000 90.000000 ellipse s
1.000000 1.000000 0.000000 srgb
n 25.500000 5.000000 m 25.500000 7.000000 l 31.500000 7.000000 l 31.500000 5.000000 l f
n 25.500000 5.500000 m 25.500000 5.500000 0.500000 0.500000 180.000000 270.000000 ellipse f
n 31.500000 5.500000 m 31.500000 5.500000 0.500000 0.500000 270.000000 360.000000 ellipse f
n 25.000000 5.500000 m 25.000000 6.500000 l 32.000000 6.500000 l 32.000000 5.500000 l f
n 25.500000 6.500000 m 25.500000 6.500000 0.500000 0.500000 90.000000 180.000000 ellipse f
n 31.500000 6.500000 m 31.500000 6.500000 0.500000 0.500000 0.000000 90.000000 ellipse f
0.100000 slw
[] 0 sd
[] 0 sd
0 slj
0.000000 0.000000 0.000000 srgb
n 25.500000 5.000000 m 31.500000 5.000000 l s
n 25.500000 7.000000 m 31.500000 7.000000 l s
n 25.500000 5.500000 0.500000 0.500000 180.000000 270.000000 ellipse s
n 31.500000 5.500000 0.500000 0.500000 270.000000 360.000000 ellipse s
n 25.000000 5.500000 m 25.000000 6.500000 l s
n 32.000000 5.500000 m 32.000000 6.500000 l s
n 25.500000 6.500000 0.500000 0.500000 90.000000 180.000000 ellipse s
n 31.500000 6.500000 0.500000 0.500000 0.000000 90.000000 ellipse s
0.000000 1.000000 0.000000 srgb
n 25.500000 8.500000 m 25.500000 10.500000 l 31.500000 10.500000 l 31.500000 8.500000 l f
n 25.500000 9.000000 m 25.500000 9.000000 0.500000 0.500000 180.000000 270.000000 ellipse f
n 31.500000 9.000000 m 31.500000 9.000000 0.500000 0.500000 270.000000 360.000000 ellipse f
n 25.000000 9.000000 m 25.000000 10.000000 l 32.000000 10.000000 l 32.000000 9.000000 l f
n 25.500000 10.000000 m 25.500000 10.000000 0.500000 0.500000 90.000000 180.000000 ellipse f
n 31.500000 10.000000 m 31.500000 10.000000 0.500000 0.500000 0.000000 90.000000 ellipse f
0.100000 slw
[] 0 sd
[] 0 sd
0 slj
0.000000 0.000000 0.000000 srgb
n 25.500000 8.500000 m 31.500000 8.500000 l s
n 25.500000 10.500000 m 31.500000 10.500000 l s
n 25.500000 9.000000 0.500000 0.500000 180.000000 270.000000 ellipse s
n 31.500000 9.000000 0.500000 0.500000 270.000000 360.000000 ellipse s
n 25.000000 9.000000 m 25.000000 10.000000 l s
n 32.000000 9.000000 m 32.000000 10.000000 l s
n 25.500000 10.000000 0.500000 0.500000 90.000000 180.000000 ellipse s
n 31.500000 10.000000 0.500000 0.500000 0.000000 90.000000 ellipse s
1.000000 0.647059 0.000000 srgb
n 25.500000 -2.000000 m 25.500000 0.000000 l 31.500000 0.000000 l 31.500000 -2.000000 l f
n 25.500000 -1.500000 m 25.500000 -1.500000 0.500000 0.500000 180.000000 270.000000 ellipse f
n 31.500000 -1.500000 m 31.500000 -1.500000 0.500000 0.500000 270.000000 360.000000 ellipse f
n 25.000000 -1.500000 m 25.000000 -0.500000 l 32.000000 -0.500000 l 32.000000 -1.500000 l f
n 25.500000 -0.500000 m 25.500000 -0.500000 0.500000 0.500000 90.000000 180.000000 ellipse f
n 31.500000 -0.500000 m 31.500000 -0.500000 0.500000 0.500000 0.000000 90.000000 ellipse f
0.100000 slw
[] 0 sd
[] 0 sd
0 slj
0.000000 0.000000 0.000000 srgb
n 25.500000 -2.000000 m 31.500000 -2.000000 l s
n 25.500000 0.000000 m 31.500000 0.000000 l s
n 25.500000 -1.500000 0.500000 0.500000 180.000000 270.000000 ellipse s
n 31.500000 -1.500000 0.500000 0.500000 270.000000 360.000000 ellipse s
n 25.000000 -1.500000 m 25.000000 -0.500000 l s
n 32.000000 -1.500000 m 32.000000 -0.500000 l s
n 25.500000 -0.500000 0.500000 0.500000 90.000000 180.000000 ellipse s
n 31.500000 -0.500000 0.500000 0.500000 0.000000 90.000000 ellipse s
/Helvetica-latin1 ff 0.560000 scf sf
(Anwendung) dup sw 2 div 28.500000 ex sub -0.750000 m gs 1 -1 sc sh gr
/Helvetica-latin1 ff 0.560000 scf sf
( VFS ) dup sw 2 div 28.500000 ex sub 2.750000 m gs 1 -1 sc sh gr
/Helvetica-latin1 ff 0.560000 scf sf
(Dateisystem) dup sw 2 div 28.500000 ex sub 6.250000 m gs 1 -1 sc sh gr
/Helvetica-latin1 ff 0.560000 scf sf
(Blockgerät) dup sw 2 div 28.500000 ex sub 9.750000 m gs 1 -1 sc sh gr
0.100000 slw
[] 0 sd
[] 0 sd
0 slc
n 28.500000 7.223607 m 28.500000 8.276393 l s
0.100000 slw
[] 0 sd
0 slj
0 slc
n 28.750000 7.611803 m 28.500000 7.111803 l 28.250000 7.611803 l s
0.100000 slw
[] 0 sd
0 slj
0 slc
n 28.250000 7.888197 m 28.500000 8.388197 l 28.750000 7.888197 l s
0.100000 slw
[] 0 sd
[] 0 sd
0 slc
n 28.500000 3.723607 m 28.500000 4.776393 l s
0.100000 slw
[] 0 sd
0 slj
0 slc
n 28.750000 4.111803 m 28.500000 3.611803 l 28.250000 4.111803 l s
0.100000 slw
[] 0 sd
0 slj
0 slc
n 28.250000 4.388197 m 28.500000 4.888197 l 28.750000 4.388197 l s
0.100000 slw
[] 0 sd
[] 0 sd
0 slc
n 28.500000 0.223607 m 28.500000 1.276393 l s
0.100000 slw
[] 0 sd
0 slj
0 slc
n 28.750000 0.611803 m 28.500000 0.111803 l 28.250000 0.611803 l s
0.100000 slw
[] 0 sd
0 slj
0 slc
n 28.250000 0.888197 m 28.500000 1.388197 l 28.750000 0.888197 l s
0.100000 slw
[] 0 sd
[] 0 sd
0 slc
n 12.486803 6.000000 m 24.513197 6.000000 l s
[] 0 sd
0 slj
0 slc
n 12.111803 6.000000 m 12.611803 5.750000 l 12.486803 6.000000 l 12.611803 6.250000 l ef
n 12.111803 6.000000 m 12.611803 5.750000 l 12.486803 6.000000 l 12.611803 6.250000 l cp s
[] 0 sd
0 slj
0 slc
n 24.888197 6.000000 m 24.388197 6.250000 l 24.513197 6.000000 l 24.388197 5.750000 l ef
n 24.888197 6.000000 m 24.388197 6.250000 l 24.513197 6.000000 l 24.388197 5.750000 l cp s
0.100000 slw
[] 0 sd
[] 0 sd
0 slc
n 12.486803 9.500000 m 24.513197 9.500000 l s
[] 0 sd
0 slj
0 slc
n 12.111803 9.500000 m 12.611803 9.250000 l 12.486803 9.500000 l 12.611803 9.750000 l ef
n 12.111803 9.500000 m 12.611803 9.250000 l 12.486803 9.500000 l 12.611803 9.750000 l cp s
[] 0 sd
0 slj
0 slc
n 24.888197 9.500000 m 24.388197 9.750000 l 24.513197 9.500000 l 24.388197 9.250000 l ef
n 24.888197 9.500000 m 24.388197 9.750000 l 24.513197 9.500000 l 24.388197 9.250000 l cp s
0.100000 slw
[] 0 sd
[] 0 sd
0 slc
n 12.486803 -1.000000 m 24.513197 -1.000000 l s
[] 0 sd
0 slj
0 slc
n 12.111803 -1.000000 m 12.611803 -1.250000 l 12.486803 -1.000000 l 12.611803 -0.750000 l ef
n 12.111803 -1.000000 m 12.611803 -1.250000 l 12.486803 -1.000000 l 12.611803 -0.750000 l cp s
[] 0 sd
0 slj
0 slc
n 24.888197 -1.000000 m 24.388197 -0.750000 l 24.513197 -1.000000 l 24.388197 -1.250000 l ef
n 24.888197 -1.000000 m 24.388197 -0.750000 l 24.513197 -1.000000 l 24.388197 -1.250000 l cp s
/Helvetica-latin1 ff 0.560000 scf sf
(ftp, scp, http) dup sw 2 div 18.500000 ex sub -1.250000 m gs 1 -1 sc sh gr
/Helvetica-latin1 ff 0.560000 scf sf
(iSCSI, AoE, NBD) dup sw 2 div 18.500000 ex sub 9.250000 m gs 1 -1 sc sh gr
/Helvetica-latin1 ff 0.560000 scf sf
(NFS, SMB) dup sw 2 div 18.500000 ex sub 5.750000 m gs 1 -1 sc sh gr
/Helvetica-latin1 ff 0.560000 scf sf
0.100000 slw
[] 0 sd
[] 0 sd
0 slc
n 12.428616 -0.769207 m 24.571384 5.769207 l s
[] 0 sd
0 slj
0 slc
n 12.098440 -0.946994 m 12.657200 -0.930062 l 12.428616 -0.769207 l 12.420150 -0.489826 l ef
n 12.098440 -0.946994 m 12.657200 -0.930062 l 12.428616 -0.769207 l 12.420150 -0.489826 l cp s
[] 0 sd
0 slj
0 slc
n 24.901560 5.946994 m 24.342800 5.930062 l 24.571384 5.769207 l 24.579850 5.489826 l ef
n 24.901560 5.946994 m 24.342800 5.930062 l 24.571384 5.769207 l 24.579850 5.489826 l cp s
/Helvetica-latin1 ff 0.560000 scf sf
(LUFS) 17.250000 3.600000 m gs 1 -1 sc sh gr
/Helvetica-latin1 ff 0.700000 scf sf
0.000000 0.000000 1.000000 srgb
(Server) dup sw 2 div 8.500000 ex sub -3.250000 m gs 1 -1 sc sh gr
/Helvetica-latin1 ff 0.700000 scf sf
(Client) dup sw 2 div 28.500000 ex sub -3.250000 m gs 1 -1 sc sh gr
/Helvetica-latin1 ff 0.700000 scf sf
(Netzwerk) dup sw 2 div 18.500000 ex sub -3.250000 m gs 1 -1 sc sh gr
showpage
