%!PS-Adobe-2.0 EPSF-2.0
%%Title: /home/dirk/SharedFiles/veranst/inetwork04/pictures/IPv6-Header.dia
%%Creator: Dia v0.92.2
%%CreationDate: Sun Feb 27 20:21:42 2005
%%For: dirk
%%Orientation: Portrait
%%Magnification: 1.0000
%%BoundingBox: 0 0 912 624
%%BeginSetup
%%EndSetup
%%EndComments
%%BeginProlog
[ /.notdef /.notdef /.notdef /.notdef /.notdef /.notdef /.notdef /.notdef /.notdef /.notdef
/.notdef /.notdef /.notdef /.notdef /.notdef /.notdef /.notdef /.notdef /.notdef /.notdef
/.notdef /.notdef /.notdef /.notdef /.notdef /.notdef /.notdef /.notdef /.notdef /.notdef
/.notdef /.notdef /space /exclam /quotedbl /numbersign /dollar /percent /ampersand /quoteright
/parenleft /parenright /asterisk /plus /comma /hyphen /period /slash /zero /one
/two /three /four /five /six /seven /eight /nine /colon /semicolon
/less /equal /greater /question /at /A /B /C /D /E
/F /G /H /I /J /K /L /M /N /O
/P /Q /R /S /T /U /V /W /X /Y
/Z /bracketleft /backslash /bracketright /asciicircum /underscore /quoteleft /a /b /c
/d /e /f /g /h /i /j /k /l /m
/n /o /p /q /r /s /t /u /v /w
/x /y /z /braceleft /bar /braceright /asciitilde /.notdef /.notdef /.notdef
/.notdef /.notdef /.notdef /.notdef /.notdef /.notdef /.notdef /.notdef /.notdef /.notdef
/.notdef /.notdef /.notdef /.notdef /.notdef /.notdef /.notdef /.notdef /.notdef /.notdef
/.notdef /.notdef /.notdef /.notdef /.notdef /.notdef /.notdef /.notdef /.notdef /.notdef
/space /exclamdown /cent /sterling /currency /yen /brokenbar /section /dieresis /copyright
/ordfeminine /guillemotleft /logicalnot /hyphen /registered /macron /degree /plusminus /twosuperior /threesuperior
/acute /mu /paragraph /periodcentered /cedilla /onesuperior /ordmasculine /guillemotright /onequarter /onehalf
/threequarters /questiondown /Agrave /Aacute /Acircumflex /Atilde /Adieresis /Aring /AE /Ccedilla
/Egrave /Eacute /Ecircumflex /Edieresis /Igrave /Iacute /Icircumflex /Idieresis /Eth /Ntilde
/Ograve /Oacute /Ocircumflex /Otilde /Odieresis /multiply /Oslash /Ugrave /Uacute /Ucircumflex
/Udieresis /Yacute /Thorn /germandbls /agrave /aacute /acircumflex /atilde /adieresis /aring
/ae /ccedilla /egrave /eacute /ecircumflex /edieresis /igrave /iacute /icircumflex /idieresis
/eth /ntilde /ograve /oacute /ocircumflex /otilde /odieresis /divide /oslash /ugrave
/uacute /ucircumflex /udieresis /yacute /thorn /ydieresis] /isolatin1encoding exch def
/cp {closepath} bind def
/c {curveto} bind def
/f {fill} bind def
/a {arc} bind def
/ef {eofill} bind def
/ex {exch} bind def
/gr {grestore} bind def
/gs {gsave} bind def
/sa {save} bind def
/rs {restore} bind def
/l {lineto} bind def
/m {moveto} bind def
/rm {rmoveto} bind def
/n {newpath} bind def
/s {stroke} bind def
/sh {show} bind def
/slc {setlinecap} bind def
/slj {setlinejoin} bind def
/slw {setlinewidth} bind def
/srgb {setrgbcolor} bind def
/rot {rotate} bind def
/sc {scale} bind def
/sd {setdash} bind def
/ff {findfont} bind def
/sf {setfont} bind def
/scf {scalefont} bind def
/sw {stringwidth pop} bind def
/tr {translate} bind def

/ellipsedict 8 dict def
ellipsedict /mtrx matrix put
/ellipse
{ ellipsedict begin
   /endangle exch def
   /startangle exch def
   /yrad exch def
   /xrad exch def
   /y exch def
   /x exch def   /savematrix mtrx currentmatrix def
   x y tr xrad yrad sc
   0 0 1 startangle endangle arc
   savematrix setmatrix
   end
} def

/mergeprocs {
dup length
3 -1 roll
dup
length
dup
5 1 roll
3 -1 roll
add
array cvx
dup
3 -1 roll
0 exch
putinterval
dup
4 2 roll
putinterval
} bind def
/dpi_x 300 def
/dpi_y 300 def
/conicto {
    /to_y exch def
    /to_x exch def
    /conic_cntrl_y exch def
    /conic_cntrl_x exch def
    currentpoint
    /p0_y exch def
    /p0_x exch def
    /p1_x p0_x conic_cntrl_x p0_x sub 2 3 div mul add def
    /p1_y p0_y conic_cntrl_y p0_y sub 2 3 div mul add def
    /p2_x p1_x to_x p0_x sub 1 3 div mul add def
    /p2_y p1_y to_y p0_y sub 1 3 div mul add def
    p1_x p1_y p2_x p2_y to_x to_y curveto
} bind def
/start_ol { gsave 1.1 dpi_x div dup scale} bind def
/end_ol { closepath fill grestore } bind def
28.346000 -28.346000 scale
-2.925000 -22.075000 translate
%%EndProlog


0.749020 0.749020 0.749020 srgb
n 19.000000 2.000000 m 19.000000 4.000000 l 35.000000 4.000000 l 35.000000 2.000000 l f
0.100000 slw
[] 0 sd
[] 0 sd
0 slj
0.000000 0.000000 0.000000 srgb
n 19.000000 2.000000 m 19.000000 4.000000 l 35.000000 4.000000 l 35.000000 2.000000 l cp s
1.000000 1.000000 1.000000 srgb
n 3.000000 1.950000 m 3.000000 22.000000 l 35.000000 22.000000 l 35.000000 1.950000 l f
0.150000 slw
[] 0 sd
[] 0 sd
0 slj
0.000000 0.000000 0.000000 srgb
n 3.000000 1.950000 m 3.000000 22.000000 l 35.000000 22.000000 l 35.000000 1.950000 l cp s
0.100000 slw
[] 0 sd
[] 0 sd
0 slc
n 3.000000 4.000000 m 35.000000 4.000000 l s
0.100000 slw
[] 0 sd
[] 0 sd
0 slc
n 3.000000 6.000000 m 35.000000 6.000000 l s
0.100000 slw
[] 0 sd
[] 0 sd
0 slc
n 7.000000 2.000000 m 7.000000 4.000000 l s
0.100000 slw
[] 0 sd
[] 0 sd
0 slc
n 19.000000 4.000000 m 19.000000 6.000000 l s
gsave 16.189067 10.000000 translate 0.035278 -0.035278 scale
start_ol
2268 2704 moveto
2053 2960 1822 3072 1519 3072 curveto
981 3072 576 2717 576 2262 curveto
576 2042 668 1838 843 1718 curveto
997 1603 1182 1541 1541 1478 curveto
1906 1410 2009 1378 2137 1300 curveto
2281 1211 2368 1044 2368 861 curveto
2368 474 1999 192 1509 192 curveto
1030 192 640 431 640 741 curveto
640 824 611 866 549 866 curveto
486 866 448 819 448 730 curveto
448 141 lineto
448 42 485 0 542 0 curveto
607 0 640 59 640 198 curveto
640 292 lineto
850 55 1152 -64 1505 -64 curveto
2120 -64 2560 297 2560 804 curveto
2560 1070 2442 1300 2247 1426 curveto
2088 1525 1944 1567 1548 1635 curveto
1230 1687 1107 1724 968 1812 curveto
845 1901 768 2058 768 2215 curveto
768 2555 1088 2816 1518 2816 curveto
1927 2816 2247 2573 2268 2250 curveto
2278 2167 2306 2130 2369 2130 curveto
2431 2130 2460 2172 2460 2266 curveto
2460 2821 lineto
2460 2898 2431 2944 2369 2944 curveto
2297 2944 2268 2898 2268 2821 curveto
2268 2704 lineto
end_ol grestore 
gsave 16.595467 10.000000 translate 0.035278 -0.035278 scale
start_ol
1536 3072 moveto
821 3072 256 2378 256 1504 curveto
256 630 821 -64 1536 -64 curveto
2240 -64 2816 630 2816 1478 curveto
2816 2389 2261 3072 1536 3072 curveto
1536 2816 moveto
2143 2816 2624 2229 2624 1489 curveto
2624 784 2127 192 1536 192 curveto
940 192 448 784 448 1504 curveto
448 2224 929 2816 1536 2816 curveto
end_ol grestore 
gsave 17.001867 10.000000 translate 0.035278 -0.035278 scale
start_ol
2560 2730 moveto
2735 2730 lineto
2828 2730 2870 2766 2870 2834 curveto
2870 2913 2834 2944 2737 2944 curveto
1969 2944 lineto
1877 2944 1836 2913 1836 2834 curveto
1836 2766 1889 2730 1973 2730 curveto
2368 2730 lineto
2368 1004 lineto
2368 549 1999 192 1536 192 curveto
1067 192 704 549 704 1004 curveto
704 2730 lineto
1094 2730 lineto
1189 2730 1236 2766 1236 2834 curveto
1236 2907 1190 2944 1098 2944 curveto
335 2944 lineto
243 2944 197 2913 197 2834 curveto
197 2766 244 2730 337 2730 curveto
512 2730 lineto
512 1004 lineto
512 406 955 -64 1536 -64 curveto
2107 -64 2560 406 2560 1004 curveto
2560 2730 lineto
end_ol grestore 
gsave 17.408267 10.000000 translate 0.035278 -0.035278 scale
start_ol
832 1280 moveto
1524 1280 lineto
1916 1102 2142 821 2596 0 curveto
2891 0 lineto
2984 0 3030 37 3030 110 curveto
3030 178 2983 214 2890 214 curveto
2735 214 lineto
2315 938 2172 1123 1849 1349 curveto
2320 1519 2560 1773 2560 2117 curveto
2560 2568 2134 2944 1635 2944 curveto
361 2944 lineto
268 2944 217 2907 217 2834 curveto
217 2766 268 2730 361 2730 curveto
640 2730 lineto
640 214 lineto
361 214 lineto
268 214 217 178 217 110 curveto
217 37 268 0 360 0 curveto
1229 0 lineto
1321 0 1367 37 1367 110 curveto
1367 178 1320 214 1225 214 curveto
832 214 lineto
832 1280 lineto
832 1536 moveto
832 2730 lineto
1634 2730 lineto
2012 2730 2368 2450 2368 2138 curveto
2368 1801 1943 1536 1430 1536 curveto
832 1536 lineto
end_ol grestore 
gsave 17.814667 10.000000 translate 0.035278 -0.035278 scale
start_ol
2442 2672 moveto
2202 2933 1895 3072 1557 3072 curveto
1215 3072 908 2934 678 2680 curveto
463 2436 320 2066 320 1742 curveto
320 1303 lineto
320 588 950 -64 1646 -64 curveto
1973 -64 2286 68 2536 328 curveto
2670 460 2731 554 2731 609 curveto
2731 666 2685 707 2633 707 curveto
2592 707 2566 697 2535 655 curveto
2256 326 1993 192 1637 192 curveto
1028 192 512 717 512 1339 curveto
512 1705 lineto
512 2317 976 2816 1549 2816 curveto
2009 2816 2427 2543 2442 2229 curveto
2447 2147 2478 2106 2545 2106 curveto
2617 2106 2653 2157 2653 2245 curveto
2653 2820 lineto
2653 2891 2617 2932 2550 2932 curveto
2478 2932 2442 2891 2442 2820 curveto
2442 2672 lineto
end_ol grestore 
gsave 18.221067 10.000000 translate 0.035278 -0.035278 scale
start_ol
832 1408 moveto
1600 1408 lineto
1600 1179 lineto
1600 1088 1637 1042 1701 1042 curveto
1755 1042 1792 1090 1792 1186 curveto
1792 1887 lineto
1792 1983 1755 2031 1701 2031 curveto
1637 2031 1600 1985 1600 1894 curveto
1600 1664 lineto
832 1664 lineto
832 2730 lineto
2368 2730 lineto
2368 2230 lineto
2368 2143 2401 2092 2462 2092 curveto
2527 2092 2560 2143 2560 2231 curveto
2560 2944 lineto
361 2944 lineto
268 2944 217 2907 217 2834 curveto
217 2766 268 2730 361 2730 curveto
640 2730 lineto
640 214 lineto
361 214 lineto
268 214 217 178 217 110 curveto
217 37 269 0 362 0 curveto
2688 0 lineto
2688 835 lineto
2688 929 2659 976 2597 976 curveto
2525 976 2496 929 2496 835 curveto
2496 214 lineto
832 214 lineto
832 1408 lineto
end_ol grestore 
gsave 18.627467 10.000000 translate 0.035278 -0.035278 scale
start_ol
end_ol grestore 
gsave 19.033867 10.000000 translate 0.035278 -0.035278 scale
start_ol
2228 960 moveto
2518 214 lineto
2124 214 lineto
2031 214 1984 177 1984 110 curveto
1984 37 2031 0 2124 0 curveto
2932 0 lineto
3031 0 3072 37 3072 110 curveto
3072 177 3031 214 2932 214 curveto
2741 214 lineto
1730 2944 lineto
683 2944 lineto
591 2944 550 2907 550 2834 curveto
550 2766 592 2730 687 2730 curveto
1311 2730 lineto
376 214 lineto
212 214 lineto
117 214 64 177 64 110 curveto
64 37 117 0 212 0 curveto
1009 0 lineto
1104 0 1152 37 1152 110 curveto
1152 177 1105 214 1010 214 curveto
592 214 lineto
872 960 lineto
2228 960 lineto
2150 1216 moveto
962 1216 lineto
1511 2730 lineto
1585 2730 lineto
2150 1216 lineto
end_ol grestore 
gsave 19.440267 10.000000 translate 0.035278 -0.035278 scale
start_ol
640 214 moveto
465 214 lineto
372 214 325 178 325 110 curveto
325 37 371 0 462 0 curveto
1577 0 lineto
2238 0 2752 586 2752 1328 curveto
2752 1616 lineto
2752 2358 2238 2944 1577 2944 curveto
462 2944 lineto
371 2944 325 2907 325 2834 curveto
325 2766 372 2730 465 2730 curveto
640 2730 lineto
640 214 lineto
832 214 moveto
832 2730 lineto
1572 2730 lineto
1851 2730 2043 2652 2224 2468 curveto
2436 2254 2560 1940 2560 1663 curveto
2560 1281 lineto
2560 732 2105 214 1613 214 curveto
832 214 lineto
end_ol grestore 
gsave 19.846667 10.000000 translate 0.035278 -0.035278 scale
start_ol
640 214 moveto
465 214 lineto
372 214 325 178 325 110 curveto
325 37 371 0 462 0 curveto
1577 0 lineto
2238 0 2752 586 2752 1328 curveto
2752 1616 lineto
2752 2358 2238 2944 1577 2944 curveto
462 2944 lineto
371 2944 325 2907 325 2834 curveto
325 2766 372 2730 465 2730 curveto
640 2730 lineto
640 214 lineto
832 214 moveto
832 2730 lineto
1572 2730 lineto
1851 2730 2043 2652 2224 2468 curveto
2436 2254 2560 1940 2560 1663 curveto
2560 1281 lineto
2560 732 2105 214 1613 214 curveto
832 214 lineto
end_ol grestore 
gsave 20.253067 10.000000 translate 0.035278 -0.035278 scale
start_ol
832 1280 moveto
1524 1280 lineto
1916 1102 2142 821 2596 0 curveto
2891 0 lineto
2984 0 3030 37 3030 110 curveto
3030 178 2983 214 2890 214 curveto
2735 214 lineto
2315 938 2172 1123 1849 1349 curveto
2320 1519 2560 1773 2560 2117 curveto
2560 2568 2134 2944 1635 2944 curveto
361 2944 lineto
268 2944 217 2907 217 2834 curveto
217 2766 268 2730 361 2730 curveto
640 2730 lineto
640 214 lineto
361 214 lineto
268 214 217 178 217 110 curveto
217 37 268 0 360 0 curveto
1229 0 lineto
1321 0 1367 37 1367 110 curveto
1367 178 1320 214 1225 214 curveto
832 214 lineto
832 1280 lineto
832 1536 moveto
832 2730 lineto
1634 2730 lineto
2012 2730 2368 2450 2368 2138 curveto
2368 1801 1943 1536 1430 1536 curveto
832 1536 lineto
end_ol grestore 
gsave 20.659467 10.000000 translate 0.035278 -0.035278 scale
start_ol
832 1408 moveto
1600 1408 lineto
1600 1179 lineto
1600 1088 1637 1042 1701 1042 curveto
1755 1042 1792 1090 1792 1186 curveto
1792 1887 lineto
1792 1983 1755 2031 1701 2031 curveto
1637 2031 1600 1985 1600 1894 curveto
1600 1664 lineto
832 1664 lineto
832 2730 lineto
2368 2730 lineto
2368 2230 lineto
2368 2143 2401 2092 2462 2092 curveto
2527 2092 2560 2143 2560 2231 curveto
2560 2944 lineto
361 2944 lineto
268 2944 217 2907 217 2834 curveto
217 2766 268 2730 361 2730 curveto
640 2730 lineto
640 214 lineto
361 214 lineto
268 214 217 178 217 110 curveto
217 37 269 0 362 0 curveto
2688 0 lineto
2688 835 lineto
2688 929 2659 976 2597 976 curveto
2525 976 2496 929 2496 835 curveto
2496 214 lineto
832 214 lineto
832 1408 lineto
end_ol grestore 
gsave 21.065867 10.000000 translate 0.035278 -0.035278 scale
start_ol
2268 2704 moveto
2053 2960 1822 3072 1519 3072 curveto
981 3072 576 2717 576 2262 curveto
576 2042 668 1838 843 1718 curveto
997 1603 1182 1541 1541 1478 curveto
1906 1410 2009 1378 2137 1300 curveto
2281 1211 2368 1044 2368 861 curveto
2368 474 1999 192 1509 192 curveto
1030 192 640 431 640 741 curveto
640 824 611 866 549 866 curveto
486 866 448 819 448 730 curveto
448 141 lineto
448 42 485 0 542 0 curveto
607 0 640 59 640 198 curveto
640 292 lineto
850 55 1152 -64 1505 -64 curveto
2120 -64 2560 297 2560 804 curveto
2560 1070 2442 1300 2247 1426 curveto
2088 1525 1944 1567 1548 1635 curveto
1230 1687 1107 1724 968 1812 curveto
845 1901 768 2058 768 2215 curveto
768 2555 1088 2816 1518 2816 curveto
1927 2816 2247 2573 2268 2250 curveto
2278 2167 2306 2130 2369 2130 curveto
2431 2130 2460 2172 2460 2266 curveto
2460 2821 lineto
2460 2898 2431 2944 2369 2944 curveto
2297 2944 2268 2898 2268 2821 curveto
2268 2704 lineto
end_ol grestore 
gsave 21.472267 10.000000 translate 0.035278 -0.035278 scale
start_ol
2268 2704 moveto
2053 2960 1822 3072 1519 3072 curveto
981 3072 576 2717 576 2262 curveto
576 2042 668 1838 843 1718 curveto
997 1603 1182 1541 1541 1478 curveto
1906 1410 2009 1378 2137 1300 curveto
2281 1211 2368 1044 2368 861 curveto
2368 474 1999 192 1509 192 curveto
1030 192 640 431 640 741 curveto
640 824 611 866 549 866 curveto
486 866 448 819 448 730 curveto
448 141 lineto
448 42 485 0 542 0 curveto
607 0 640 59 640 198 curveto
640 292 lineto
850 55 1152 -64 1505 -64 curveto
2120 -64 2560 297 2560 804 curveto
2560 1070 2442 1300 2247 1426 curveto
2088 1525 1944 1567 1548 1635 curveto
1230 1687 1107 1724 968 1812 curveto
845 1901 768 2058 768 2215 curveto
768 2555 1088 2816 1518 2816 curveto
1927 2816 2247 2573 2268 2250 curveto
2278 2167 2306 2130 2369 2130 curveto
2431 2130 2460 2172 2460 2266 curveto
2460 2821 lineto
2460 2898 2431 2944 2369 2944 curveto
2297 2944 2268 2898 2268 2821 curveto
2268 2704 lineto
end_ol grestore 
gsave 15.173067 18.000000 translate 0.035278 -0.035278 scale
start_ol
640 214 moveto
465 214 lineto
372 214 325 178 325 110 curveto
325 37 371 0 462 0 curveto
1577 0 lineto
2238 0 2752 586 2752 1328 curveto
2752 1616 lineto
2752 2358 2238 2944 1577 2944 curveto
462 2944 lineto
371 2944 325 2907 325 2834 curveto
325 2766 372 2730 465 2730 curveto
640 2730 lineto
640 214 lineto
832 214 moveto
832 2730 lineto
1572 2730 lineto
1851 2730 2043 2652 2224 2468 curveto
2436 2254 2560 1940 2560 1663 curveto
2560 1281 lineto
2560 732 2105 214 1613 214 curveto
832 214 lineto
end_ol grestore 
gsave 15.579467 18.000000 translate 0.035278 -0.035278 scale
start_ol
832 1408 moveto
1600 1408 lineto
1600 1179 lineto
1600 1088 1637 1042 1701 1042 curveto
1755 1042 1792 1090 1792 1186 curveto
1792 1887 lineto
1792 1983 1755 2031 1701 2031 curveto
1637 2031 1600 1985 1600 1894 curveto
1600 1664 lineto
832 1664 lineto
832 2730 lineto
2368 2730 lineto
2368 2230 lineto
2368 2143 2401 2092 2462 2092 curveto
2527 2092 2560 2143 2560 2231 curveto
2560 2944 lineto
361 2944 lineto
268 2944 217 2907 217 2834 curveto
217 2766 268 2730 361 2730 curveto
640 2730 lineto
640 214 lineto
361 214 lineto
268 214 217 178 217 110 curveto
217 37 269 0 362 0 curveto
2688 0 lineto
2688 835 lineto
2688 929 2659 976 2597 976 curveto
2525 976 2496 929 2496 835 curveto
2496 214 lineto
832 214 lineto
832 1408 lineto
end_ol grestore 
gsave 15.985867 18.000000 translate 0.035278 -0.035278 scale
start_ol
2268 2704 moveto
2053 2960 1822 3072 1519 3072 curveto
981 3072 576 2717 576 2262 curveto
576 2042 668 1838 843 1718 curveto
997 1603 1182 1541 1541 1478 curveto
1906 1410 2009 1378 2137 1300 curveto
2281 1211 2368 1044 2368 861 curveto
2368 474 1999 192 1509 192 curveto
1030 192 640 431 640 741 curveto
640 824 611 866 549 866 curveto
486 866 448 819 448 730 curveto
448 141 lineto
448 42 485 0 542 0 curveto
607 0 640 59 640 198 curveto
640 292 lineto
850 55 1152 -64 1505 -64 curveto
2120 -64 2560 297 2560 804 curveto
2560 1070 2442 1300 2247 1426 curveto
2088 1525 1944 1567 1548 1635 curveto
1230 1687 1107 1724 968 1812 curveto
845 1901 768 2058 768 2215 curveto
768 2555 1088 2816 1518 2816 curveto
1927 2816 2247 2573 2268 2250 curveto
2278 2167 2306 2130 2369 2130 curveto
2431 2130 2460 2172 2460 2266 curveto
2460 2821 lineto
2460 2898 2431 2944 2369 2944 curveto
2297 2944 2268 2898 2268 2821 curveto
2268 2704 lineto
end_ol grestore 
gsave 16.392267 18.000000 translate 0.035278 -0.035278 scale
start_ol
1664 214 moveto
1664 2730 lineto
2496 2730 lineto
2496 2321 lineto
2496 2232 2538 2170 2594 2170 curveto
2660 2170 2688 2214 2688 2318 curveto
2688 2944 lineto
384 2944 lineto
384 2318 lineto
384 2219 417 2170 478 2170 curveto
543 2170 576 2220 576 2321 curveto
576 2730 lineto
1472 2730 lineto
1472 214 lineto
909 214 lineto
812 214 764 178 764 110 curveto
764 37 810 0 902 0 curveto
2187 0 lineto
2279 0 2325 37 2325 110 curveto
2325 178 2279 214 2188 214 curveto
1664 214 lineto
end_ol grestore 
gsave 16.798667 18.000000 translate 0.035278 -0.035278 scale
start_ol
1664 2730 moveto
2381 2730 lineto
2479 2730 2526 2766 2526 2834 curveto
2526 2907 2480 2944 2383 2944 curveto
753 2944 lineto
666 2944 615 2907 615 2834 curveto
615 2766 667 2730 755 2730 curveto
1472 2730 lineto
1472 214 lineto
755 214 lineto
667 214 615 178 615 110 curveto
615 37 666 0 753 0 curveto
2383 0 lineto
2475 0 2526 37 2526 110 curveto
2526 178 2479 214 2381 214 curveto
1664 214 lineto
1664 2730 lineto
end_ol grestore 
gsave 17.205067 18.000000 translate 0.035278 -0.035278 scale
start_ol
2560 0 moveto
2560 2730 lineto
2735 2730 lineto
2828 2730 2875 2766 2875 2834 curveto
2875 2907 2829 2944 2737 2944 curveto
1974 2944 lineto
1877 2944 1831 2907 1831 2834 curveto
1831 2766 1878 2730 1978 2730 curveto
2368 2730 lineto
2368 308 lineto
762 2944 lineto
230 2944 lineto
144 2944 94 2907 94 2834 curveto
94 2766 145 2730 233 2730 curveto
512 2730 lineto
512 214 lineto
337 214 lineto
244 214 197 178 197 110 curveto
197 37 243 0 335 0 curveto
1098 0 lineto
1185 0 1241 37 1241 110 curveto
1241 178 1194 214 1094 214 curveto
704 214 lineto
704 2636 lineto
2310 0 lineto
2560 0 lineto
end_ol grestore 
gsave 17.611467 18.000000 translate 0.035278 -0.035278 scale
start_ol
2228 960 moveto
2518 214 lineto
2124 214 lineto
2031 214 1984 177 1984 110 curveto
1984 37 2031 0 2124 0 curveto
2932 0 lineto
3031 0 3072 37 3072 110 curveto
3072 177 3031 214 2932 214 curveto
2741 214 lineto
1730 2944 lineto
683 2944 lineto
591 2944 550 2907 550 2834 curveto
550 2766 592 2730 687 2730 curveto
1311 2730 lineto
376 214 lineto
212 214 lineto
117 214 64 177 64 110 curveto
64 37 117 0 212 0 curveto
1009 0 lineto
1104 0 1152 37 1152 110 curveto
1152 177 1105 214 1010 214 curveto
592 214 lineto
872 960 lineto
2228 960 lineto
2150 1216 moveto
962 1216 lineto
1511 2730 lineto
1585 2730 lineto
2150 1216 lineto
end_ol grestore 
gsave 18.017867 18.000000 translate 0.035278 -0.035278 scale
start_ol
1664 214 moveto
1664 2730 lineto
2496 2730 lineto
2496 2321 lineto
2496 2232 2538 2170 2594 2170 curveto
2660 2170 2688 2214 2688 2318 curveto
2688 2944 lineto
384 2944 lineto
384 2318 lineto
384 2219 417 2170 478 2170 curveto
543 2170 576 2220 576 2321 curveto
576 2730 lineto
1472 2730 lineto
1472 214 lineto
909 214 lineto
812 214 764 178 764 110 curveto
764 37 810 0 902 0 curveto
2187 0 lineto
2279 0 2325 37 2325 110 curveto
2325 178 2279 214 2188 214 curveto
1664 214 lineto
end_ol grestore 
gsave 18.424267 18.000000 translate 0.035278 -0.035278 scale
start_ol
1664 2730 moveto
2381 2730 lineto
2479 2730 2526 2766 2526 2834 curveto
2526 2907 2480 2944 2383 2944 curveto
753 2944 lineto
666 2944 615 2907 615 2834 curveto
615 2766 667 2730 755 2730 curveto
1472 2730 lineto
1472 214 lineto
755 214 lineto
667 214 615 178 615 110 curveto
615 37 666 0 753 0 curveto
2383 0 lineto
2475 0 2526 37 2526 110 curveto
2526 178 2479 214 2381 214 curveto
1664 214 lineto
1664 2730 lineto
end_ol grestore 
gsave 18.830667 18.000000 translate 0.035278 -0.035278 scale
start_ol
1536 3072 moveto
821 3072 256 2378 256 1504 curveto
256 630 821 -64 1536 -64 curveto
2240 -64 2816 630 2816 1478 curveto
2816 2389 2261 3072 1536 3072 curveto
1536 2816 moveto
2143 2816 2624 2229 2624 1489 curveto
2624 784 2127 192 1536 192 curveto
940 192 448 784 448 1504 curveto
448 2224 929 2816 1536 2816 curveto
end_ol grestore 
gsave 19.237067 18.000000 translate 0.035278 -0.035278 scale
start_ol
2560 0 moveto
2560 2730 lineto
2735 2730 lineto
2828 2730 2875 2766 2875 2834 curveto
2875 2907 2829 2944 2737 2944 curveto
1974 2944 lineto
1877 2944 1831 2907 1831 2834 curveto
1831 2766 1878 2730 1978 2730 curveto
2368 2730 lineto
2368 308 lineto
762 2944 lineto
230 2944 lineto
144 2944 94 2907 94 2834 curveto
94 2766 145 2730 233 2730 curveto
512 2730 lineto
512 214 lineto
337 214 lineto
244 214 197 178 197 110 curveto
197 37 243 0 335 0 curveto
1098 0 lineto
1185 0 1241 37 1241 110 curveto
1241 178 1194 214 1094 214 curveto
704 214 lineto
704 2636 lineto
2310 0 lineto
2560 0 lineto
end_ol grestore 
gsave 19.643467 18.000000 translate 0.035278 -0.035278 scale
start_ol
end_ol grestore 
gsave 20.049867 18.000000 translate 0.035278 -0.035278 scale
start_ol
2228 960 moveto
2518 214 lineto
2124 214 lineto
2031 214 1984 177 1984 110 curveto
1984 37 2031 0 2124 0 curveto
2932 0 lineto
3031 0 3072 37 3072 110 curveto
3072 177 3031 214 2932 214 curveto
2741 214 lineto
1730 2944 lineto
683 2944 lineto
591 2944 550 2907 550 2834 curveto
550 2766 592 2730 687 2730 curveto
1311 2730 lineto
376 214 lineto
212 214 lineto
117 214 64 177 64 110 curveto
64 37 117 0 212 0 curveto
1009 0 lineto
1104 0 1152 37 1152 110 curveto
1152 177 1105 214 1010 214 curveto
592 214 lineto
872 960 lineto
2228 960 lineto
2150 1216 moveto
962 1216 lineto
1511 2730 lineto
1585 2730 lineto
2150 1216 lineto
end_ol grestore 
gsave 20.456267 18.000000 translate 0.035278 -0.035278 scale
start_ol
640 214 moveto
465 214 lineto
372 214 325 178 325 110 curveto
325 37 371 0 462 0 curveto
1577 0 lineto
2238 0 2752 586 2752 1328 curveto
2752 1616 lineto
2752 2358 2238 2944 1577 2944 curveto
462 2944 lineto
371 2944 325 2907 325 2834 curveto
325 2766 372 2730 465 2730 curveto
640 2730 lineto
640 214 lineto
832 214 moveto
832 2730 lineto
1572 2730 lineto
1851 2730 2043 2652 2224 2468 curveto
2436 2254 2560 1940 2560 1663 curveto
2560 1281 lineto
2560 732 2105 214 1613 214 curveto
832 214 lineto
end_ol grestore 
gsave 20.862667 18.000000 translate 0.035278 -0.035278 scale
start_ol
640 214 moveto
465 214 lineto
372 214 325 178 325 110 curveto
325 37 371 0 462 0 curveto
1577 0 lineto
2238 0 2752 586 2752 1328 curveto
2752 1616 lineto
2752 2358 2238 2944 1577 2944 curveto
462 2944 lineto
371 2944 325 2907 325 2834 curveto
325 2766 372 2730 465 2730 curveto
640 2730 lineto
640 214 lineto
832 214 moveto
832 2730 lineto
1572 2730 lineto
1851 2730 2043 2652 2224 2468 curveto
2436 2254 2560 1940 2560 1663 curveto
2560 1281 lineto
2560 732 2105 214 1613 214 curveto
832 214 lineto
end_ol grestore 
gsave 21.269067 18.000000 translate 0.035278 -0.035278 scale
start_ol
832 1280 moveto
1524 1280 lineto
1916 1102 2142 821 2596 0 curveto
2891 0 lineto
2984 0 3030 37 3030 110 curveto
3030 178 2983 214 2890 214 curveto
2735 214 lineto
2315 938 2172 1123 1849 1349 curveto
2320 1519 2560 1773 2560 2117 curveto
2560 2568 2134 2944 1635 2944 curveto
361 2944 lineto
268 2944 217 2907 217 2834 curveto
217 2766 268 2730 361 2730 curveto
640 2730 lineto
640 214 lineto
361 214 lineto
268 214 217 178 217 110 curveto
217 37 268 0 360 0 curveto
1229 0 lineto
1321 0 1367 37 1367 110 curveto
1367 178 1320 214 1225 214 curveto
832 214 lineto
832 1280 lineto
832 1536 moveto
832 2730 lineto
1634 2730 lineto
2012 2730 2368 2450 2368 2138 curveto
2368 1801 1943 1536 1430 1536 curveto
832 1536 lineto
end_ol grestore 
gsave 21.675467 18.000000 translate 0.035278 -0.035278 scale
start_ol
832 1408 moveto
1600 1408 lineto
1600 1179 lineto
1600 1088 1637 1042 1701 1042 curveto
1755 1042 1792 1090 1792 1186 curveto
1792 1887 lineto
1792 1983 1755 2031 1701 2031 curveto
1637 2031 1600 1985 1600 1894 curveto
1600 1664 lineto
832 1664 lineto
832 2730 lineto
2368 2730 lineto
2368 2230 lineto
2368 2143 2401 2092 2462 2092 curveto
2527 2092 2560 2143 2560 2231 curveto
2560 2944 lineto
361 2944 lineto
268 2944 217 2907 217 2834 curveto
217 2766 268 2730 361 2730 curveto
640 2730 lineto
640 214 lineto
361 214 lineto
268 214 217 178 217 110 curveto
217 37 269 0 362 0 curveto
2688 0 lineto
2688 835 lineto
2688 929 2659 976 2597 976 curveto
2525 976 2496 929 2496 835 curveto
2496 214 lineto
832 214 lineto
832 1408 lineto
end_ol grestore 
gsave 22.081867 18.000000 translate 0.035278 -0.035278 scale
start_ol
2268 2704 moveto
2053 2960 1822 3072 1519 3072 curveto
981 3072 576 2717 576 2262 curveto
576 2042 668 1838 843 1718 curveto
997 1603 1182 1541 1541 1478 curveto
1906 1410 2009 1378 2137 1300 curveto
2281 1211 2368 1044 2368 861 curveto
2368 474 1999 192 1509 192 curveto
1030 192 640 431 640 741 curveto
640 824 611 866 549 866 curveto
486 866 448 819 448 730 curveto
448 141 lineto
448 42 485 0 542 0 curveto
607 0 640 59 640 198 curveto
640 292 lineto
850 55 1152 -64 1505 -64 curveto
2120 -64 2560 297 2560 804 curveto
2560 1070 2442 1300 2247 1426 curveto
2088 1525 1944 1567 1548 1635 curveto
1230 1687 1107 1724 968 1812 curveto
845 1901 768 2058 768 2215 curveto
768 2555 1088 2816 1518 2816 curveto
1927 2816 2247 2573 2268 2250 curveto
2278 2167 2306 2130 2369 2130 curveto
2431 2130 2460 2172 2460 2266 curveto
2460 2821 lineto
2460 2898 2431 2944 2369 2944 curveto
2297 2944 2268 2898 2268 2821 curveto
2268 2704 lineto
end_ol grestore 
gsave 22.488267 18.000000 translate 0.035278 -0.035278 scale
start_ol
2268 2704 moveto
2053 2960 1822 3072 1519 3072 curveto
981 3072 576 2717 576 2262 curveto
576 2042 668 1838 843 1718 curveto
997 1603 1182 1541 1541 1478 curveto
1906 1410 2009 1378 2137 1300 curveto
2281 1211 2368 1044 2368 861 curveto
2368 474 1999 192 1509 192 curveto
1030 192 640 431 640 741 curveto
640 824 611 866 549 866 curveto
486 866 448 819 448 730 curveto
448 141 lineto
448 42 485 0 542 0 curveto
607 0 640 59 640 198 curveto
640 292 lineto
850 55 1152 -64 1505 -64 curveto
2120 -64 2560 297 2560 804 curveto
2560 1070 2442 1300 2247 1426 curveto
2088 1525 1944 1567 1548 1635 curveto
1230 1687 1107 1724 968 1812 curveto
845 1901 768 2058 768 2215 curveto
768 2555 1088 2816 1518 2816 curveto
1927 2816 2247 2573 2268 2250 curveto
2278 2167 2306 2130 2369 2130 curveto
2431 2130 2460 2172 2460 2266 curveto
2460 2821 lineto
2460 2898 2431 2944 2369 2944 curveto
2297 2944 2268 2898 2268 2821 curveto
2268 2704 lineto
end_ol grestore 
gsave 4.280967 3.150010 translate 0.035278 -0.035278 scale
start_ol
1407 0 moveto
1681 0 lineto
2717 2730 lineto
2872 2730 lineto
2968 2730 3008 2767 3008 2834 curveto
3008 2913 2968 2944 2872 2944 curveto
2120 2944 lineto
2019 2944 1984 2907 1984 2834 curveto
1984 2767 2029 2730 2120 2730 curveto
2511 2730 lineto
1561 214 lineto
1546 214 lineto
603 2730 lineto
1009 2730 lineto
1104 2730 1152 2767 1152 2834 curveto
1152 2913 1104 2944 1009 2944 curveto
212 2944 lineto
117 2944 64 2913 64 2834 curveto
64 2767 117 2730 212 2730 curveto
376 2730 lineto
1407 0 lineto
end_ol grestore 
gsave 4.687367 3.150010 translate 0.035278 -0.035278 scale
start_ol
832 1408 moveto
1600 1408 lineto
1600 1179 lineto
1600 1088 1637 1042 1701 1042 curveto
1755 1042 1792 1090 1792 1186 curveto
1792 1887 lineto
1792 1983 1755 2031 1701 2031 curveto
1637 2031 1600 1985 1600 1894 curveto
1600 1664 lineto
832 1664 lineto
832 2730 lineto
2368 2730 lineto
2368 2230 lineto
2368 2143 2401 2092 2462 2092 curveto
2527 2092 2560 2143 2560 2231 curveto
2560 2944 lineto
361 2944 lineto
268 2944 217 2907 217 2834 curveto
217 2766 268 2730 361 2730 curveto
640 2730 lineto
640 214 lineto
361 214 lineto
268 214 217 178 217 110 curveto
217 37 269 0 362 0 curveto
2688 0 lineto
2688 835 lineto
2688 929 2659 976 2597 976 curveto
2525 976 2496 929 2496 835 curveto
2496 214 lineto
832 214 lineto
832 1408 lineto
end_ol grestore 
gsave 5.093767 3.150010 translate 0.035278 -0.035278 scale
start_ol
832 1280 moveto
1524 1280 lineto
1916 1102 2142 821 2596 0 curveto
2891 0 lineto
2984 0 3030 37 3030 110 curveto
3030 178 2983 214 2890 214 curveto
2735 214 lineto
2315 938 2172 1123 1849 1349 curveto
2320 1519 2560 1773 2560 2117 curveto
2560 2568 2134 2944 1635 2944 curveto
361 2944 lineto
268 2944 217 2907 217 2834 curveto
217 2766 268 2730 361 2730 curveto
640 2730 lineto
640 214 lineto
361 214 lineto
268 214 217 178 217 110 curveto
217 37 268 0 360 0 curveto
1229 0 lineto
1321 0 1367 37 1367 110 curveto
1367 178 1320 214 1225 214 curveto
832 214 lineto
832 1280 lineto
832 1536 moveto
832 2730 lineto
1634 2730 lineto
2012 2730 2368 2450 2368 2138 curveto
2368 1801 1943 1536 1430 1536 curveto
832 1536 lineto
end_ol grestore 
gsave 5.500167 3.150010 translate 0.035278 -0.035278 scale
start_ol
2268 2704 moveto
2053 2960 1822 3072 1519 3072 curveto
981 3072 576 2717 576 2262 curveto
576 2042 668 1838 843 1718 curveto
997 1603 1182 1541 1541 1478 curveto
1906 1410 2009 1378 2137 1300 curveto
2281 1211 2368 1044 2368 861 curveto
2368 474 1999 192 1509 192 curveto
1030 192 640 431 640 741 curveto
640 824 611 866 549 866 curveto
486 866 448 819 448 730 curveto
448 141 lineto
448 42 485 0 542 0 curveto
607 0 640 59 640 198 curveto
640 292 lineto
850 55 1152 -64 1505 -64 curveto
2120 -64 2560 297 2560 804 curveto
2560 1070 2442 1300 2247 1426 curveto
2088 1525 1944 1567 1548 1635 curveto
1230 1687 1107 1724 968 1812 curveto
845 1901 768 2058 768 2215 curveto
768 2555 1088 2816 1518 2816 curveto
1927 2816 2247 2573 2268 2250 curveto
2278 2167 2306 2130 2369 2130 curveto
2431 2130 2460 2172 2460 2266 curveto
2460 2821 lineto
2460 2898 2431 2944 2369 2944 curveto
2297 2944 2268 2898 2268 2821 curveto
2268 2704 lineto
end_ol grestore 
gsave 5.906567 3.150010 translate 0.035278 -0.035278 scale
start_ol
1522 625 moveto
1321 625 1166 479 1166 280 curveto
1166 92 1321 -64 1522 -64 curveto
1574 -64 lineto
1770 -64 1930 82 1930 280 curveto
1930 479 1770 625 1574 625 curveto
1522 625 lineto
end_ol grestore 
gsave 8.567267 3.200010 translate 0.035278 -0.035278 scale
start_ol
1664 214 moveto
1664 2730 lineto
2496 2730 lineto
2496 2321 lineto
2496 2232 2538 2170 2594 2170 curveto
2660 2170 2688 2214 2688 2318 curveto
2688 2944 lineto
384 2944 lineto
384 2318 lineto
384 2219 417 2170 478 2170 curveto
543 2170 576 2220 576 2321 curveto
576 2730 lineto
1472 2730 lineto
1472 214 lineto
909 214 lineto
812 214 764 178 764 110 curveto
764 37 810 0 902 0 curveto
2187 0 lineto
2279 0 2325 37 2325 110 curveto
2325 178 2279 214 2188 214 curveto
1664 214 lineto
end_ol grestore 
gsave 8.973667 3.200010 translate 0.035278 -0.035278 scale
start_ol
832 1280 moveto
1524 1280 lineto
1916 1102 2142 821 2596 0 curveto
2891 0 lineto
2984 0 3030 37 3030 110 curveto
3030 178 2983 214 2890 214 curveto
2735 214 lineto
2315 938 2172 1123 1849 1349 curveto
2320 1519 2560 1773 2560 2117 curveto
2560 2568 2134 2944 1635 2944 curveto
361 2944 lineto
268 2944 217 2907 217 2834 curveto
217 2766 268 2730 361 2730 curveto
640 2730 lineto
640 214 lineto
361 214 lineto
268 214 217 178 217 110 curveto
217 37 268 0 360 0 curveto
1229 0 lineto
1321 0 1367 37 1367 110 curveto
1367 178 1320 214 1225 214 curveto
832 214 lineto
832 1280 lineto
832 1536 moveto
832 2730 lineto
1634 2730 lineto
2012 2730 2368 2450 2368 2138 curveto
2368 1801 1943 1536 1430 1536 curveto
832 1536 lineto
end_ol grestore 
gsave 9.380067 3.200010 translate 0.035278 -0.035278 scale
start_ol
2228 960 moveto
2518 214 lineto
2124 214 lineto
2031 214 1984 177 1984 110 curveto
1984 37 2031 0 2124 0 curveto
2932 0 lineto
3031 0 3072 37 3072 110 curveto
3072 177 3031 214 2932 214 curveto
2741 214 lineto
1730 2944 lineto
683 2944 lineto
591 2944 550 2907 550 2834 curveto
550 2766 592 2730 687 2730 curveto
1311 2730 lineto
376 214 lineto
212 214 lineto
117 214 64 177 64 110 curveto
64 37 117 0 212 0 curveto
1009 0 lineto
1104 0 1152 37 1152 110 curveto
1152 177 1105 214 1010 214 curveto
592 214 lineto
872 960 lineto
2228 960 lineto
2150 1216 moveto
962 1216 lineto
1511 2730 lineto
1585 2730 lineto
2150 1216 lineto
end_ol grestore 
gsave 9.786467 3.200010 translate 0.035278 -0.035278 scale
start_ol
832 1408 moveto
1600 1408 lineto
1600 1175 lineto
1600 1082 1637 1036 1696 1036 curveto
1755 1036 1792 1084 1792 1181 curveto
1792 1886 lineto
1792 1983 1755 2031 1696 2031 curveto
1637 2031 1600 1985 1600 1894 curveto
1600 1664 lineto
832 1664 lineto
832 2730 lineto
2496 2730 lineto
2496 2230 lineto
2496 2143 2525 2092 2592 2092 curveto
2659 2092 2688 2143 2688 2231 curveto
2688 2944 lineto
362 2944 lineto
269 2944 217 2907 217 2834 curveto
217 2766 268 2730 361 2730 curveto
640 2730 lineto
640 214 lineto
361 214 lineto
268 214 217 178 217 110 curveto
217 37 268 0 361 0 curveto
1557 0 lineto
1655 0 1701 37 1701 110 curveto
1701 178 1658 214 1568 214 curveto
832 214 lineto
832 1408 lineto
end_ol grestore 
gsave 10.192867 3.200010 translate 0.035278 -0.035278 scale
start_ol
832 1408 moveto
1600 1408 lineto
1600 1175 lineto
1600 1082 1637 1036 1696 1036 curveto
1755 1036 1792 1084 1792 1181 curveto
1792 1886 lineto
1792 1983 1755 2031 1696 2031 curveto
1637 2031 1600 1985 1600 1894 curveto
1600 1664 lineto
832 1664 lineto
832 2730 lineto
2496 2730 lineto
2496 2230 lineto
2496 2143 2525 2092 2592 2092 curveto
2659 2092 2688 2143 2688 2231 curveto
2688 2944 lineto
362 2944 lineto
269 2944 217 2907 217 2834 curveto
217 2766 268 2730 361 2730 curveto
640 2730 lineto
640 214 lineto
361 214 lineto
268 214 217 178 217 110 curveto
217 37 268 0 361 0 curveto
1557 0 lineto
1655 0 1701 37 1701 110 curveto
1701 178 1658 214 1568 214 curveto
832 214 lineto
832 1408 lineto
end_ol grestore 
gsave 10.599267 3.200010 translate 0.035278 -0.035278 scale
start_ol
1664 2730 moveto
2381 2730 lineto
2479 2730 2526 2766 2526 2834 curveto
2526 2907 2480 2944 2383 2944 curveto
753 2944 lineto
666 2944 615 2907 615 2834 curveto
615 2766 667 2730 755 2730 curveto
1472 2730 lineto
1472 214 lineto
755 214 lineto
667 214 615 178 615 110 curveto
615 37 666 0 753 0 curveto
2383 0 lineto
2475 0 2526 37 2526 110 curveto
2526 178 2479 214 2381 214 curveto
1664 214 lineto
1664 2730 lineto
end_ol grestore 
gsave 11.005667 3.200010 translate 0.035278 -0.035278 scale
start_ol
2442 2672 moveto
2202 2933 1895 3072 1557 3072 curveto
1215 3072 908 2934 678 2680 curveto
463 2436 320 2066 320 1742 curveto
320 1303 lineto
320 588 950 -64 1646 -64 curveto
1973 -64 2286 68 2536 328 curveto
2670 460 2731 554 2731 609 curveto
2731 666 2685 707 2633 707 curveto
2592 707 2566 697 2535 655 curveto
2256 326 1993 192 1637 192 curveto
1028 192 512 717 512 1339 curveto
512 1705 lineto
512 2317 976 2816 1549 2816 curveto
2009 2816 2427 2543 2442 2229 curveto
2447 2147 2478 2106 2545 2106 curveto
2617 2106 2653 2157 2653 2245 curveto
2653 2820 lineto
2653 2891 2617 2932 2550 2932 curveto
2478 2932 2442 2891 2442 2820 curveto
2442 2672 lineto
end_ol grestore 
gsave 11.412067 3.200010 translate 0.035278 -0.035278 scale
start_ol
end_ol grestore 
gsave 11.818467 3.200010 translate 0.035278 -0.035278 scale
start_ol
2442 2672 moveto
2202 2933 1895 3072 1557 3072 curveto
1215 3072 908 2934 678 2680 curveto
463 2436 320 2066 320 1742 curveto
320 1303 lineto
320 588 950 -64 1646 -64 curveto
1973 -64 2286 68 2536 328 curveto
2670 460 2731 554 2731 609 curveto
2731 666 2685 707 2633 707 curveto
2592 707 2566 697 2535 655 curveto
2256 326 1993 192 1637 192 curveto
1028 192 512 717 512 1339 curveto
512 1705 lineto
512 2317 976 2816 1549 2816 curveto
2009 2816 2427 2543 2442 2229 curveto
2447 2147 2478 2106 2545 2106 curveto
2617 2106 2653 2157 2653 2245 curveto
2653 2820 lineto
2653 2891 2617 2932 2550 2932 curveto
2478 2932 2442 2891 2442 2820 curveto
2442 2672 lineto
end_ol grestore 
gsave 12.224867 3.200010 translate 0.035278 -0.035278 scale
start_ol
1024 2730 moveto
1423 2730 lineto
1519 2730 1561 2766 1561 2834 curveto
1561 2907 1520 2944 1428 2944 curveto
439 2944 lineto
347 2944 301 2907 301 2834 curveto
301 2766 347 2730 440 2730 curveto
832 2730 lineto
832 214 lineto
440 214 lineto
347 214 301 178 301 110 curveto
301 37 348 0 441 0 curveto
2688 0 lineto
2688 1051 lineto
2688 1140 2659 1192 2597 1192 curveto
2530 1192 2496 1140 2496 1051 curveto
2496 214 lineto
1024 214 lineto
1024 2730 lineto
end_ol grestore 
gsave 12.631267 3.200010 translate 0.035278 -0.035278 scale
start_ol
2228 960 moveto
2518 214 lineto
2124 214 lineto
2031 214 1984 177 1984 110 curveto
1984 37 2031 0 2124 0 curveto
2932 0 lineto
3031 0 3072 37 3072 110 curveto
3072 177 3031 214 2932 214 curveto
2741 214 lineto
1730 2944 lineto
683 2944 lineto
591 2944 550 2907 550 2834 curveto
550 2766 592 2730 687 2730 curveto
1311 2730 lineto
376 214 lineto
212 214 lineto
117 214 64 177 64 110 curveto
64 37 117 0 212 0 curveto
1009 0 lineto
1104 0 1152 37 1152 110 curveto
1152 177 1105 214 1010 214 curveto
592 214 lineto
872 960 lineto
2228 960 lineto
2150 1216 moveto
962 1216 lineto
1511 2730 lineto
1585 2730 lineto
2150 1216 lineto
end_ol grestore 
gsave 13.037667 3.200010 translate 0.035278 -0.035278 scale
start_ol
2268 2704 moveto
2053 2960 1822 3072 1519 3072 curveto
981 3072 576 2717 576 2262 curveto
576 2042 668 1838 843 1718 curveto
997 1603 1182 1541 1541 1478 curveto
1906 1410 2009 1378 2137 1300 curveto
2281 1211 2368 1044 2368 861 curveto
2368 474 1999 192 1509 192 curveto
1030 192 640 431 640 741 curveto
640 824 611 866 549 866 curveto
486 866 448 819 448 730 curveto
448 141 lineto
448 42 485 0 542 0 curveto
607 0 640 59 640 198 curveto
640 292 lineto
850 55 1152 -64 1505 -64 curveto
2120 -64 2560 297 2560 804 curveto
2560 1070 2442 1300 2247 1426 curveto
2088 1525 1944 1567 1548 1635 curveto
1230 1687 1107 1724 968 1812 curveto
845 1901 768 2058 768 2215 curveto
768 2555 1088 2816 1518 2816 curveto
1927 2816 2247 2573 2268 2250 curveto
2278 2167 2306 2130 2369 2130 curveto
2431 2130 2460 2172 2460 2266 curveto
2460 2821 lineto
2460 2898 2431 2944 2369 2944 curveto
2297 2944 2268 2898 2268 2821 curveto
2268 2704 lineto
end_ol grestore 
gsave 13.444067 3.200010 translate 0.035278 -0.035278 scale
start_ol
2268 2704 moveto
2053 2960 1822 3072 1519 3072 curveto
981 3072 576 2717 576 2262 curveto
576 2042 668 1838 843 1718 curveto
997 1603 1182 1541 1541 1478 curveto
1906 1410 2009 1378 2137 1300 curveto
2281 1211 2368 1044 2368 861 curveto
2368 474 1999 192 1509 192 curveto
1030 192 640 431 640 741 curveto
640 824 611 866 549 866 curveto
486 866 448 819 448 730 curveto
448 141 lineto
448 42 485 0 542 0 curveto
607 0 640 59 640 198 curveto
640 292 lineto
850 55 1152 -64 1505 -64 curveto
2120 -64 2560 297 2560 804 curveto
2560 1070 2442 1300 2247 1426 curveto
2088 1525 1944 1567 1548 1635 curveto
1230 1687 1107 1724 968 1812 curveto
845 1901 768 2058 768 2215 curveto
768 2555 1088 2816 1518 2816 curveto
1927 2816 2247 2573 2268 2250 curveto
2278 2167 2306 2130 2369 2130 curveto
2431 2130 2460 2172 2460 2266 curveto
2460 2821 lineto
2460 2898 2431 2944 2369 2944 curveto
2297 2944 2268 2898 2268 2821 curveto
2268 2704 lineto
end_ol grestore 
0.100000 slw
[] 0 sd
[] 0 sd
0 slc
n 3.000000 14.000000 m 35.000000 14.000000 l s
0.050000 slw
[] 0 sd
[] 0 sd
0 slc
n 3.000000 0.400011 m 3.000000 1.950000 l s
0.050000 slw
[] 0 sd
[] 0 sd
0 slc
n 35.000000 0.400011 m 35.000000 1.950000 l s
0.050000 slw
[] 0 sd
[] 0 sd
0 slc
n 3.625000 1.175005 m 34.375000 1.175005 l s
0 slj
n 3.625000 0.875005 m 3.025000 1.175005 l 3.625000 1.475005 l ef
0 slj
n 34.375000 1.475005 m 34.975000 1.175005 l 34.375000 0.875005 l ef
gsave 17.806200 0.700011 translate 0.035278 -0.035278 scale
start_ol
1856 1700 moveto
1861 1706 1877 1712 1882 1712 curveto
2180 1849 2368 2119 2368 2420 curveto
2368 2879 1980 3233 1470 3233 curveto
1204 3233 949 3150 745 2993 curveto
642 2910 571 2816 571 2764 curveto
571 2712 617 2660 674 2660 curveto
716 2660 731 2676 777 2738 curveto
932 2915 1185 3014 1474 3014 curveto
1872 3014 2176 2764 2176 2430 curveto
2176 2205 2032 2002 1815 1908 curveto
1707 1856 1624 1856 1371 1856 curveto
1284 1856 1227 1812 1227 1731 curveto
1227 1644 1273 1600 1371 1600 curveto
1869 1600 2304 1276 2304 889 curveto
2304 516 1909 192 1431 192 curveto
1145 192 854 290 609 467 curveto
573 491 552 506 521 506 curveto
469 506 422 457 422 408 curveto
422 335 484 256 659 161 curveto
921 9 1168 -64 1420 -64 curveto
2012 -64 2496 358 2496 872 curveto
2496 1222 2255 1535 1856 1700 curveto
end_ol grestore 
gsave 18.212600 0.700011 translate 0.035278 -0.035278 scale
start_ol
704 214 moveto
704 230 lineto
995 480 1317 783 1766 1237 curveto
2394 1868 2496 2020 2496 2333 curveto
2496 2797 2057 3225 1561 3225 curveto
1245 3225 958 3079 769 2829 curveto
672 2703 606 2547 606 2453 curveto
606 2406 652 2353 704 2353 curveto
761 2353 792 2390 812 2463 curveto
890 2776 1220 3006 1571 3006 curveto
1958 3006 2304 2693 2304 2333 curveto
2304 2098 2206 1952 1721 1472 curveto
503 308 lineto
503 0 lineto
2496 0 lineto
2496 397 lineto
2496 496 2467 543 2405 543 curveto
2333 543 2304 496 2304 397 curveto
2304 214 lineto
704 214 lineto
end_ol grestore 
gsave 18.619000 0.700011 translate 0.035278 -0.035278 scale
start_ol
end_ol grestore 
gsave 19.025400 0.700011 translate 0.035278 -0.035278 scale
start_ol
832 3136 moveto
357 3136 lineto
267 3136 222 3101 222 3036 curveto
222 2967 268 2932 361 2932 curveto
640 2932 lineto
640 214 lineto
361 214 lineto
268 214 222 195 222 161 curveto
222 54 267 0 357 0 curveto
832 0 lineto
832 466 lineto
1074 108 1384 -64 1755 -64 curveto
2380 -64 2880 471 2880 1133 curveto
2880 1790 2390 2304 1755 2304 curveto
1374 2304 1090 2123 832 1722 curveto
832 3136 lineto
1763 2048 moveto
2285 2048 2688 1636 2688 1107 curveto
2688 609 2270 192 1763 192 curveto
1245 192 832 609 832 1123 curveto
832 1636 1245 2048 1763 2048 curveto
end_ol grestore 
gsave 19.431800 0.700011 translate 0.035278 -0.035278 scale
start_ol
1664 2176 moveto
860 2176 lineto
770 2176 719 2140 719 2072 curveto
719 1999 770 1962 863 1962 curveto
1472 1962 lineto
1472 214 lineto
646 214 lineto
553 214 507 178 507 110 curveto
507 37 553 0 645 0 curveto
2496 0 lineto
2583 0 2634 37 2634 110 curveto
2634 178 2588 214 2495 214 curveto
1664 214 lineto
1664 2176 lineto
1445 3264 moveto
1387 3264 1353 3222 1353 3128 curveto
1353 2829 lineto
1353 2730 1387 2688 1445 2688 curveto
1567 2688 lineto
1630 2688 1664 2730 1664 2829 curveto
1664 3128 lineto
1664 3222 1630 3264 1567 3264 curveto
1445 3264 lineto
end_ol grestore 
gsave 19.838200 0.700011 translate 0.035278 -0.035278 scale
start_ol
1024 2176 moveto
1024 2792 lineto
1024 2891 997 2932 928 2932 curveto
859 2932 832 2880 832 2792 curveto
832 2176 lineto
450 2176 lineto
352 2176 306 2140 306 2072 curveto
306 1999 352 1962 450 1962 curveto
832 1962 lineto
832 606 lineto
832 197 1143 -64 1616 -64 curveto
2049 -64 2629 155 2629 323 curveto
2629 373 2588 429 2536 429 curveto
2510 429 2495 419 2459 399 curveto
2247 278 1886 192 1597 192 curveto
1241 192 1024 358 1024 616 curveto
1024 1962 lineto
2154 1962 lineto
2247 1962 2293 1999 2293 2072 curveto
2293 2140 2247 2176 2154 2176 curveto
1024 2176 lineto
end_ol grestore 
0.100000 slw
[] 0 sd
[] 0 sd
0 slc
n 15.000000 2.000000 m 15.000000 4.000000 l s
gsave 22.968400 3.150010 translate 0.035278 -0.035278 scale
start_ol
832 1408 moveto
1600 1408 lineto
1600 1175 lineto
1600 1082 1637 1036 1696 1036 curveto
1755 1036 1792 1084 1792 1181 curveto
1792 1886 lineto
1792 1983 1755 2031 1696 2031 curveto
1637 2031 1600 1985 1600 1894 curveto
1600 1664 lineto
832 1664 lineto
832 2730 lineto
2496 2730 lineto
2496 2230 lineto
2496 2143 2525 2092 2592 2092 curveto
2659 2092 2688 2143 2688 2231 curveto
2688 2944 lineto
362 2944 lineto
269 2944 217 2907 217 2834 curveto
217 2766 268 2730 361 2730 curveto
640 2730 lineto
640 214 lineto
361 214 lineto
268 214 217 178 217 110 curveto
217 37 268 0 361 0 curveto
1557 0 lineto
1655 0 1701 37 1701 110 curveto
1701 178 1658 214 1568 214 curveto
832 214 lineto
832 1408 lineto
end_ol grestore 
gsave 23.374800 3.150010 translate 0.035278 -0.035278 scale
start_ol
1024 2730 moveto
1423 2730 lineto
1519 2730 1561 2766 1561 2834 curveto
1561 2907 1520 2944 1428 2944 curveto
439 2944 lineto
347 2944 301 2907 301 2834 curveto
301 2766 347 2730 440 2730 curveto
832 2730 lineto
832 214 lineto
440 214 lineto
347 214 301 178 301 110 curveto
301 37 348 0 441 0 curveto
2688 0 lineto
2688 1051 lineto
2688 1140 2659 1192 2597 1192 curveto
2530 1192 2496 1140 2496 1051 curveto
2496 214 lineto
1024 214 lineto
1024 2730 lineto
end_ol grestore 
gsave 23.781200 3.150010 translate 0.035278 -0.035278 scale
start_ol
1536 3072 moveto
821 3072 256 2378 256 1504 curveto
256 630 821 -64 1536 -64 curveto
2240 -64 2816 630 2816 1478 curveto
2816 2389 2261 3072 1536 3072 curveto
1536 2816 moveto
2143 2816 2624 2229 2624 1489 curveto
2624 784 2127 192 1536 192 curveto
940 192 448 784 448 1504 curveto
448 2224 929 2816 1536 2816 curveto
end_ol grestore 
gsave 24.187600 3.150010 translate 0.035278 -0.035278 scale
start_ol
620 0 moveto
934 0 lineto
1536 2095 lineto
2113 0 lineto
2447 0 lineto
2766 2730 lineto
2869 2730 lineto
2962 2730 3008 2767 3008 2834 curveto
3008 2907 2962 2944 2869 2944 curveto
2123 2944 lineto
2025 2944 1984 2907 1984 2834 curveto
1984 2767 2025 2730 2123 2730 curveto
2565 2730 lineto
2272 241 lineto
1708 2294 lineto
1385 2294 lineto
805 241 lineto
517 2730 lineto
944 2730 lineto
1042 2730 1088 2767 1088 2834 curveto
1088 2907 1042 2944 944 2944 curveto
203 2944 lineto
110 2944 64 2907 64 2834 curveto
64 2767 110 2730 203 2730 curveto
306 2730 lineto
620 0 lineto
end_ol grestore 
gsave 24.594000 3.150010 translate 0.035278 -0.035278 scale
start_ol
end_ol grestore 
gsave 25.000400 3.150010 translate 0.035278 -0.035278 scale
start_ol
1024 2730 moveto
1423 2730 lineto
1519 2730 1561 2766 1561 2834 curveto
1561 2907 1520 2944 1428 2944 curveto
439 2944 lineto
347 2944 301 2907 301 2834 curveto
301 2766 347 2730 440 2730 curveto
832 2730 lineto
832 214 lineto
440 214 lineto
347 214 301 178 301 110 curveto
301 37 348 0 441 0 curveto
2688 0 lineto
2688 1051 lineto
2688 1140 2659 1192 2597 1192 curveto
2530 1192 2496 1140 2496 1051 curveto
2496 214 lineto
1024 214 lineto
1024 2730 lineto
end_ol grestore 
gsave 25.406800 3.150010 translate 0.035278 -0.035278 scale
start_ol
2228 960 moveto
2518 214 lineto
2124 214 lineto
2031 214 1984 177 1984 110 curveto
1984 37 2031 0 2124 0 curveto
2932 0 lineto
3031 0 3072 37 3072 110 curveto
3072 177 3031 214 2932 214 curveto
2741 214 lineto
1730 2944 lineto
683 2944 lineto
591 2944 550 2907 550 2834 curveto
550 2766 592 2730 687 2730 curveto
1311 2730 lineto
376 214 lineto
212 214 lineto
117 214 64 177 64 110 curveto
64 37 117 0 212 0 curveto
1009 0 lineto
1104 0 1152 37 1152 110 curveto
1152 177 1105 214 1010 214 curveto
592 214 lineto
872 960 lineto
2228 960 lineto
2150 1216 moveto
962 1216 lineto
1511 2730 lineto
1585 2730 lineto
2150 1216 lineto
end_ol grestore 
gsave 25.813200 3.150010 translate 0.035278 -0.035278 scale
start_ol
640 214 moveto
361 214 lineto
268 214 217 178 217 110 curveto
217 37 268 0 359 0 curveto
1914 0 lineto
2376 0 2752 364 2752 807 curveto
2752 1160 2544 1413 2137 1577 curveto
2431 1738 2560 1929 2560 2188 curveto
2560 2618 2181 2944 1683 2944 curveto
361 2944 lineto
268 2944 217 2907 217 2834 curveto
217 2766 268 2730 361 2730 curveto
640 2730 lineto
640 214 lineto
832 1664 moveto
832 2730 lineto
1692 2730 lineto
2074 2730 2368 2500 2368 2205 curveto
2368 1888 2048 1664 1603 1664 curveto
832 1664 lineto
832 214 moveto
832 1408 lineto
1601 1408 lineto
1915 1408 2091 1372 2256 1274 curveto
2447 1165 2560 979 2560 793 curveto
2560 472 2271 214 1905 214 curveto
832 214 lineto
end_ol grestore 
gsave 26.219600 3.150010 translate 0.035278 -0.035278 scale
start_ol
832 1408 moveto
1600 1408 lineto
1600 1179 lineto
1600 1088 1637 1042 1701 1042 curveto
1755 1042 1792 1090 1792 1186 curveto
1792 1887 lineto
1792 1983 1755 2031 1701 2031 curveto
1637 2031 1600 1985 1600 1894 curveto
1600 1664 lineto
832 1664 lineto
832 2730 lineto
2368 2730 lineto
2368 2230 lineto
2368 2143 2401 2092 2462 2092 curveto
2527 2092 2560 2143 2560 2231 curveto
2560 2944 lineto
361 2944 lineto
268 2944 217 2907 217 2834 curveto
217 2766 268 2730 361 2730 curveto
640 2730 lineto
640 214 lineto
361 214 lineto
268 214 217 178 217 110 curveto
217 37 269 0 362 0 curveto
2688 0 lineto
2688 835 lineto
2688 929 2659 976 2597 976 curveto
2525 976 2496 929 2496 835 curveto
2496 214 lineto
832 214 lineto
832 1408 lineto
end_ol grestore 
gsave 26.626000 3.150010 translate 0.035278 -0.035278 scale
start_ol
1024 2730 moveto
1423 2730 lineto
1519 2730 1561 2766 1561 2834 curveto
1561 2907 1520 2944 1428 2944 curveto
439 2944 lineto
347 2944 301 2907 301 2834 curveto
301 2766 347 2730 440 2730 curveto
832 2730 lineto
832 214 lineto
440 214 lineto
347 214 301 178 301 110 curveto
301 37 348 0 441 0 curveto
2688 0 lineto
2688 1051 lineto
2688 1140 2659 1192 2597 1192 curveto
2530 1192 2496 1140 2496 1051 curveto
2496 214 lineto
1024 214 lineto
1024 2730 lineto
end_ol grestore 
gsave 29.371600 5.150010 translate 0.035278 -0.035278 scale
start_ol
2240 1408 moveto
2240 214 lineto
1960 214 lineto
1867 214 1821 178 1821 110 curveto
1821 37 1867 0 1958 0 curveto
2672 0 lineto
2758 0 2809 37 2809 110 curveto
2809 178 2762 214 2669 214 curveto
2432 214 lineto
2432 2730 lineto
2556 2730 lineto
2654 2730 2700 2766 2700 2834 curveto
2700 2907 2655 2944 2559 2944 curveto
1957 2944 lineto
1866 2944 1821 2907 1821 2834 curveto
1821 2766 1867 2730 1960 2730 curveto
2240 2730 lineto
2240 1664 lineto
832 1664 lineto
832 2730 lineto
1106 2730 lineto
1204 2730 1251 2766 1251 2834 curveto
1251 2907 1206 2944 1110 2944 curveto
513 2944 lineto
417 2944 372 2907 372 2834 curveto
372 2766 418 2730 516 2730 curveto
640 2730 lineto
640 214 lineto
408 214 lineto
304 214 263 178 263 110 curveto
263 37 314 0 405 0 curveto
1109 0 lineto
1205 0 1251 37 1251 110 curveto
1251 178 1204 214 1106 214 curveto
832 214 lineto
832 1408 lineto
2240 1408 lineto
end_ol grestore 
gsave 29.778000 5.150010 translate 0.035278 -0.035278 scale
start_ol
1536 3072 moveto
821 3072 256 2378 256 1504 curveto
256 630 821 -64 1536 -64 curveto
2240 -64 2816 630 2816 1478 curveto
2816 2389 2261 3072 1536 3072 curveto
1536 2816 moveto
2143 2816 2624 2229 2624 1489 curveto
2624 784 2127 192 1536 192 curveto
940 192 448 784 448 1504 curveto
448 2224 929 2816 1536 2816 curveto
end_ol grestore 
gsave 30.184400 5.150010 translate 0.035278 -0.035278 scale
start_ol
832 1216 moveto
1714 1216 lineto
2300 1216 2752 1601 2752 2085 curveto
2752 2574 2320 2944 1780 2944 curveto
361 2944 lineto
268 2944 217 2907 217 2834 curveto
217 2766 268 2730 361 2730 curveto
640 2730 lineto
640 214 lineto
361 214 lineto
268 214 217 178 217 110 curveto
217 37 268 0 361 0 curveto
1560 0 lineto
1658 0 1704 37 1704 110 curveto
1704 178 1657 214 1557 214 curveto
832 214 lineto
832 1216 lineto
832 1472 moveto
832 2730 lineto
1804 2730 lineto
2213 2730 2560 2448 2560 2106 curveto
2560 1759 2182 1472 1725 1472 curveto
832 1472 lineto
end_ol grestore 
gsave 30.590800 5.150010 translate 0.035278 -0.035278 scale
start_ol
end_ol grestore 
gsave 30.997200 5.150010 translate 0.035278 -0.035278 scale
start_ol
1024 2730 moveto
1423 2730 lineto
1519 2730 1561 2766 1561 2834 curveto
1561 2907 1520 2944 1428 2944 curveto
439 2944 lineto
347 2944 301 2907 301 2834 curveto
301 2766 347 2730 440 2730 curveto
832 2730 lineto
832 214 lineto
440 214 lineto
347 214 301 178 301 110 curveto
301 37 348 0 441 0 curveto
2688 0 lineto
2688 1051 lineto
2688 1140 2659 1192 2597 1192 curveto
2530 1192 2496 1140 2496 1051 curveto
2496 214 lineto
1024 214 lineto
1024 2730 lineto
end_ol grestore 
gsave 31.403600 5.150010 translate 0.035278 -0.035278 scale
start_ol
1664 2730 moveto
2381 2730 lineto
2479 2730 2526 2766 2526 2834 curveto
2526 2907 2480 2944 2383 2944 curveto
753 2944 lineto
666 2944 615 2907 615 2834 curveto
615 2766 667 2730 755 2730 curveto
1472 2730 lineto
1472 214 lineto
755 214 lineto
667 214 615 178 615 110 curveto
615 37 666 0 753 0 curveto
2383 0 lineto
2475 0 2526 37 2526 110 curveto
2526 178 2479 214 2381 214 curveto
1664 214 lineto
1664 2730 lineto
end_ol grestore 
gsave 31.810000 5.150010 translate 0.035278 -0.035278 scale
start_ol
1691 884 moveto
2513 2730 lineto
2560 2730 lineto
2560 214 lineto
2167 214 lineto
2073 214 2026 178 2026 110 curveto
2026 37 2072 0 2164 0 curveto
2929 0 lineto
3021 0 3067 37 3067 110 curveto
3067 178 3020 214 2927 214 curveto
2752 214 lineto
2752 2730 lineto
2881 2730 lineto
2974 2730 3020 2766 3020 2834 curveto
3020 2907 2974 2944 2883 2944 curveto
2382 2944 lineto
1571 1124 lineto
749 2944 lineto
252 2944 lineto
161 2944 111 2907 111 2834 curveto
111 2766 162 2730 255 2730 curveto
384 2730 lineto
384 214 lineto
209 214 lineto
110 214 69 178 69 110 curveto
69 37 110 0 207 0 curveto
967 0 lineto
1059 0 1110 37 1110 110 curveto
1110 178 1063 214 963 214 curveto
576 214 lineto
576 2730 lineto
618 2730 lineto
1450 884 lineto
1691 884 lineto
end_ol grestore 
gsave 32.216400 5.150010 translate 0.035278 -0.035278 scale
start_ol
1664 2730 moveto
2381 2730 lineto
2479 2730 2526 2766 2526 2834 curveto
2526 2907 2480 2944 2383 2944 curveto
753 2944 lineto
666 2944 615 2907 615 2834 curveto
615 2766 667 2730 755 2730 curveto
1472 2730 lineto
1472 214 lineto
755 214 lineto
667 214 615 178 615 110 curveto
615 37 666 0 753 0 curveto
2383 0 lineto
2475 0 2526 37 2526 110 curveto
2526 178 2479 214 2381 214 curveto
1664 214 lineto
1664 2730 lineto
end_ol grestore 
gsave 32.622800 5.150010 translate 0.035278 -0.035278 scale
start_ol
1664 214 moveto
1664 2730 lineto
2496 2730 lineto
2496 2321 lineto
2496 2232 2538 2170 2594 2170 curveto
2660 2170 2688 2214 2688 2318 curveto
2688 2944 lineto
384 2944 lineto
384 2318 lineto
384 2219 417 2170 478 2170 curveto
543 2170 576 2220 576 2321 curveto
576 2730 lineto
1472 2730 lineto
1472 214 lineto
909 214 lineto
812 214 764 178 764 110 curveto
764 37 810 0 902 0 curveto
2187 0 lineto
2279 0 2325 37 2325 110 curveto
2325 178 2279 214 2188 214 curveto
1664 214 lineto
end_ol grestore 
gsave 8.047133 5.200010 translate 0.035278 -0.035278 scale
start_ol
832 1216 moveto
1714 1216 lineto
2300 1216 2752 1601 2752 2085 curveto
2752 2574 2320 2944 1780 2944 curveto
361 2944 lineto
268 2944 217 2907 217 2834 curveto
217 2766 268 2730 361 2730 curveto
640 2730 lineto
640 214 lineto
361 214 lineto
268 214 217 178 217 110 curveto
217 37 268 0 361 0 curveto
1560 0 lineto
1658 0 1704 37 1704 110 curveto
1704 178 1657 214 1557 214 curveto
832 214 lineto
832 1216 lineto
832 1472 moveto
832 2730 lineto
1804 2730 lineto
2213 2730 2560 2448 2560 2106 curveto
2560 1759 2182 1472 1725 1472 curveto
832 1472 lineto
end_ol grestore 
gsave 8.453533 5.200010 translate 0.035278 -0.035278 scale
start_ol
2228 960 moveto
2518 214 lineto
2124 214 lineto
2031 214 1984 177 1984 110 curveto
1984 37 2031 0 2124 0 curveto
2932 0 lineto
3031 0 3072 37 3072 110 curveto
3072 177 3031 214 2932 214 curveto
2741 214 lineto
1730 2944 lineto
683 2944 lineto
591 2944 550 2907 550 2834 curveto
550 2766 592 2730 687 2730 curveto
1311 2730 lineto
376 214 lineto
212 214 lineto
117 214 64 177 64 110 curveto
64 37 117 0 212 0 curveto
1009 0 lineto
1104 0 1152 37 1152 110 curveto
1152 177 1105 214 1010 214 curveto
592 214 lineto
872 960 lineto
2228 960 lineto
2150 1216 moveto
962 1216 lineto
1511 2730 lineto
1585 2730 lineto
2150 1216 lineto
end_ol grestore 
gsave 8.859933 5.200010 translate 0.035278 -0.035278 scale
start_ol
1664 1328 moveto
2569 2730 lineto
2743 2730 lineto
2829 2730 2880 2772 2880 2834 curveto
2880 2902 2829 2944 2743 2944 curveto
2127 2944 lineto
2035 2944 1984 2907 1984 2834 curveto
1984 2767 2035 2730 2126 2730 curveto
2330 2730 lineto
1573 1543 lineto
750 2730 lineto
950 2730 lineto
1047 2730 1088 2767 1088 2834 curveto
1088 2907 1047 2944 950 2944 curveto
330 2944 lineto
238 2944 192 2907 192 2834 curveto
192 2767 238 2730 330 2730 curveto
504 2730 lineto
1472 1328 lineto
1472 214 lineto
883 214 lineto
791 214 745 178 745 110 curveto
745 37 792 0 887 0 curveto
2203 0 lineto
2298 0 2345 37 2345 110 curveto
2345 178 2299 214 2208 214 curveto
1664 214 lineto
1664 1328 lineto
end_ol grestore 
gsave 9.266333 5.200010 translate 0.035278 -0.035278 scale
start_ol
1024 2730 moveto
1423 2730 lineto
1519 2730 1561 2766 1561 2834 curveto
1561 2907 1520 2944 1428 2944 curveto
439 2944 lineto
347 2944 301 2907 301 2834 curveto
301 2766 347 2730 440 2730 curveto
832 2730 lineto
832 214 lineto
440 214 lineto
347 214 301 178 301 110 curveto
301 37 348 0 441 0 curveto
2688 0 lineto
2688 1051 lineto
2688 1140 2659 1192 2597 1192 curveto
2530 1192 2496 1140 2496 1051 curveto
2496 214 lineto
1024 214 lineto
1024 2730 lineto
end_ol grestore 
gsave 9.672733 5.200010 translate 0.035278 -0.035278 scale
start_ol
1536 3072 moveto
821 3072 256 2378 256 1504 curveto
256 630 821 -64 1536 -64 curveto
2240 -64 2816 630 2816 1478 curveto
2816 2389 2261 3072 1536 3072 curveto
1536 2816 moveto
2143 2816 2624 2229 2624 1489 curveto
2624 784 2127 192 1536 192 curveto
940 192 448 784 448 1504 curveto
448 2224 929 2816 1536 2816 curveto
end_ol grestore 
gsave 10.079133 5.200010 translate 0.035278 -0.035278 scale
start_ol
2228 960 moveto
2518 214 lineto
2124 214 lineto
2031 214 1984 177 1984 110 curveto
1984 37 2031 0 2124 0 curveto
2932 0 lineto
3031 0 3072 37 3072 110 curveto
3072 177 3031 214 2932 214 curveto
2741 214 lineto
1730 2944 lineto
683 2944 lineto
591 2944 550 2907 550 2834 curveto
550 2766 592 2730 687 2730 curveto
1311 2730 lineto
376 214 lineto
212 214 lineto
117 214 64 177 64 110 curveto
64 37 117 0 212 0 curveto
1009 0 lineto
1104 0 1152 37 1152 110 curveto
1152 177 1105 214 1010 214 curveto
592 214 lineto
872 960 lineto
2228 960 lineto
2150 1216 moveto
962 1216 lineto
1511 2730 lineto
1585 2730 lineto
2150 1216 lineto
end_ol grestore 
gsave 10.485533 5.200010 translate 0.035278 -0.035278 scale
start_ol
640 214 moveto
465 214 lineto
372 214 325 178 325 110 curveto
325 37 371 0 462 0 curveto
1577 0 lineto
2238 0 2752 586 2752 1328 curveto
2752 1616 lineto
2752 2358 2238 2944 1577 2944 curveto
462 2944 lineto
371 2944 325 2907 325 2834 curveto
325 2766 372 2730 465 2730 curveto
640 2730 lineto
640 214 lineto
832 214 moveto
832 2730 lineto
1572 2730 lineto
1851 2730 2043 2652 2224 2468 curveto
2436 2254 2560 1940 2560 1663 curveto
2560 1281 lineto
2560 732 2105 214 1613 214 curveto
832 214 lineto
end_ol grestore 
gsave 10.891933 5.200010 translate 0.035278 -0.035278 scale
start_ol
end_ol grestore 
gsave 11.298333 5.200010 translate 0.035278 -0.035278 scale
start_ol
1024 2730 moveto
1423 2730 lineto
1519 2730 1561 2766 1561 2834 curveto
1561 2907 1520 2944 1428 2944 curveto
439 2944 lineto
347 2944 301 2907 301 2834 curveto
301 2766 347 2730 440 2730 curveto
832 2730 lineto
832 214 lineto
440 214 lineto
347 214 301 178 301 110 curveto
301 37 348 0 441 0 curveto
2688 0 lineto
2688 1051 lineto
2688 1140 2659 1192 2597 1192 curveto
2530 1192 2496 1140 2496 1051 curveto
2496 214 lineto
1024 214 lineto
1024 2730 lineto
end_ol grestore 
gsave 11.704733 5.200010 translate 0.035278 -0.035278 scale
start_ol
832 1408 moveto
1600 1408 lineto
1600 1179 lineto
1600 1088 1637 1042 1701 1042 curveto
1755 1042 1792 1090 1792 1186 curveto
1792 1887 lineto
1792 1983 1755 2031 1701 2031 curveto
1637 2031 1600 1985 1600 1894 curveto
1600 1664 lineto
832 1664 lineto
832 2730 lineto
2368 2730 lineto
2368 2230 lineto
2368 2143 2401 2092 2462 2092 curveto
2527 2092 2560 2143 2560 2231 curveto
2560 2944 lineto
361 2944 lineto
268 2944 217 2907 217 2834 curveto
217 2766 268 2730 361 2730 curveto
640 2730 lineto
640 214 lineto
361 214 lineto
268 214 217 178 217 110 curveto
217 37 269 0 362 0 curveto
2688 0 lineto
2688 835 lineto
2688 929 2659 976 2597 976 curveto
2525 976 2496 929 2496 835 curveto
2496 214 lineto
832 214 lineto
832 1408 lineto
end_ol grestore 
gsave 12.111133 5.200010 translate 0.035278 -0.035278 scale
start_ol
2560 0 moveto
2560 2730 lineto
2735 2730 lineto
2828 2730 2875 2766 2875 2834 curveto
2875 2907 2829 2944 2737 2944 curveto
1974 2944 lineto
1877 2944 1831 2907 1831 2834 curveto
1831 2766 1878 2730 1978 2730 curveto
2368 2730 lineto
2368 308 lineto
762 2944 lineto
230 2944 lineto
144 2944 94 2907 94 2834 curveto
94 2766 145 2730 233 2730 curveto
512 2730 lineto
512 214 lineto
337 214 lineto
244 214 197 178 197 110 curveto
197 37 243 0 335 0 curveto
1098 0 lineto
1185 0 1241 37 1241 110 curveto
1241 178 1194 214 1094 214 curveto
704 214 lineto
704 2636 lineto
2310 0 lineto
2560 0 lineto
end_ol grestore 
gsave 12.517533 5.200010 translate 0.035278 -0.035278 scale
start_ol
2688 1088 moveto
2765 1088 lineto
2863 1088 2910 1132 2910 1225 curveto
2910 1300 2863 1344 2765 1344 curveto
1758 1344 lineto
1665 1344 1618 1300 1618 1225 curveto
1618 1132 1666 1088 1761 1088 curveto
2496 1088 lineto
2496 358 lineto
2205 231 2015 192 1739 192 curveto
978 192 512 619 512 1319 curveto
512 1694 lineto
512 1998 659 2332 891 2538 curveto
1091 2729 1322 2816 1628 2816 curveto
2091 2816 2470 2591 2496 2312 curveto
2496 2219 2526 2170 2592 2170 curveto
2658 2170 2688 2222 2688 2316 curveto
2688 2791 lineto
2688 2890 2669 2932 2597 2932 curveto
2525 2932 2496 2891 2496 2820 curveto
2496 2745 lineto
2261 2963 1973 3072 1628 3072 curveto
1288 3072 979 2950 744 2728 curveto
477 2479 320 2087 320 1705 curveto
320 1313 lineto
320 476 870 -64 1722 -64 curveto
2039 -64 2387 43 2688 246 curveto
2688 1088 lineto
end_ol grestore 
gsave 12.923933 5.200010 translate 0.035278 -0.035278 scale
start_ol
1664 214 moveto
1664 2730 lineto
2496 2730 lineto
2496 2321 lineto
2496 2232 2538 2170 2594 2170 curveto
2660 2170 2688 2214 2688 2318 curveto
2688 2944 lineto
384 2944 lineto
384 2318 lineto
384 2219 417 2170 478 2170 curveto
543 2170 576 2220 576 2321 curveto
576 2730 lineto
1472 2730 lineto
1472 214 lineto
909 214 lineto
812 214 764 178 764 110 curveto
764 37 810 0 902 0 curveto
2187 0 lineto
2279 0 2325 37 2325 110 curveto
2325 178 2279 214 2188 214 curveto
1664 214 lineto
end_ol grestore 
gsave 13.330333 5.200010 translate 0.035278 -0.035278 scale
start_ol
2240 1408 moveto
2240 214 lineto
1960 214 lineto
1867 214 1821 178 1821 110 curveto
1821 37 1867 0 1958 0 curveto
2672 0 lineto
2758 0 2809 37 2809 110 curveto
2809 178 2762 214 2669 214 curveto
2432 214 lineto
2432 2730 lineto
2556 2730 lineto
2654 2730 2700 2766 2700 2834 curveto
2700 2907 2655 2944 2559 2944 curveto
1957 2944 lineto
1866 2944 1821 2907 1821 2834 curveto
1821 2766 1867 2730 1960 2730 curveto
2240 2730 lineto
2240 1664 lineto
832 1664 lineto
832 2730 lineto
1106 2730 lineto
1204 2730 1251 2766 1251 2834 curveto
1251 2907 1206 2944 1110 2944 curveto
513 2944 lineto
417 2944 372 2907 372 2834 curveto
372 2766 418 2730 516 2730 curveto
640 2730 lineto
640 214 lineto
408 214 lineto
304 214 263 178 263 110 curveto
263 37 314 0 405 0 curveto
1109 0 lineto
1205 0 1251 37 1251 110 curveto
1251 178 1204 214 1106 214 curveto
832 214 lineto
832 1408 lineto
2240 1408 lineto
end_ol grestore 
0.100000 slw
[] 0 sd
[] 0 sd
0 slc
n 27.000000 4.000000 m 27.000000 6.000000 l s
gsave 20.889800 5.200010 translate 0.035278 -0.035278 scale
start_ol
2560 0 moveto
2560 2730 lineto
2735 2730 lineto
2828 2730 2875 2766 2875 2834 curveto
2875 2907 2829 2944 2737 2944 curveto
1974 2944 lineto
1877 2944 1831 2907 1831 2834 curveto
1831 2766 1878 2730 1978 2730 curveto
2368 2730 lineto
2368 308 lineto
762 2944 lineto
230 2944 lineto
144 2944 94 2907 94 2834 curveto
94 2766 145 2730 233 2730 curveto
512 2730 lineto
512 214 lineto
337 214 lineto
244 214 197 178 197 110 curveto
197 37 243 0 335 0 curveto
1098 0 lineto
1185 0 1241 37 1241 110 curveto
1241 178 1194 214 1094 214 curveto
704 214 lineto
704 2636 lineto
2310 0 lineto
2560 0 lineto
end_ol grestore 
gsave 21.296200 5.200010 translate 0.035278 -0.035278 scale
start_ol
832 1408 moveto
1600 1408 lineto
1600 1179 lineto
1600 1088 1637 1042 1701 1042 curveto
1755 1042 1792 1090 1792 1186 curveto
1792 1887 lineto
1792 1983 1755 2031 1701 2031 curveto
1637 2031 1600 1985 1600 1894 curveto
1600 1664 lineto
832 1664 lineto
832 2730 lineto
2368 2730 lineto
2368 2230 lineto
2368 2143 2401 2092 2462 2092 curveto
2527 2092 2560 2143 2560 2231 curveto
2560 2944 lineto
361 2944 lineto
268 2944 217 2907 217 2834 curveto
217 2766 268 2730 361 2730 curveto
640 2730 lineto
640 214 lineto
361 214 lineto
268 214 217 178 217 110 curveto
217 37 269 0 362 0 curveto
2688 0 lineto
2688 835 lineto
2688 929 2659 976 2597 976 curveto
2525 976 2496 929 2496 835 curveto
2496 214 lineto
832 214 lineto
832 1408 lineto
end_ol grestore 
gsave 21.702600 5.200010 translate 0.035278 -0.035278 scale
start_ol
1667 1506 moveto
2596 2730 lineto
2675 2730 lineto
2764 2730 2816 2767 2816 2834 curveto
2816 2913 2766 2944 2680 2944 curveto
2120 2944 lineto
2029 2944 1984 2907 1984 2834 curveto
1984 2767 2027 2730 2114 2730 curveto
2330 2730 lineto
1539 1684 lineto
732 2730 lineto
953 2730 lineto
1043 2730 1088 2767 1088 2834 curveto
1088 2907 1042 2944 951 2944 curveto
393 2944 lineto
297 2944 256 2907 256 2834 curveto
256 2767 297 2730 394 2730 curveto
471 2730 lineto
1394 1506 lineto
425 214 lineto
338 214 lineto
241 214 192 177 192 110 curveto
192 37 239 0 332 0 curveto
1012 0 lineto
1105 0 1152 37 1152 110 curveto
1152 177 1102 214 1003 214 curveto
675 214 lineto
1533 1333 lineto
2387 214 lineto
2075 214 lineto
1974 214 1920 177 1920 110 curveto
1920 37 1967 0 2055 0 curveto
2745 0 lineto
2838 0 2880 37 2880 110 curveto
2880 177 2839 214 2748 214 curveto
2659 214 lineto
1667 1506 lineto
end_ol grestore 
gsave 22.109000 5.200010 translate 0.035278 -0.035278 scale
start_ol
1664 214 moveto
1664 2730 lineto
2496 2730 lineto
2496 2321 lineto
2496 2232 2538 2170 2594 2170 curveto
2660 2170 2688 2214 2688 2318 curveto
2688 2944 lineto
384 2944 lineto
384 2318 lineto
384 2219 417 2170 478 2170 curveto
543 2170 576 2220 576 2321 curveto
576 2730 lineto
1472 2730 lineto
1472 214 lineto
909 214 lineto
812 214 764 178 764 110 curveto
764 37 810 0 902 0 curveto
2187 0 lineto
2279 0 2325 37 2325 110 curveto
2325 178 2279 214 2188 214 curveto
1664 214 lineto
end_ol grestore 
gsave 22.515400 5.200010 translate 0.035278 -0.035278 scale
start_ol
end_ol grestore 
gsave 22.921800 5.200010 translate 0.035278 -0.035278 scale
start_ol
2240 1408 moveto
2240 214 lineto
1960 214 lineto
1867 214 1821 178 1821 110 curveto
1821 37 1867 0 1958 0 curveto
2672 0 lineto
2758 0 2809 37 2809 110 curveto
2809 178 2762 214 2669 214 curveto
2432 214 lineto
2432 2730 lineto
2556 2730 lineto
2654 2730 2700 2766 2700 2834 curveto
2700 2907 2655 2944 2559 2944 curveto
1957 2944 lineto
1866 2944 1821 2907 1821 2834 curveto
1821 2766 1867 2730 1960 2730 curveto
2240 2730 lineto
2240 1664 lineto
832 1664 lineto
832 2730 lineto
1106 2730 lineto
1204 2730 1251 2766 1251 2834 curveto
1251 2907 1206 2944 1110 2944 curveto
513 2944 lineto
417 2944 372 2907 372 2834 curveto
372 2766 418 2730 516 2730 curveto
640 2730 lineto
640 214 lineto
408 214 lineto
304 214 263 178 263 110 curveto
263 37 314 0 405 0 curveto
1109 0 lineto
1205 0 1251 37 1251 110 curveto
1251 178 1204 214 1106 214 curveto
832 214 lineto
832 1408 lineto
2240 1408 lineto
end_ol grestore 
gsave 23.328200 5.200010 translate 0.035278 -0.035278 scale
start_ol
832 1408 moveto
1600 1408 lineto
1600 1179 lineto
1600 1088 1637 1042 1701 1042 curveto
1755 1042 1792 1090 1792 1186 curveto
1792 1887 lineto
1792 1983 1755 2031 1701 2031 curveto
1637 2031 1600 1985 1600 1894 curveto
1600 1664 lineto
832 1664 lineto
832 2730 lineto
2368 2730 lineto
2368 2230 lineto
2368 2143 2401 2092 2462 2092 curveto
2527 2092 2560 2143 2560 2231 curveto
2560 2944 lineto
361 2944 lineto
268 2944 217 2907 217 2834 curveto
217 2766 268 2730 361 2730 curveto
640 2730 lineto
640 214 lineto
361 214 lineto
268 214 217 178 217 110 curveto
217 37 269 0 362 0 curveto
2688 0 lineto
2688 835 lineto
2688 929 2659 976 2597 976 curveto
2525 976 2496 929 2496 835 curveto
2496 214 lineto
832 214 lineto
832 1408 lineto
end_ol grestore 
gsave 23.734600 5.200010 translate 0.035278 -0.035278 scale
start_ol
2228 960 moveto
2518 214 lineto
2124 214 lineto
2031 214 1984 177 1984 110 curveto
1984 37 2031 0 2124 0 curveto
2932 0 lineto
3031 0 3072 37 3072 110 curveto
3072 177 3031 214 2932 214 curveto
2741 214 lineto
1730 2944 lineto
683 2944 lineto
591 2944 550 2907 550 2834 curveto
550 2766 592 2730 687 2730 curveto
1311 2730 lineto
376 214 lineto
212 214 lineto
117 214 64 177 64 110 curveto
64 37 117 0 212 0 curveto
1009 0 lineto
1104 0 1152 37 1152 110 curveto
1152 177 1105 214 1010 214 curveto
592 214 lineto
872 960 lineto
2228 960 lineto
2150 1216 moveto
962 1216 lineto
1511 2730 lineto
1585 2730 lineto
2150 1216 lineto
end_ol grestore 
gsave 24.141000 5.200010 translate 0.035278 -0.035278 scale
start_ol
640 214 moveto
465 214 lineto
372 214 325 178 325 110 curveto
325 37 371 0 462 0 curveto
1577 0 lineto
2238 0 2752 586 2752 1328 curveto
2752 1616 lineto
2752 2358 2238 2944 1577 2944 curveto
462 2944 lineto
371 2944 325 2907 325 2834 curveto
325 2766 372 2730 465 2730 curveto
640 2730 lineto
640 214 lineto
832 214 moveto
832 2730 lineto
1572 2730 lineto
1851 2730 2043 2652 2224 2468 curveto
2436 2254 2560 1940 2560 1663 curveto
2560 1281 lineto
2560 732 2105 214 1613 214 curveto
832 214 lineto
end_ol grestore 
gsave 24.547400 5.200010 translate 0.035278 -0.035278 scale
start_ol
832 1408 moveto
1600 1408 lineto
1600 1179 lineto
1600 1088 1637 1042 1701 1042 curveto
1755 1042 1792 1090 1792 1186 curveto
1792 1887 lineto
1792 1983 1755 2031 1701 2031 curveto
1637 2031 1600 1985 1600 1894 curveto
1600 1664 lineto
832 1664 lineto
832 2730 lineto
2368 2730 lineto
2368 2230 lineto
2368 2143 2401 2092 2462 2092 curveto
2527 2092 2560 2143 2560 2231 curveto
2560 2944 lineto
361 2944 lineto
268 2944 217 2907 217 2834 curveto
217 2766 268 2730 361 2730 curveto
640 2730 lineto
640 214 lineto
361 214 lineto
268 214 217 178 217 110 curveto
217 37 269 0 362 0 curveto
2688 0 lineto
2688 835 lineto
2688 929 2659 976 2597 976 curveto
2525 976 2496 929 2496 835 curveto
2496 214 lineto
832 214 lineto
832 1408 lineto
end_ol grestore 
gsave 24.953800 5.200010 translate 0.035278 -0.035278 scale
start_ol
832 1280 moveto
1524 1280 lineto
1916 1102 2142 821 2596 0 curveto
2891 0 lineto
2984 0 3030 37 3030 110 curveto
3030 178 2983 214 2890 214 curveto
2735 214 lineto
2315 938 2172 1123 1849 1349 curveto
2320 1519 2560 1773 2560 2117 curveto
2560 2568 2134 2944 1635 2944 curveto
361 2944 lineto
268 2944 217 2907 217 2834 curveto
217 2766 268 2730 361 2730 curveto
640 2730 lineto
640 214 lineto
361 214 lineto
268 214 217 178 217 110 curveto
217 37 268 0 360 0 curveto
1229 0 lineto
1321 0 1367 37 1367 110 curveto
1367 178 1320 214 1225 214 curveto
832 214 lineto
832 1280 lineto
832 1536 moveto
832 2730 lineto
1634 2730 lineto
2012 2730 2368 2450 2368 2138 curveto
2368 1801 1943 1536 1430 1536 curveto
832 1536 lineto
end_ol grestore 
0.050000 slw
[] 0 sd
[] 0 sd
0 slc
n 3.000000 8.000000 m 5.000000 8.000000 l s
0.050000 slw
[] 0 sd
[] 0 sd
0 slc
n 3.000000 10.000000 m 5.000000 10.000000 l s
0.050000 slw
[] 0 sd
[] 0 sd
0 slc
n 3.000000 11.975000 m 5.000000 12.000000 l s
0.050000 slw
[] 0 sd
[] 0 sd
0 slc
n 33.000000 8.000000 m 35.000000 8.025000 l s
0.050000 slw
[] 0 sd
[] 0 sd
0 slc
n 33.000000 10.000000 m 35.000000 10.025000 l s
0.050000 slw
[] 0 sd
[] 0 sd
0 slc
n 33.000000 12.000000 m 35.000000 11.975000 l s
0.050000 slw
[] 0 sd
[] 0 sd
0 slc
n 33.000000 16.000000 m 35.000000 16.025000 l s
0.050000 slw
[] 0 sd
[] 0 sd
0 slc
n 33.000000 18.000000 m 35.000000 18.025000 l s
0.050000 slw
[] 0 sd
[] 0 sd
0 slc
n 33.000000 20.000000 m 35.000000 20.025000 l s
0.050000 slw
[] 0 sd
[] 0 sd
0 slc
n 3.000000 16.000000 m 5.000000 16.025000 l s
0.050000 slw
[] 0 sd
[] 0 sd
0 slc
n 3.000000 18.000000 m 5.000000 18.025000 l s
0.050000 slw
[] 0 sd
[] 0 sd
0 slc
n 3.000000 20.000000 m 5.000000 20.025000 l s
showpage
