%!PS-Adobe-2.0 EPSF-2.0
%%Title: IPv6/bilder/OSI-IPv6.dia
%%Creator: Dia v0.94
%%CreationDate: Wed Jun 21 17:12:23 2006
%%For: dirk
%%Orientation: Portrait
%%Magnification: 1.0000
%%BoundingBox: 0 0 1132 1001
%%BeginSetup
%%EndSetup
%%EndComments
%%BeginProlog
[ /.notdef /.notdef /.notdef /.notdef /.notdef /.notdef /.notdef /.notdef /.notdef /.notdef
/.notdef /.notdef /.notdef /.notdef /.notdef /.notdef /.notdef /.notdef /.notdef /.notdef
/.notdef /.notdef /.notdef /.notdef /.notdef /.notdef /.notdef /.notdef /.notdef /.notdef
/.notdef /.notdef /space /exclam /quotedbl /numbersign /dollar /percent /ampersand /quoteright
/parenleft /parenright /asterisk /plus /comma /hyphen /period /slash /zero /one
/two /three /four /five /six /seven /eight /nine /colon /semicolon
/less /equal /greater /question /at /A /B /C /D /E
/F /G /H /I /J /K /L /M /N /O
/P /Q /R /S /T /U /V /W /X /Y
/Z /bracketleft /backslash /bracketright /asciicircum /underscore /quoteleft /a /b /c
/d /e /f /g /h /i /j /k /l /m
/n /o /p /q /r /s /t /u /v /w
/x /y /z /braceleft /bar /braceright /asciitilde /.notdef /.notdef /.notdef
/.notdef /.notdef /.notdef /.notdef /.notdef /.notdef /.notdef /.notdef /.notdef /.notdef
/.notdef /.notdef /.notdef /.notdef /.notdef /.notdef /.notdef /.notdef /.notdef /.notdef
/.notdef /.notdef /.notdef /.notdef /.notdef /.notdef /.notdef /.notdef /.notdef /.notdef
/space /exclamdown /cent /sterling /currency /yen /brokenbar /section /dieresis /copyright
/ordfeminine /guillemotleft /logicalnot /hyphen /registered /macron /degree /plusminus /twosuperior /threesuperior
/acute /mu /paragraph /periodcentered /cedilla /onesuperior /ordmasculine /guillemotright /onequarter /onehalf
/threequarters /questiondown /Agrave /Aacute /Acircumflex /Atilde /Adieresis /Aring /AE /Ccedilla
/Egrave /Eacute /Ecircumflex /Edieresis /Igrave /Iacute /Icircumflex /Idieresis /Eth /Ntilde
/Ograve /Oacute /Ocircumflex /Otilde /Odieresis /multiply /Oslash /Ugrave /Uacute /Ucircumflex
/Udieresis /Yacute /Thorn /germandbls /agrave /aacute /acircumflex /atilde /adieresis /aring
/ae /ccedilla /egrave /eacute /ecircumflex /edieresis /igrave /iacute /icircumflex /idieresis
/eth /ntilde /ograve /oacute /ocircumflex /otilde /odieresis /divide /oslash /ugrave
/uacute /ucircumflex /udieresis /yacute /thorn /ydieresis] /isolatin1encoding exch def
/cp {closepath} bind def
/c {curveto} bind def
/f {fill} bind def
/a {arc} bind def
/ef {eofill} bind def
/ex {exch} bind def
/gr {grestore} bind def
/gs {gsave} bind def
/sa {save} bind def
/rs {restore} bind def
/l {lineto} bind def
/m {moveto} bind def
/rm {rmoveto} bind def
/n {newpath} bind def
/s {stroke} bind def
/sh {show} bind def
/slc {setlinecap} bind def
/slj {setlinejoin} bind def
/slw {setlinewidth} bind def
/srgb {setrgbcolor} bind def
/rot {rotate} bind def
/sc {scale} bind def
/sd {setdash} bind def
/ff {findfont} bind def
/sf {setfont} bind def
/scf {scalefont} bind def
/sw {stringwidth pop} bind def
/tr {translate} bind def

/ellipsedict 8 dict def
ellipsedict /mtrx matrix put
/ellipse
{ ellipsedict begin
   /endangle exch def
   /startangle exch def
   /yrad exch def
   /xrad exch def
   /y exch def
   /x exch def   /savematrix mtrx currentmatrix def
   x y tr xrad yrad sc
   0 0 1 startangle endangle arc
   savematrix setmatrix
   end
} def

/mergeprocs {
dup length
3 -1 roll
dup
length
dup
5 1 roll
3 -1 roll
add
array cvx
dup
3 -1 roll
0 exch
putinterval
dup
4 2 roll
putinterval
} bind def
/Times-Roman-latin1
    /Times-Roman findfont
    dup length dict begin
	{1 index /FID ne {def} {pop pop} ifelse} forall
	/Encoding isolatin1encoding def
    currentdict end
definefont pop
/Times-Italic-latin1
    /Times-Italic findfont
    dup length dict begin
	{1 index /FID ne {def} {pop pop} ifelse} forall
	/Encoding isolatin1encoding def
    currentdict end
definefont pop
/Times-Bold-latin1
    /Times-Bold findfont
    dup length dict begin
	{1 index /FID ne {def} {pop pop} ifelse} forall
	/Encoding isolatin1encoding def
    currentdict end
definefont pop
/Times-BoldItalic-latin1
    /Times-BoldItalic findfont
    dup length dict begin
	{1 index /FID ne {def} {pop pop} ifelse} forall
	/Encoding isolatin1encoding def
    currentdict end
definefont pop
/AvantGarde-Book-latin1
    /AvantGarde-Book findfont
    dup length dict begin
	{1 index /FID ne {def} {pop pop} ifelse} forall
	/Encoding isolatin1encoding def
    currentdict end
definefont pop
/AvantGarde-BookOblique-latin1
    /AvantGarde-BookOblique findfont
    dup length dict begin
	{1 index /FID ne {def} {pop pop} ifelse} forall
	/Encoding isolatin1encoding def
    currentdict end
definefont pop
/AvantGarde-Demi-latin1
    /AvantGarde-Demi findfont
    dup length dict begin
	{1 index /FID ne {def} {pop pop} ifelse} forall
	/Encoding isolatin1encoding def
    currentdict end
definefont pop
/AvantGarde-DemiOblique-latin1
    /AvantGarde-DemiOblique findfont
    dup length dict begin
	{1 index /FID ne {def} {pop pop} ifelse} forall
	/Encoding isolatin1encoding def
    currentdict end
definefont pop
/Bookman-Light-latin1
    /Bookman-Light findfont
    dup length dict begin
	{1 index /FID ne {def} {pop pop} ifelse} forall
	/Encoding isolatin1encoding def
    currentdict end
definefont pop
/Bookman-LightItalic-latin1
    /Bookman-LightItalic findfont
    dup length dict begin
	{1 index /FID ne {def} {pop pop} ifelse} forall
	/Encoding isolatin1encoding def
    currentdict end
definefont pop
/Bookman-Demi-latin1
    /Bookman-Demi findfont
    dup length dict begin
	{1 index /FID ne {def} {pop pop} ifelse} forall
	/Encoding isolatin1encoding def
    currentdict end
definefont pop
/Bookman-DemiItalic-latin1
    /Bookman-DemiItalic findfont
    dup length dict begin
	{1 index /FID ne {def} {pop pop} ifelse} forall
	/Encoding isolatin1encoding def
    currentdict end
definefont pop
/Courier-latin1
    /Courier findfont
    dup length dict begin
	{1 index /FID ne {def} {pop pop} ifelse} forall
	/Encoding isolatin1encoding def
    currentdict end
definefont pop
/Courier-Oblique-latin1
    /Courier-Oblique findfont
    dup length dict begin
	{1 index /FID ne {def} {pop pop} ifelse} forall
	/Encoding isolatin1encoding def
    currentdict end
definefont pop
/Courier-Bold-latin1
    /Courier-Bold findfont
    dup length dict begin
	{1 index /FID ne {def} {pop pop} ifelse} forall
	/Encoding isolatin1encoding def
    currentdict end
definefont pop
/Courier-BoldOblique-latin1
    /Courier-BoldOblique findfont
    dup length dict begin
	{1 index /FID ne {def} {pop pop} ifelse} forall
	/Encoding isolatin1encoding def
    currentdict end
definefont pop
/Helvetica-latin1
    /Helvetica findfont
    dup length dict begin
	{1 index /FID ne {def} {pop pop} ifelse} forall
	/Encoding isolatin1encoding def
    currentdict end
definefont pop
/Helvetica-Oblique-latin1
    /Helvetica-Oblique findfont
    dup length dict begin
	{1 index /FID ne {def} {pop pop} ifelse} forall
	/Encoding isolatin1encoding def
    currentdict end
definefont pop
/Helvetica-Bold-latin1
    /Helvetica-Bold findfont
    dup length dict begin
	{1 index /FID ne {def} {pop pop} ifelse} forall
	/Encoding isolatin1encoding def
    currentdict end
definefont pop
/Helvetica-BoldOblique-latin1
    /Helvetica-BoldOblique findfont
    dup length dict begin
	{1 index /FID ne {def} {pop pop} ifelse} forall
	/Encoding isolatin1encoding def
    currentdict end
definefont pop
/Helvetica-Narrow-latin1
    /Helvetica-Narrow findfont
    dup length dict begin
	{1 index /FID ne {def} {pop pop} ifelse} forall
	/Encoding isolatin1encoding def
    currentdict end
definefont pop
/Helvetica-Narrow-Oblique-latin1
    /Helvetica-Narrow-Oblique findfont
    dup length dict begin
	{1 index /FID ne {def} {pop pop} ifelse} forall
	/Encoding isolatin1encoding def
    currentdict end
definefont pop
/Helvetica-Narrow-Bold-latin1
    /Helvetica-Narrow-Bold findfont
    dup length dict begin
	{1 index /FID ne {def} {pop pop} ifelse} forall
	/Encoding isolatin1encoding def
    currentdict end
definefont pop
/Helvetica-Narrow-BoldOblique-latin1
    /Helvetica-Narrow-BoldOblique findfont
    dup length dict begin
	{1 index /FID ne {def} {pop pop} ifelse} forall
	/Encoding isolatin1encoding def
    currentdict end
definefont pop
/NewCenturySchoolbook-Roman-latin1
    /NewCenturySchoolbook-Roman findfont
    dup length dict begin
	{1 index /FID ne {def} {pop pop} ifelse} forall
	/Encoding isolatin1encoding def
    currentdict end
definefont pop
/NewCenturySchoolbook-Italic-latin1
    /NewCenturySchoolbook-Italic findfont
    dup length dict begin
	{1 index /FID ne {def} {pop pop} ifelse} forall
	/Encoding isolatin1encoding def
    currentdict end
definefont pop
/NewCenturySchoolbook-Bold-latin1
    /NewCenturySchoolbook-Bold findfont
    dup length dict begin
	{1 index /FID ne {def} {pop pop} ifelse} forall
	/Encoding isolatin1encoding def
    currentdict end
definefont pop
/NewCenturySchoolbook-BoldItalic-latin1
    /NewCenturySchoolbook-BoldItalic findfont
    dup length dict begin
	{1 index /FID ne {def} {pop pop} ifelse} forall
	/Encoding isolatin1encoding def
    currentdict end
definefont pop
/Palatino-Roman-latin1
    /Palatino-Roman findfont
    dup length dict begin
	{1 index /FID ne {def} {pop pop} ifelse} forall
	/Encoding isolatin1encoding def
    currentdict end
definefont pop
/Palatino-Italic-latin1
    /Palatino-Italic findfont
    dup length dict begin
	{1 index /FID ne {def} {pop pop} ifelse} forall
	/Encoding isolatin1encoding def
    currentdict end
definefont pop
/Palatino-Bold-latin1
    /Palatino-Bold findfont
    dup length dict begin
	{1 index /FID ne {def} {pop pop} ifelse} forall
	/Encoding isolatin1encoding def
    currentdict end
definefont pop
/Palatino-BoldItalic-latin1
    /Palatino-BoldItalic findfont
    dup length dict begin
	{1 index /FID ne {def} {pop pop} ifelse} forall
	/Encoding isolatin1encoding def
    currentdict end
definefont pop
/Symbol-latin1
    /Symbol findfont
definefont pop
/ZapfChancery-MediumItalic-latin1
    /ZapfChancery-MediumItalic findfont
    dup length dict begin
	{1 index /FID ne {def} {pop pop} ifelse} forall
	/Encoding isolatin1encoding def
    currentdict end
definefont pop
/ZapfDingbats-latin1
    /ZapfDingbats findfont
    dup length dict begin
	{1 index /FID ne {def} {pop pop} ifelse} forall
	/Encoding isolatin1encoding def
    currentdict end
definefont pop
28.346000 -28.346000 scale
-0.200000 -36.800000 translate
%%EndProlog


1.000000 1.000000 1.000000 srgb
n 2.450200 14.450000 m 2.450200 29.450000 l 36.550200 29.450000 l 36.550200 14.450000 l f
0.010000 slw
[0.200000] 0 sd
[0.200000] 0 sd
0 slj
0.000000 0.000000 0.000000 srgb
n 2.450200 14.450000 m 2.450200 29.450000 l 36.550200 29.450000 l 36.550200 14.450000 l cp s
1.000000 1.000000 1.000000 srgb
n 2.450200 2.500010 m 2.450200 13.500010 l 36.600200 13.500010 l 36.600200 2.500010 l f
0.010000 slw
[0.200000] 0 sd
[0.200000] 0 sd
0 slj
0.000000 0.000000 0.000000 srgb
n 2.450200 2.500010 m 2.450200 13.500010 l 36.600200 13.500010 l 36.600200 2.500010 l cp s
1.000000 1.000000 1.000000 srgb
n 3.000000 3.000000 m 3.000000 5.000000 l 12.000000 5.000000 l 12.000000 3.000000 l f
0.100000 slw
[] 0 sd
[] 0 sd
0 slj
0.000000 0.000000 0.000000 srgb
n 3.000000 3.000000 m 3.000000 5.000000 l 12.000000 5.000000 l 12.000000 3.000000 l cp s
1.000000 1.000000 1.000000 srgb
n 3.000000 7.000000 m 3.000000 9.000000 l 12.000000 9.000000 l 12.000000 7.000000 l f
0.100000 slw
[] 0 sd
[] 0 sd
0 slj
0.000000 0.000000 0.000000 srgb
n 3.000000 7.000000 m 3.000000 9.000000 l 12.000000 9.000000 l 12.000000 7.000000 l cp s
1.000000 1.000000 1.000000 srgb
n 3.000000 11.000000 m 3.000000 13.000000 l 12.000000 13.000000 l 12.000000 11.000000 l f
0.100000 slw
[] 0 sd
[] 0 sd
0 slj
0.000000 0.000000 0.000000 srgb
n 3.000000 11.000000 m 3.000000 13.000000 l 12.000000 13.000000 l 12.000000 11.000000 l cp s
1.000000 1.000000 1.000000 srgb
n 3.000000 15.000000 m 3.000000 17.000000 l 12.000000 17.000000 l 12.000000 15.000000 l f
0.100000 slw
[] 0 sd
[] 0 sd
0 slj
0.000000 0.000000 0.000000 srgb
n 3.000000 15.000000 m 3.000000 17.000000 l 12.000000 17.000000 l 12.000000 15.000000 l cp s
1.000000 1.000000 1.000000 srgb
n 3.000000 19.000000 m 3.000000 21.000000 l 12.000000 21.000000 l 12.000000 19.000000 l f
0.100000 slw
[] 0 sd
[] 0 sd
0 slj
0.000000 0.000000 0.000000 srgb
n 3.000000 19.000000 m 3.000000 21.000000 l 12.000000 21.000000 l 12.000000 19.000000 l cp s
1.000000 1.000000 1.000000 srgb
n 3.000000 23.000000 m 3.000000 25.000000 l 12.000000 25.000000 l 12.000000 23.000000 l f
0.100000 slw
[] 0 sd
[] 0 sd
0 slj
0.000000 0.000000 0.000000 srgb
n 3.000000 23.000000 m 3.000000 25.000000 l 12.000000 25.000000 l 12.000000 23.000000 l cp s
1.000000 1.000000 1.000000 srgb
n 3.000000 27.000000 m 3.000000 29.000000 l 12.000000 29.000000 l 12.000000 27.000000 l f
0.100000 slw
[] 0 sd
[] 0 sd
0 slj
0.000000 0.000000 0.000000 srgb
n 3.000000 27.000000 m 3.000000 29.000000 l 12.000000 29.000000 l 12.000000 27.000000 l cp s
/Courier-latin1 ff 0.560000 scf sf
(Application) dup sw 2 div 7.475000 ex sub 4.250000 m gs 1 -1 sc sh gr
/Courier-latin1 ff 0.560000 scf sf
(Presentation) dup sw 2 div 7.450000 ex sub 8.150000 m gs 1 -1 sc sh gr
/Courier-latin1 ff 0.560000 scf sf
(Session) dup sw 2 div 7.500000 ex sub 12.150000 m gs 1 -1 sc sh gr
/Courier-latin1 ff 0.560000 scf sf
(Transport) dup sw 2 div 7.500000 ex sub 16.200000 m gs 1 -1 sc sh gr
/Courier-latin1 ff 0.560000 scf sf
(Network) dup sw 2 div 7.550000 ex sub 20.200000 m gs 1 -1 sc sh gr
/Courier-latin1 ff 0.560000 scf sf
(Data link) dup sw 2 div 7.500000 ex sub 24.200000 m gs 1 -1 sc sh gr
/Courier-latin1 ff 0.560000 scf sf
(Physical) dup sw 2 div 7.500000 ex sub 28.200000 m gs 1 -1 sc sh gr
1.000000 1.000000 1.000000 srgb
n 27.000000 3.000000 m 27.000000 5.000000 l 36.000000 5.000000 l 36.000000 3.000000 l f
0.100000 slw
[] 0 sd
[] 0 sd
0 slj
0.000000 0.000000 0.000000 srgb
n 27.000000 3.000000 m 27.000000 5.000000 l 36.000000 5.000000 l 36.000000 3.000000 l cp s
1.000000 1.000000 1.000000 srgb
n 27.000000 7.000000 m 27.000000 9.000000 l 36.000000 9.000000 l 36.000000 7.000000 l f
0.100000 slw
[] 0 sd
[] 0 sd
0 slj
0.000000 0.000000 0.000000 srgb
n 27.000000 7.000000 m 27.000000 9.000000 l 36.000000 9.000000 l 36.000000 7.000000 l cp s
1.000000 1.000000 1.000000 srgb
n 27.000000 11.000000 m 27.000000 13.000000 l 36.000000 13.000000 l 36.000000 11.000000 l f
0.100000 slw
[] 0 sd
[] 0 sd
0 slj
0.000000 0.000000 0.000000 srgb
n 27.000000 11.000000 m 27.000000 13.000000 l 36.000000 13.000000 l 36.000000 11.000000 l cp s
1.000000 1.000000 1.000000 srgb
n 27.000000 15.000000 m 27.000000 17.000000 l 36.000000 17.000000 l 36.000000 15.000000 l f
0.100000 slw
[] 0 sd
[] 0 sd
0 slj
0.000000 0.000000 0.000000 srgb
n 27.000000 15.000000 m 27.000000 17.000000 l 36.000000 17.000000 l 36.000000 15.000000 l cp s
1.000000 1.000000 1.000000 srgb
n 27.000000 19.000000 m 27.000000 21.000000 l 36.000000 21.000000 l 36.000000 19.000000 l f
0.100000 slw
[] 0 sd
[] 0 sd
0 slj
0.000000 0.000000 0.000000 srgb
n 27.000000 19.000000 m 27.000000 21.000000 l 36.000000 21.000000 l 36.000000 19.000000 l cp s
1.000000 1.000000 1.000000 srgb
n 27.000000 23.000000 m 27.000000 25.000000 l 36.000000 25.000000 l 36.000000 23.000000 l f
0.100000 slw
[] 0 sd
[] 0 sd
0 slj
0.000000 0.000000 0.000000 srgb
n 27.000000 23.000000 m 27.000000 25.000000 l 36.000000 25.000000 l 36.000000 23.000000 l cp s
1.000000 1.000000 1.000000 srgb
n 27.000000 27.000000 m 27.000000 29.000000 l 36.000000 29.000000 l 36.000000 27.000000 l f
0.100000 slw
[] 0 sd
[] 0 sd
0 slj
0.000000 0.000000 0.000000 srgb
n 27.000000 27.000000 m 27.000000 29.000000 l 36.000000 29.000000 l 36.000000 27.000000 l cp s
/Courier-latin1 ff 0.560000 scf sf
(Application) dup sw 2 div 31.475000 ex sub 4.250000 m gs 1 -1 sc sh gr
/Courier-latin1 ff 0.560000 scf sf
(Presentation) dup sw 2 div 31.450000 ex sub 8.150000 m gs 1 -1 sc sh gr
/Courier-latin1 ff 0.560000 scf sf
(Session) dup sw 2 div 31.500000 ex sub 12.150000 m gs 1 -1 sc sh gr
/Courier-latin1 ff 0.560000 scf sf
(Transport) dup sw 2 div 31.500000 ex sub 16.200000 m gs 1 -1 sc sh gr
/Courier-latin1 ff 0.560000 scf sf
(Network) dup sw 2 div 31.550000 ex sub 20.200000 m gs 1 -1 sc sh gr
/Courier-latin1 ff 0.560000 scf sf
(Data link) dup sw 2 div 31.500000 ex sub 24.200000 m gs 1 -1 sc sh gr
/Courier-latin1 ff 0.560000 scf sf
(Physical) dup sw 2 div 31.500000 ex sub 28.200000 m gs 1 -1 sc sh gr
0.100000 slw
[] 0 sd
[] 0 sd
0 slc
n 7.500000 5.561803 m 7.500000 6.438197 l s
[] 0 sd
0 slj
0 slc
n 7.500000 5.111803 m 7.800000 5.711803 l 7.500000 5.561803 l 7.200000 5.711803 l ef
n 7.500000 5.111803 m 7.800000 5.711803 l 7.500000 5.561803 l 7.200000 5.711803 l cp s
[] 0 sd
0 slj
0 slc
n 7.500000 6.888197 m 7.200000 6.288197 l 7.500000 6.438197 l 7.800000 6.288197 l ef
n 7.500000 6.888197 m 7.200000 6.288197 l 7.500000 6.438197 l 7.800000 6.288197 l cp s
0.100000 slw
[] 0 sd
[] 0 sd
0 slc
n 12.636803 28.000000 m 26.363197 28.000000 l s
[] 0 sd
0 slj
0 slc
n 12.111803 28.000000 m 12.811803 27.650000 l 12.636803 28.000000 l 12.811803 28.350000 l ef
n 12.111803 28.000000 m 12.811803 27.650000 l 12.636803 28.000000 l 12.811803 28.350000 l cp s
[] 0 sd
0 slj
0 slc
n 26.888197 28.000000 m 26.188197 28.350000 l 26.363197 28.000000 l 26.188197 27.650000 l ef
n 26.888197 28.000000 m 26.188197 28.350000 l 26.363197 28.000000 l 26.188197 27.650000 l cp s
0.100000 slw
[1.000000] 0 sd
[1.000000] 0 sd
0 slc
n 26.363197 4.000000 m 12.636803 4.000000 l s
[] 0 sd
0 slj
0 slc
n 26.888197 4.000000 m 26.188197 4.350000 l 26.363197 4.000000 l 26.188197 3.650000 l ef
n 26.888197 4.000000 m 26.188197 4.350000 l 26.363197 4.000000 l 26.188197 3.650000 l cp s
[] 0 sd
0 slj
0 slc
n 12.111803 4.000000 m 12.811803 3.650000 l 12.636803 4.000000 l 12.811803 4.350000 l ef
n 12.111803 4.000000 m 12.811803 3.650000 l 12.636803 4.000000 l 12.811803 4.350000 l cp s
/Courier-latin1 ff 0.700000 scf sf
(System Z \(Ziel\)) dup sw 2 div 8.000000 ex sub 31.000000 m gs 1 -1 sc sh gr
/Courier-latin1 ff 0.700000 scf sf
(System Q \(Quelle\)) dup sw 2 div 32.000000 ex sub 31.000000 m gs 1 -1 sc sh gr
/Courier-latin1 ff 0.560000 scf sf
(Layer) dup sw 2 div 2.000000 ex sub 2.000000 m gs 1 -1 sc sh gr
/Courier-latin1 ff 0.560000 scf sf
(1) dup sw 2 div 2.000000 ex sub 28.000000 m gs 1 -1 sc sh gr
/Courier-latin1 ff 0.560000 scf sf
(2) dup sw 2 div 2.000000 ex sub 24.000000 m gs 1 -1 sc sh gr
/Courier-latin1 ff 0.560000 scf sf
(3) dup sw 2 div 2.000000 ex sub 20.000000 m gs 1 -1 sc sh gr
/Courier-latin1 ff 0.560000 scf sf
(4) dup sw 2 div 2.000000 ex sub 16.000000 m gs 1 -1 sc sh gr
/Courier-latin1 ff 0.560000 scf sf
(5) dup sw 2 div 2.000000 ex sub 12.000000 m gs 1 -1 sc sh gr
/Courier-latin1 ff 0.560000 scf sf
(6) dup sw 2 div 2.000000 ex sub 8.000000 m gs 1 -1 sc sh gr
/Courier-latin1 ff 0.560000 scf sf
(7) dup sw 2 div 2.000000 ex sub 4.000000 m gs 1 -1 sc sh gr
0.100000 slw
[] 0 sd
[] 0 sd
0 slc
n 5.850000 32.000000 m 9.150000 32.000000 l s
0 slj
n 5.850000 31.600000 m 5.050000 32.000000 l 5.850000 32.400000 l ef
0 slj
n 9.150000 32.400000 m 9.950000 32.000000 l 9.150000 31.600000 l ef
/Courier-latin1 ff 0.560000 scf sf
(Real Connection) dup sw 2 div 14.725000 ex sub 32.000000 m gs 1 -1 sc sh gr
0.100000 slw
[1.000000] 0 sd
[1.000000] 0 sd
0 slc
n 5.850000 34.000000 m 9.150000 34.000000 l s
0 slj
n 5.850000 33.600000 m 5.050000 34.000000 l 5.850000 34.400000 l ef
0 slj
n 9.150000 34.400000 m 9.950000 34.000000 l 9.150000 33.600000 l ef
/Courier-latin1 ff 0.560000 scf sf
(Virtual Connection) dup sw 2 div 15.250000 ex sub 33.950010 m gs 1 -1 sc sh gr
/Courier-latin1 ff 0.560000 scf sf
(Name of Unit) dup sw 2 div 38.000000 ex sub 2.000000 m gs 1 -1 sc sh gr
/Courier-latin1 ff 0.560000 scf sf
(Bit) dup sw 2 div 37.280300 ex sub 28.000000 m gs 1 -1 sc sh gr
/Courier-latin1 ff 0.560000 scf sf
(Frame) dup sw 2 div 37.760100 ex sub 24.000000 m gs 1 -1 sc sh gr
/Courier-latin1 ff 0.560000 scf sf
(Packet) dup sw 2 div 38.000000 ex sub 20.000000 m gs 1 -1 sc sh gr
0.150000 slw
[] 0 sd
[] 0 sd
0 slc
n 1.000000 4.875000 m 1.000000 30.000000 l s
0 slj
n 1.400000 4.875000 m 1.000000 4.075000 l 0.600000 4.875000 l ef
0.150000 slw
[] 0 sd
[] 0 sd
0 slc
n 1.000000 30.000000 m 40.000000 30.000000 l s
0.150000 slw
[] 0 sd
[] 0 sd
0 slc
n 40.000000 30.000000 m 40.000000 4.000000 l s
0.150000 slw
[] 0 sd
[] 0 sd
0 slc
n 5.875000 36.000000 m 10.000000 36.000000 l s
0 slj
n 5.875000 35.600000 m 5.075000 36.000000 l 5.875000 36.400000 l ef
/Courier-latin1 ff 0.560000 scf sf
(Flow of Data from S to D) dup sw 2 div 16.300000 ex sub 36.050010 m gs 1 -1 sc sh gr
/Courier-latin1 ff 0.560000 scf sf
(Ethernet, TokenRing, ISDN) dup sw 2 div 20.000000 ex sub 27.000000 m gs 1 -1 sc sh gr
/Courier-latin1 ff 0.560000 scf sf
(Ethernet-, ATM-Switch) dup sw 2 div 20.000000 ex sub 23.000000 m gs 1 -1 sc sh gr
/Courier-Bold-latin1 ff 0.700000 scf sf
(Austausch von IPv4 gegen IPv6) dup sw 2 div 20.000000 ex sub 19.000000 m gs 1 -1 sc sh gr
/Courier-latin1 ff 0.560000 scf sf
(TCP, UDP, AH, ESP, ...) dup sw 2 div 19.000000 ex sub 15.000000 m gs 1 -1 sc sh gr
/Courier-latin1 ff 0.560000 scf sf
(ftp,http,smtp,pop3) dup sw 2 div 19.000000 ex sub 6.000000 m gs 1 -1 sc sh gr
(\(nicht alle Protokolle IPv6 kompatibel\)) dup sw 2 div 19.000000 ex sub 6.800000 m gs 1 -1 sc sh gr
/Courier-latin1 ff 0.840000 scf sf
(Applikation) dup sw 2 div 19.250200 ex sub 9.950010 m gs 1 -1 sc sh gr
/Courier-latin1 ff 0.840000 scf sf
(Netzwerk) dup sw 2 div 19.400200 ex sub 21.650000 m gs 1 -1 sc sh gr
/Courier-latin1 ff 0.840000 scf sf
(A) dup sw 2 div 26.000200 ex sub 32.800000 m gs 1 -1 sc sh gr
/Courier-latin1 ff 0.840000 scf sf
(N) dup sw 2 div 25.950200 ex sub 34.900000 m gs 1 -1 sc sh gr
/Courier-latin1 ff 0.560000 scf sf
(Network-Protocol) dup sw 2 div 31.000200 ex sub 34.750000 m gs 1 -1 sc sh gr
/Courier-latin1 ff 0.560000 scf sf
(User-Application) dup sw 2 div 31.100200 ex sub 32.750000 m gs 1 -1 sc sh gr
0.100000 slw
[] 0 sd
[] 0 sd
0 slc
n 31.500000 5.561803 m 31.500000 6.438197 l s
[] 0 sd
0 slj
0 slc
n 31.500000 5.111803 m 31.800000 5.711803 l 31.500000 5.561803 l 31.200000 5.711803 l ef
n 31.500000 5.111803 m 31.800000 5.711803 l 31.500000 5.561803 l 31.200000 5.711803 l cp s
[] 0 sd
0 slj
0 slc
n 31.500000 6.888197 m 31.200000 6.288197 l 31.500000 6.438197 l 31.800000 6.288197 l ef
n 31.500000 6.888197 m 31.200000 6.288197 l 31.500000 6.438197 l 31.800000 6.288197 l cp s
0.100000 slw
[] 0 sd
[] 0 sd
0 slc
n 31.500000 9.561803 m 31.500000 10.438197 l s
[] 0 sd
0 slj
0 slc
n 31.500000 9.111803 m 31.800000 9.711803 l 31.500000 9.561803 l 31.200000 9.711803 l ef
n 31.500000 9.111803 m 31.800000 9.711803 l 31.500000 9.561803 l 31.200000 9.711803 l cp s
[] 0 sd
0 slj
0 slc
n 31.500000 10.888197 m 31.200000 10.288197 l 31.500000 10.438197 l 31.800000 10.288197 l ef
n 31.500000 10.888197 m 31.200000 10.288197 l 31.500000 10.438197 l 31.800000 10.288197 l cp s
0.100000 slw
[] 0 sd
[] 0 sd
0 slc
n 31.500000 13.561803 m 31.500000 14.438197 l s
[] 0 sd
0 slj
0 slc
n 31.500000 13.111803 m 31.800000 13.711803 l 31.500000 13.561803 l 31.200000 13.711803 l ef
n 31.500000 13.111803 m 31.800000 13.711803 l 31.500000 13.561803 l 31.200000 13.711803 l cp s
[] 0 sd
0 slj
0 slc
n 31.500000 14.888197 m 31.200000 14.288197 l 31.500000 14.438197 l 31.800000 14.288197 l ef
n 31.500000 14.888197 m 31.200000 14.288197 l 31.500000 14.438197 l 31.800000 14.288197 l cp s
0.100000 slw
[] 0 sd
[] 0 sd
0 slc
n 31.500000 17.561803 m 31.500000 18.438197 l s
[] 0 sd
0 slj
0 slc
n 31.500000 17.111803 m 31.800000 17.711803 l 31.500000 17.561803 l 31.200000 17.711803 l ef
n 31.500000 17.111803 m 31.800000 17.711803 l 31.500000 17.561803 l 31.200000 17.711803 l cp s
[] 0 sd
0 slj
0 slc
n 31.500000 18.888197 m 31.200000 18.288197 l 31.500000 18.438197 l 31.800000 18.288197 l ef
n 31.500000 18.888197 m 31.200000 18.288197 l 31.500000 18.438197 l 31.800000 18.288197 l cp s
0.100000 slw
[] 0 sd
[] 0 sd
0 slc
n 31.500000 21.561803 m 31.500000 22.438197 l s
[] 0 sd
0 slj
0 slc
n 31.500000 21.111803 m 31.800000 21.711803 l 31.500000 21.561803 l 31.200000 21.711803 l ef
n 31.500000 21.111803 m 31.800000 21.711803 l 31.500000 21.561803 l 31.200000 21.711803 l cp s
[] 0 sd
0 slj
0 slc
n 31.500000 22.888197 m 31.200000 22.288197 l 31.500000 22.438197 l 31.800000 22.288197 l ef
n 31.500000 22.888197 m 31.200000 22.288197 l 31.500000 22.438197 l 31.800000 22.288197 l cp s
0.100000 slw
[] 0 sd
[] 0 sd
0 slc
n 31.500000 25.561803 m 31.500000 26.438197 l s
[] 0 sd
0 slj
0 slc
n 31.500000 25.111803 m 31.800000 25.711803 l 31.500000 25.561803 l 31.200000 25.711803 l ef
n 31.500000 25.111803 m 31.800000 25.711803 l 31.500000 25.561803 l 31.200000 25.711803 l cp s
[] 0 sd
0 slj
0 slc
n 31.500000 26.888197 m 31.200000 26.288197 l 31.500000 26.438197 l 31.800000 26.288197 l ef
n 31.500000 26.888197 m 31.200000 26.288197 l 31.500000 26.438197 l 31.800000 26.288197 l cp s
0.100000 slw
[] 0 sd
[] 0 sd
0 slc
n 7.500000 9.561803 m 7.500000 10.438197 l s
[] 0 sd
0 slj
0 slc
n 7.500000 9.111803 m 7.800000 9.711803 l 7.500000 9.561803 l 7.200000 9.711803 l ef
n 7.500000 9.111803 m 7.800000 9.711803 l 7.500000 9.561803 l 7.200000 9.711803 l cp s
[] 0 sd
0 slj
0 slc
n 7.500000 10.888197 m 7.200000 10.288197 l 7.500000 10.438197 l 7.800000 10.288197 l ef
n 7.500000 10.888197 m 7.200000 10.288197 l 7.500000 10.438197 l 7.800000 10.288197 l cp s
0.100000 slw
[] 0 sd
[] 0 sd
0 slc
n 7.500000 13.561803 m 7.500000 14.438197 l s
[] 0 sd
0 slj
0 slc
n 7.500000 13.111803 m 7.800000 13.711803 l 7.500000 13.561803 l 7.200000 13.711803 l ef
n 7.500000 13.111803 m 7.800000 13.711803 l 7.500000 13.561803 l 7.200000 13.711803 l cp s
[] 0 sd
0 slj
0 slc
n 7.500000 14.888197 m 7.200000 14.288197 l 7.500000 14.438197 l 7.800000 14.288197 l ef
n 7.500000 14.888197 m 7.200000 14.288197 l 7.500000 14.438197 l 7.800000 14.288197 l cp s
0.100000 slw
[] 0 sd
[] 0 sd
0 slc
n 7.500000 17.561803 m 7.500000 18.438197 l s
[] 0 sd
0 slj
0 slc
n 7.500000 17.111803 m 7.800000 17.711803 l 7.500000 17.561803 l 7.200000 17.711803 l ef
n 7.500000 17.111803 m 7.800000 17.711803 l 7.500000 17.561803 l 7.200000 17.711803 l cp s
[] 0 sd
0 slj
0 slc
n 7.500000 18.888197 m 7.200000 18.288197 l 7.500000 18.438197 l 7.800000 18.288197 l ef
n 7.500000 18.888197 m 7.200000 18.288197 l 7.500000 18.438197 l 7.800000 18.288197 l cp s
0.100000 slw
[] 0 sd
[] 0 sd
0 slc
n 7.500000 21.561803 m 7.500000 22.438197 l s
[] 0 sd
0 slj
0 slc
n 7.500000 21.111803 m 7.800000 21.711803 l 7.500000 21.561803 l 7.200000 21.711803 l ef
n 7.500000 21.111803 m 7.800000 21.711803 l 7.500000 21.561803 l 7.200000 21.711803 l cp s
[] 0 sd
0 slj
0 slc
n 7.500000 22.888197 m 7.200000 22.288197 l 7.500000 22.438197 l 7.800000 22.288197 l ef
n 7.500000 22.888197 m 7.200000 22.288197 l 7.500000 22.438197 l 7.800000 22.288197 l cp s
0.100000 slw
[] 0 sd
[] 0 sd
0 slc
n 7.500000 25.561803 m 7.500000 26.438197 l s
[] 0 sd
0 slj
0 slc
n 7.500000 25.111803 m 7.800000 25.711803 l 7.500000 25.561803 l 7.200000 25.711803 l ef
n 7.500000 25.111803 m 7.800000 25.711803 l 7.500000 25.561803 l 7.200000 25.711803 l cp s
[] 0 sd
0 slj
0 slc
n 7.500000 26.888197 m 7.200000 26.288197 l 7.500000 26.438197 l 7.800000 26.288197 l ef
n 7.500000 26.888197 m 7.200000 26.288197 l 7.500000 26.438197 l 7.800000 26.288197 l cp s
0.100000 slw
[1.000000] 0 sd
[1.000000] 0 sd
0 slc
n 26.363197 8.000000 m 12.636803 8.000000 l s
[] 0 sd
0 slj
0 slc
n 26.888197 8.000000 m 26.188197 8.350000 l 26.363197 8.000000 l 26.188197 7.650000 l ef
n 26.888197 8.000000 m 26.188197 8.350000 l 26.363197 8.000000 l 26.188197 7.650000 l cp s
[] 0 sd
0 slj
0 slc
n 12.111803 8.000000 m 12.811803 7.650000 l 12.636803 8.000000 l 12.811803 8.350000 l ef
n 12.111803 8.000000 m 12.811803 7.650000 l 12.636803 8.000000 l 12.811803 8.350000 l cp s
0.100000 slw
[1.000000] 0 sd
[1.000000] 0 sd
0 slc
n 26.363197 12.000000 m 12.636803 12.000000 l s
[] 0 sd
0 slj
0 slc
n 26.888197 12.000000 m 26.188197 12.350000 l 26.363197 12.000000 l 26.188197 11.650000 l ef
n 26.888197 12.000000 m 26.188197 12.350000 l 26.363197 12.000000 l 26.188197 11.650000 l cp s
[] 0 sd
0 slj
0 slc
n 12.111803 12.000000 m 12.811803 11.650000 l 12.636803 12.000000 l 12.811803 12.350000 l ef
n 12.111803 12.000000 m 12.811803 11.650000 l 12.636803 12.000000 l 12.811803 12.350000 l cp s
0.100000 slw
[1.000000] 0 sd
[1.000000] 0 sd
0 slc
n 26.363197 16.000000 m 12.636803 16.000000 l s
[] 0 sd
0 slj
0 slc
n 26.888197 16.000000 m 26.188197 16.350000 l 26.363197 16.000000 l 26.188197 15.650000 l ef
n 26.888197 16.000000 m 26.188197 16.350000 l 26.363197 16.000000 l 26.188197 15.650000 l cp s
[] 0 sd
0 slj
0 slc
n 12.111803 16.000000 m 12.811803 15.650000 l 12.636803 16.000000 l 12.811803 16.350000 l ef
n 12.111803 16.000000 m 12.811803 15.650000 l 12.636803 16.000000 l 12.811803 16.350000 l cp s
0.100000 slw
[1.000000] 0 sd
[1.000000] 0 sd
0 slc
n 26.363197 20.000000 m 12.636803 20.000000 l s
[] 0 sd
0 slj
0 slc
n 26.888197 20.000000 m 26.188197 20.350000 l 26.363197 20.000000 l 26.188197 19.650000 l ef
n 26.888197 20.000000 m 26.188197 20.350000 l 26.363197 20.000000 l 26.188197 19.650000 l cp s
[] 0 sd
0 slj
0 slc
n 12.111803 20.000000 m 12.811803 19.650000 l 12.636803 20.000000 l 12.811803 20.350000 l ef
n 12.111803 20.000000 m 12.811803 19.650000 l 12.636803 20.000000 l 12.811803 20.350000 l cp s
0.100000 slw
[1.000000] 0 sd
[1.000000] 0 sd
0 slc
n 26.363197 24.000000 m 12.636803 24.000000 l s
[] 0 sd
0 slj
0 slc
n 26.888197 24.000000 m 26.188197 24.350000 l 26.363197 24.000000 l 26.188197 23.650000 l ef
n 26.888197 24.000000 m 26.188197 24.350000 l 26.363197 24.000000 l 26.188197 23.650000 l cp s
[] 0 sd
0 slj
0 slc
n 12.111803 24.000000 m 12.811803 23.650000 l 12.636803 24.000000 l 12.811803 24.350000 l ef
n 12.111803 24.000000 m 12.811803 23.650000 l 12.636803 24.000000 l 12.811803 24.350000 l cp s
showpage
