%!PS-Adobe-2.0 EPSF-2.0
%%Title: verzweigung.fig
%%Creator: fig2dev Version 3.2 Patchlevel 4
%%CreationDate: Sun Jan 22 00:34:31 2006
%%For: steffen@cxc2 ()
%%BoundingBox: 0 0 359 102
%%Magnification: 1.0000
%%EndComments
/$F2psDict 200 dict def
$F2psDict begin
$F2psDict /mtrx matrix put
/col-1 {0 setgray} bind def
/col0 {0.000 0.000 0.000 srgb} bind def
/col1 {0.000 0.000 1.000 srgb} bind def
/col2 {0.000 1.000 0.000 srgb} bind def
/col3 {0.000 1.000 1.000 srgb} bind def
/col4 {1.000 0.000 0.000 srgb} bind def
/col5 {1.000 0.000 1.000 srgb} bind def
/col6 {1.000 1.000 0.000 srgb} bind def
/col7 {1.000 1.000 1.000 srgb} bind def
/col8 {0.000 0.000 0.560 srgb} bind def
/col9 {0.000 0.000 0.690 srgb} bind def
/col10 {0.000 0.000 0.820 srgb} bind def
/col11 {0.530 0.810 1.000 srgb} bind def
/col12 {0.000 0.560 0.000 srgb} bind def
/col13 {0.000 0.690 0.000 srgb} bind def
/col14 {0.000 0.820 0.000 srgb} bind def
/col15 {0.000 0.560 0.560 srgb} bind def
/col16 {0.000 0.690 0.690 srgb} bind def
/col17 {0.000 0.820 0.820 srgb} bind def
/col18 {0.560 0.000 0.000 srgb} bind def
/col19 {0.690 0.000 0.000 srgb} bind def
/col20 {0.820 0.000 0.000 srgb} bind def
/col21 {0.560 0.000 0.560 srgb} bind def
/col22 {0.690 0.000 0.690 srgb} bind def
/col23 {0.820 0.000 0.820 srgb} bind def
/col24 {0.500 0.190 0.000 srgb} bind def
/col25 {0.630 0.250 0.000 srgb} bind def
/col26 {0.750 0.380 0.000 srgb} bind def
/col27 {1.000 0.500 0.500 srgb} bind def
/col28 {1.000 0.630 0.630 srgb} bind def
/col29 {1.000 0.750 0.750 srgb} bind def
/col30 {1.000 0.880 0.880 srgb} bind def
/col31 {1.000 0.840 0.000 srgb} bind def

end
save
newpath 0 102 moveto 0 0 lineto 359 0 lineto 359 102 lineto closepath clip newpath
-166.5 368.3 translate
1 -1 scale

/cp {closepath} bind def
/ef {eofill} bind def
/gr {grestore} bind def
/gs {gsave} bind def
/sa {save} bind def
/rs {restore} bind def
/l {lineto} bind def
/m {moveto} bind def
/rm {rmoveto} bind def
/n {newpath} bind def
/s {stroke} bind def
/sh {show} bind def
/slc {setlinecap} bind def
/slj {setlinejoin} bind def
/slw {setlinewidth} bind def
/srgb {setrgbcolor} bind def
/rot {rotate} bind def
/sc {scale} bind def
/sd {setdash} bind def
/ff {findfont} bind def
/sf {setfont} bind def
/scf {scalefont} bind def
/sw {stringwidth} bind def
/tr {translate} bind def
/tnt {dup dup currentrgbcolor
  4 -2 roll dup 1 exch sub 3 -1 roll mul add
  4 -2 roll dup 1 exch sub 3 -1 roll mul add
  4 -2 roll dup 1 exch sub 3 -1 roll mul add srgb}
  bind def
/shd {dup dup currentrgbcolor 4 -2 roll mul 4 -2 roll mul
  4 -2 roll mul srgb} bind def
/$F2psBegin {$F2psDict begin /$F2psEnteredState save def} def
/$F2psEnd {$F2psEnteredState restore end} def

$F2psBegin
10 setmiterlimit
0 slj 0 slc
 0.06299 0.06299 sc
%
% Fig objects follow
%
% 
% here starts figure with depth 50
% Polyline
7.500 slw
gs  clippath
8340 5835 m 8340 5775 l 8189 5775 l 8309 5805 l 8189 5835 l cp
eoclip
n 5625 5805 m
 8325 5805 l gs col0 s gr gr

% arrowhead
n 8189 5835 m 8309 5805 l 8189 5775 l 8189 5835 l  cp gs 0.00 setgray ef gr  col0 s
% Polyline
gs  clippath
8340 5475 m 8340 5415 l 8189 5415 l 8309 5445 l 8189 5475 l cp
eoclip
n 2655 5445 m
 8325 5445 l gs col0 s gr gr

% arrowhead
n 8189 5475 m 8309 5445 l 8189 5415 l 8189 5475 l  cp gs 0.00 setgray ef gr  col0 s
% Polyline
gs  clippath
8340 4980 m 8340 4920 l 8189 4920 l 8309 4950 l 8189 4980 l cp
eoclip
n 4860 4950 m
 8325 4950 l gs col0 s gr gr

% arrowhead
n 8189 4980 m 8309 4950 l 8189 4920 l 8189 4980 l  cp gs 0.00 setgray ef gr  col0 s
% Polyline
n 4860 4950 m
 4860 5445 l gs col0 s gr 
% Polyline
gs  clippath
8340 4485 m 8340 4425 l 8189 4425 l 8309 4455 l 8189 4485 l cp
eoclip
n 6525 4455 m
 8325 4455 l gs col0 s gr gr

% arrowhead
n 8189 4485 m 8309 4455 l 8189 4425 l 8189 4485 l  cp gs 0.00 setgray ef gr  col0 s
% Polyline
n 6525 4455 m
 6525 4905 l gs col0 s gr 
% Polyline
n 5625 5445 m
 5625 5805 l gs col0 s gr 
/Helvetica ff 180.00 scf sf
2925 5355 m
gs 1 -1 sc (Hauptzweig) col0 sh gr
/Helvetica ff 180.00 scf sf
4950 4860 m
gs 1 -1 sc (1. Verzweigung) col0 sh gr
/Helvetica ff 180.00 scf sf
6705 4365 m
gs 1 -1 sc (3. Verzweigung) col0 sh gr
/Helvetica ff 180.00 scf sf
5805 5715 m
gs 1 -1 sc (2. Verzweigung) col0 sh gr
% here ends figure;
$F2psEnd
rs
showpage
